100 0.044 0.000 0.000 0.131 0.000 0.199 0.000 0.500 0.000 0.000 0.000 0.000 0.000 0.000 1.000 0.000 0.000 0.000 0.000 0.000 0.023 0.000
200 1.000 0.031 0.000 0.000 0.000 0.469 0.955 1.000 0.000 0.149 0.000 0.000 0.000 0.000 0.792 0.091 0.000 0.235 0.152 0.000 0.192 0.000
300 0.667 0.286 1.000 0.000 0.107 0.000 0.000 0.337 0.444 0.000 0.049 0.000 0.000 0.000 0.783 0.173 0.000 0.155 0.000 0.221 0.037 0.000
400 0.216 0.000 0.329 0.000 0.300 1.000 1.000 0.220 0.000 0.000 0.059 0.000 0.000 1.000 0.727 0.098 0.000 0.141 0.286 1.000 0.222 0.000
500 0.667 0.400 0.266 0.000 0.727 1.000 0.000 0.857 0.000 0.000 0.109 0.000 0.000 0.000 0.557 0.368 0.000 0.220 0.154 0.000 0.175 0.000
600 0.875 0.375 0.309 1.000 0.467 0.900 1.000 0.654 1.000 0.000 0.237 0.000 0.368 0.571 0.490 0.067 0.000 0.345 0.145 1.000 0.333 0.145
700 1.000 0.250 0.526 0.800 0.412 0.683 0.667 0.625 0.750 0.571 0.197 0.000 0.667 1.000 0.656 0.389 0.000 0.410 0.210 0.188 0.065 0.093
800 0.875 0.286 0.394 0.585 0.000 0.639 0.000 0.806 1.000 0.667 0.147 0.000 1.000 1.000 0.508 0.250 0.000 0.414 0.233 0.000 0.139 0.085
900 0.857 0.200 0.401 0.000 0.667 0.663 0.000 0.769 0.500 0.431 0.733 0.000 0.667 0.000 0.816 0.000 0.000 0.590 0.145 0.364 0.112 0.240
1000 0.875 1.000 0.300 0.947 0.273 0.631 1.000 0.909 0.406 0.487 0.357 0.000 0.212 1.000 0.515 0.161 0.000 0.634 0.179 0.744 0.429 0.227
1100 0.875 0.167 0.485 0.941 0.560 0.693 0.800 0.600 0.488 0.525 0.613 0.000 0.714 0.769 0.492 0.364 0.000 0.846 0.194 0.254 0.062 0.188
1200 0.516 0.123 0.563 0.833 0.435 0.826 0.842 0.479 0.380 0.579 0.214 0.000 0.333 1.000 0.536 0.667 0.000 0.680 0.207 0.377 0.188 0.118
1300 0.386 0.800 0.717 1.000 0.800 0.631 1.000 0.789 0.786 1.000 0.640 0.000 0.533 0.096 0.062 0.233 0.000 0.573 0.600 0.433 0.000 1.000
1400 0.909 0.214 0.452 0.947 0.600 0.630 1.000 0.846 1.000 0.300 0.636 0.333 0.444 0.400 0.588 0.303 0.000 0.633 0.201 0.104 0.081 0.036
1500 0.714 0.333 0.539 1.000 0.414 0.548 0.000 0.875 1.000 0.529 0.750 0.000 0.800 1.000 0.347 0.400 0.267 0.674 0.335 0.136 0.444 0.072
1600 0.889 0.333 0.545 0.844 0.490 0.576 0.917 0.933 0.889 0.565 0.600 0.000 0.531 1.000 0.548 0.400 0.300 0.474 0.271 0.242 0.139 0.113
1700 0.917 0.500 0.291 1.000 0.600 0.715 1.000 0.900 0.720 0.591 0.778 0.000 0.833 0.750 0.552 0.750 0.000 0.576 0.193 0.302 0.115 0.750
1800 0.810 0.263 0.565 0.844 0.460 0.637 0.966 0.556 0.769 0.603 0.333 0.000 0.358 0.212 0.362 0.205 0.500 0.424 0.210 0.607 0.462 0.800
1900 0.833 0.308 0.382 0.927 0.632 0.620 0.948 0.301 0.428 0.560 0.842 0.000 0.469 1.000 0.613 0.500 1.000 0.655 0.256 0.583 0.375 0.778
2000 0.875 0.250 0.249 0.941 0.400 0.506 0.944 0.596 1.000 0.655 0.800 1.000 0.714 1.000 0.689 0.500 0.118 0.670 0.245 0.516 0.538 0.462
2100 0.762 0.083 0.621 0.592 0.696 0.651 0.958 0.736 0.727 0.533 0.299 0.000 0.650 0.833 0.474 0.151 0.500 0.885 0.451 0.148 0.104 0.073
2200 0.778 0.250 0.667 0.918 0.688 0.732 1.000 0.542 1.000 0.471 0.652 1.000 0.692 0.714 0.445 0.286 0.143 0.744 0.369 0.118 0.061 0.078
2300 0.933 0.333 0.682 0.909 0.565 0.692 0.966 0.676 1.000 0.556 0.467 0.000 0.622 1.000 0.593 0.300 0.000 0.745 0.409 0.109 0.095 0.117
2400 0.667 0.750 0.758 0.962 0.217 0.230 0.984 0.894 0.857 0.364 0.227 0.000 1.000 0.400 0.101 0.000 0.200 0.828 0.397 0.548 0.600 0.500
2500 0.833 0.250 0.599 0.404 0.333 0.688 1.000 0.565 0.750 1.000 0.226 0.800 0.422 0.636 0.262 0.333 0.000 0.663 0.358 0.254 0.306 0.053
2600 0.615 0.083 0.475 0.906 0.762 0.665 0.971 0.378 0.688 0.727 0.618 0.385 0.097 0.224 0.563 0.222 0.333 0.840 0.519 0.442 0.467 0.600
2700 0.306 0.421 0.412 1.000 0.475 0.648 0.957 0.761 0.623 0.503 0.375 0.316 1.000 0.320 0.628 0.169 0.224 0.686 0.374 0.721 0.467 0.357
2800 1.000 0.214 0.648 0.922 0.407 0.551 0.947 0.778 0.586 0.618 0.390 0.000 0.609 0.750 0.585 0.222 0.000 0.632 0.330 0.116 0.333 0.435
2900 0.733 0.000 0.664 0.896 0.344 0.651 0.963 0.725 0.667 0.444 0.684 1.000 0.576 1.000 0.648 0.000 0.222 0.485 0.247 0.123 0.000 0.600
3000 1.000 0.200 0.517 0.538 0.500 0.635 0.984 0.512 0.778 0.548 0.417 0.000 0.365 0.571 0.203 0.333 0.000 0.806 0.208 0.714 0.391 0.615
3100 0.301 0.385 0.357 0.902 0.800 0.714 0.912 0.538 0.536 0.521 0.491 1.000 0.493 0.750 0.685 0.255 0.200 0.486 0.373 0.750 0.339 0.583
3200 0.465 0.391 0.596 0.849 0.558 0.710 0.929 0.449 0.682 0.739 0.611 0.579 0.577 0.543 0.428 0.286 0.320 0.637 0.398 0.511 0.218 0.415
3300 0.636 0.200 0.641 0.895 0.641 0.750 0.959 0.679 0.667 0.500 0.586 0.000 0.303 0.600 0.640 0.190 0.071 0.697 0.386 0.087 0.089 0.500
3400 0.800 0.130 0.616 0.783 1.000 0.534 0.976 0.403 0.800 0.538 0.500 0.385 0.857 0.622 0.600 0.353 0.264 0.522 0.340 0.545 0.241 0.230
3500 0.480 0.265 0.393 1.000 0.375 0.661 0.825 0.808 1.000 0.692 0.656 0.583 0.808 0.233 0.128 0.154 0.167 0.806 0.473 0.351 0.189 0.135
3600 0.759 0.462 0.685 0.503 0.293 0.642 0.811 0.467 0.800 0.368 0.517 0.357 0.509 0.632 0.432 0.474 0.167 0.690 0.411 0.465 0.189 0.129
3700 0.255 0.026 0.540 0.802 0.000 0.497 0.978 0.686 0.458 0.571 0.375 0.000 0.882 0.565 0.233 0.250 0.381 0.435 0.513 0.535 0.333 0.275
3800 0.305 0.312 0.607 0.827 0.615 0.679 0.976 0.568 0.683 0.636 0.629 0.471 0.311 0.750 0.472 0.174 0.340 0.566 0.565 0.549 0.367 0.739
3900 0.824 0.188 0.748 0.557 0.372 0.731 0.857 0.586 0.527 0.634 0.545 0.333 0.310 0.446 0.307 0.184 0.150 0.690 0.341 0.432 0.286 0.141
4000 0.679 0.000 0.777 0.580 0.463 0.685 0.921 0.368 0.697 0.600 0.448 0.600 0.484 0.771 0.573 0.200 0.000 0.680 0.305 0.360 0.296 0.286
4100 0.649 0.333 0.694 0.480 0.410 0.653 0.933 0.744 0.786 0.287 0.571 0.303 0.588 0.714 0.650 0.429 0.227 0.654 0.408 0.589 0.275 0.356
4200 0.531 0.000 0.415 1.000 0.533 0.446 0.974 0.778 0.477 0.404 0.600 0.000 0.733 0.524 0.567 0.333 0.250 0.683 0.340 0.219 0.000 0.173
4300 0.647 0.172 0.650 0.951 0.650 0.554 0.963 0.575 1.000 0.686 0.577 0.500 0.864 0.480 0.426 0.293 0.214 0.647 0.291 0.234 0.360 0.224
4400 0.711 0.226 0.293 0.915 0.511 0.676 0.964 0.911 0.629 0.612 0.581 0.000 0.588 0.525 0.570 0.262 1.000 0.538 0.285 0.522 0.533 0.667
4500 0.824 0.171 0.662 0.683 0.543 0.697 0.927 0.587 0.698 0.613 0.639 0.286 0.622 0.406 0.320 0.203 0.289 0.629 0.309 0.380 0.250 0.476
4600 0.711 0.375 0.407 0.941 0.722 0.676 0.957 0.635 0.516 0.722 0.535 0.500 0.760 0.617 0.528 0.139 0.200 0.714 0.388 0.556 0.228 0.647
4700 0.442 0.292 0.484 0.705 0.414 0.581 0.967 0.911 0.870 0.722 0.151 0.286 0.783 0.583 0.170 0.208 0.429 0.430 0.474 0.519 0.257 0.750
4800 0.619 0.211 0.661 0.673 0.381 0.684 0.914 0.520 0.759 0.264 0.621 0.400 0.558 0.528 0.682 0.364 0.301 0.619 0.400 0.494 0.293 0.481
4900 0.359 0.143 0.500 1.000 0.457 0.581 0.965 0.667 0.469 0.303 0.500 0.000 0.686 1.000 0.623 0.333 0.344 0.543 0.277 0.677 0.462 1.000
5000 0.596 0.280 0.246 0.879 0.460 0.652 0.911 0.762 0.800 0.422 0.217 0.778 0.821 0.759 0.738 0.400 0.197 0.661 0.366 0.604 0.375 0.800
5100 0.857 0.125 0.745 0.807 0.571 0.653 0.970 0.253 1.000 0.875 0.406 0.531 0.857 0.342 0.583 0.279 0.142 0.738 0.358 0.304 0.071 0.667
5200 0.833 0.154 0.349 0.966 0.714 0.626 0.972 0.442 0.767 0.624 0.625 0.478 0.545 0.557 0.605 0.353 0.350 0.607 0.355 0.588 0.519 0.371
5300 0.142 0.120 0.695 0.887 0.588 0.693 0.984 0.312 0.750 0.488 0.720 0.889 0.553 0.667 0.332 0.233 0.200 0.803 0.306 0.649 0.333 0.375
5400 0.471 0.102 0.474 0.971 0.571 0.584 0.930 0.674 0.697 0.612 0.833 0.600 0.647 0.692 0.346 0.197 0.167 0.816 0.513 0.379 0.294 0.129
5500 0.667 0.111 0.432 0.833 0.667 0.538 0.918 0.800 0.611 0.474 0.548 0.375 0.574 0.611 0.452 0.226 0.714 0.631 0.351 0.342 0.216 0.269
5600 0.833 0.141 0.630 0.829 0.560 0.722 0.986 0.804 0.773 0.565 0.405 0.294 0.909 0.800 0.735 0.119 0.385 0.466 0.461 0.161 0.067 0.667
5700 0.431 0.417 0.281 0.905 0.778 0.625 0.986 0.619 0.699 0.540 0.696 0.429 0.686 0.643 0.648 0.309 0.268 0.657 0.454 0.552 0.371 0.667
5800 0.610 0.200 0.506 0.750 0.667 0.667 0.973 0.829 0.660 0.373 0.667 0.500 0.812 0.354 0.347 0.262 0.348 0.611 0.283 0.661 0.600 1.000
5900 0.500 0.167 0.365 0.840 0.471 0.533 0.930 0.943 0.541 0.340 0.323 0.000 0.895 0.466 0.460 0.256 0.216 0.723 0.455 0.818 0.390 1.000
6000 0.595 0.286 0.716 0.570 0.333 0.731 0.946 0.289 0.554 0.463 0.338 0.500 0.656 0.750 0.543 0.188 0.124 0.663 0.480 0.302 0.123 0.123
6100 0.708 0.227 0.438 0.863 0.417 0.578 0.852 0.634 0.566 0.361 0.526 0.667 0.744 0.571 0.562 0.286 0.286 0.571 0.418 0.685 0.386 0.393
6200 0.800 0.316 0.595 0.859 0.372 0.651 0.983 0.550 0.528 0.682 0.622 0.462 0.319 0.692 0.608 0.133 0.365 0.547 0.367 0.419 0.194 0.483
6300 0.667 0.167 0.280 0.917 0.414 0.632 0.977 0.787 0.767 0.591 0.636 0.525 0.718 0.526 0.652 0.261 0.239 0.699 0.379 0.512 0.212 0.476
6400 0.340 0.148 0.612 0.692 0.562 0.647 0.939 0.934 0.570 0.446 0.400 0.722 0.762 0.471 0.261 0.286 0.600 0.521 0.370 0.637 0.400 0.438
6500 0.727 0.217 0.701 0.818 0.385 0.636 0.929 0.429 0.722 0.568 0.286 0.636 0.840 0.833 0.475 0.167 0.315 0.563 0.431 0.357 0.293 0.333
6600 0.789 0.110 0.509 0.575 0.327 0.738 0.933 0.833 1.000 0.562 0.304 0.360 0.280 0.312 0.365 0.125 0.239 0.770 0.307 0.390 0.234 0.152
6700 0.567 0.108 0.439 0.901 0.474 0.568 0.980 0.762 0.701 0.484 0.460 0.706 0.500 0.456 0.349 0.257 0.350 0.660 0.339 0.543 0.296 0.448
6800 0.459 0.227 0.603 0.880 0.463 0.699 0.952 0.555 0.440 0.720 0.583 0.714 0.317 0.690 0.600 0.254 0.243 0.477 0.292 0.685 0.438 0.706
6900 0.432 0.467 0.556 0.877 0.477 0.629 0.966 0.759 0.565 0.564 0.533 0.500 0.644 0.467 0.456 0.168 0.333 0.507 0.274 0.614 0.423 0.818
7000 0.697 0.333 0.622 0.839 0.298 0.767 0.822 0.427 0.672 0.667 0.611 0.750 0.618 0.575 0.323 0.323 0.200 0.752 0.538 0.418 0.333 0.583
7100 0.769 0.235 0.610 0.864 0.667 0.647 0.942 0.410 0.679 0.558 0.532 0.500 0.600 0.933 0.690 0.308 0.209 0.678 0.304 0.303 0.174 0.106
7200 0.654 0.101 0.494 0.596 0.308 0.659 0.980 0.750 1.000 0.630 0.253 0.500 0.636 1.000 0.458 0.400 0.000 0.369 0.246 0.267 0.162 0.202
7300 0.722 0.148 0.395 0.894 0.519 0.467 0.977 0.760 0.652 0.522 1.000 0.316 0.667 0.411 0.549 0.412 0.271 0.518 0.309 0.675 0.409 0.778
7400 0.742 0.206 0.496 0.854 0.611 0.610 0.952 0.374 0.611 0.325 0.481 0.769 0.774 0.750 0.710 0.270 0.345 0.686 0.472 0.619 0.371 0.833
7500 0.727 0.231 0.603 0.700 0.476 0.627 0.950 0.577 0.828 0.506 0.610 0.560 0.673 0.512 0.704 0.359 0.259 0.700 0.378 0.547 0.333 0.647
7600 0.614 0.250 0.633 0.862 0.567 0.654 0.928 0.581 0.723 0.474 0.622 0.441 0.718 0.514 0.557 0.312 0.308 0.649 0.391 0.597 0.400 0.520
7700 0.786 0.429 0.565 0.892 0.625 0.600 0.916 0.488 0.595 0.558 0.789 0.609 0.661 0.667 0.543 0.400 0.290 0.640 0.449 0.488 0.455 0.706
7800 0.756 0.400 0.471 0.923 0.565 0.661 0.941 0.550 0.654 0.518 0.676 0.692 0.828 0.824 0.662 0.351 0.391 0.487 0.386 0.525 0.344 0.900
7900 0.694 0.312 0.531 0.839 0.643 0.615 0.940 0.563 0.653 0.500 0.719 0.667 0.618 0.618 0.546 0.400 0.306 0.607 0.482 0.538 0.250 0.438
8000 0.586 0.312 0.599 0.909 0.562 0.616 0.938 0.543 0.480 0.505 0.629 0.667 0.543 0.607 0.550 0.419 0.339 0.674 0.434 0.641 0.448 0.667
8100 0.667 0.250 0.495 0.925 0.500 0.632 0.939 0.571 0.738 0.432 0.611 0.667 0.717 0.640 0.559 0.500 0.239 0.677 0.478 0.466 0.323 0.625
8200 0.662 0.429 0.581 0.890 0.481 0.623 0.906 0.561 0.635 0.610 0.576 0.542 0.689 0.494 0.424 0.409 0.306 0.724 0.385 0.586 0.462 1.000
8300 0.712 0.182 0.455 0.833 0.500 0.632 0.923 0.613 0.648 0.519 0.741 0.818 0.576 0.571 0.554 0.360 0.310 0.663 0.427 0.559 0.333 0.917
8400 0.638 0.231 0.495 0.857 0.522 0.604 0.933 0.610 0.626 0.483 0.543 0.750 0.635 0.596 0.655 0.375 0.303 0.593 0.446 0.624 0.444 0.917
8500 0.603 0.308 0.641 0.884 0.524 0.626 0.941 0.520 0.676 0.490 0.606 0.550 0.576 0.603 0.658 0.364 0.293 0.655 0.363 0.604 0.481 1.000
8600 0.600 0.308 0.507 0.875 0.588 0.603 0.950 0.535 0.590 0.467 0.581 0.722 0.565 0.618 0.654 0.412 0.245 0.713 0.483 0.552 0.414 0.722
8700 0.661 0.308 0.523 0.868 0.459 0.656 0.946 0.561 0.804 0.528 0.657 0.722 0.474 0.545 0.647 0.450 0.316 0.589 0.398 0.593 0.405 0.750
8800 0.581 0.333 0.580 0.886 0.560 0.620 0.921 0.552 0.691 0.568 0.590 0.567 0.587 0.600 0.567 0.294 0.295 0.605 0.382 0.570 0.480 0.536
8900 0.621 0.211 0.539 0.872 0.647 0.627 0.943 0.518 0.553 0.390 0.667 0.625 0.698 0.633 0.721 0.462 0.243 0.654 0.358 0.564 0.350 0.882
9000 0.623 0.286 0.587 0.894 0.542 0.652 0.923 0.503 0.670 0.450 0.600 0.526 0.640 0.556 0.616 0.345 0.352 0.656 0.381 0.699 0.484 0.900
9100 0.574 0.300 0.534 0.871 0.435 0.614 0.952 0.618 0.759 0.398 0.667 0.636 0.644 0.660 0.676 0.278 0.240 0.711 0.351 0.536 0.339 0.367
9200 0.471 0.368 0.479 0.893 0.611 0.631 0.914 0.664 0.726 0.402 0.680 0.833 0.652 0.471 0.280 0.344 0.300 0.622 0.423 0.568 0.400 0.818
9300 0.857 0.000 0.626 0.910 0.465 0.614 0.917 0.479 0.653 0.494 0.696 0.625 0.737 0.476 0.571 0.478 0.344 0.691 0.335 0.491 0.476 1.000
9400 0.714 0.300 0.465 0.700 0.526 0.595 0.940 0.694 0.489 0.467 0.688 0.600 0.719 0.647 0.644 0.387 0.385 0.608 0.374 0.527 0.342 0.800
9500 0.667 0.280 0.531 0.765 0.375 0.686 0.957 0.569 0.497 0.419 0.531 0.667 0.649 0.667 0.632 0.333 0.393 0.610 0.409 0.531 0.370 0.250
9600 0.706 0.000 0.473 0.792 0.500 0.653 0.968 0.632 0.593 0.500 0.640 0.500 0.733 0.750 0.614 0.333 0.316 0.576 0.425 0.495 0.292 0.733
9700 0.698 0.308 0.534 0.800 0.327 0.630 0.909 0.478 0.633 0.503 0.345 0.769 0.656 0.589 0.630 0.245 0.315 0.547 0.447 0.531 0.348 0.900
9800 0.767 0.250 0.504 0.848 0.533 0.736 0.956 0.675 0.679 0.413 0.478 0.714 0.615 0.778 0.607 0.417 0.188 0.647 0.392 0.484 0.247 0.326
9900 0.688 0.261 0.462 0.844 0.577 0.643 0.948 0.448 0.656 0.402 0.625 0.647 0.556 0.474 0.647 0.173 0.218 0.583 0.482 0.652 0.455 0.522
10000 0.689 0.444 0.636 0.866 0.519 0.679 0.958 0.378 0.629 0.525 0.579 0.459 0.508 0.516 0.646 0.300 0.241 0.690 0.425 0.500 0.360 0.900
10100 0.402 0.263 0.555 0.847 0.650 0.657 0.890 0.570 0.724 0.470 0.553 0.500 0.610 0.357 0.382 0.375 0.267 0.686 0.453 0.580 0.425 0.478
10200 0.582 0.353 0.633 0.826 0.450 0.660 0.943 0.614 0.569 0.484 0.443 0.625 0.718 0.743 0.630 0.471 0.297 0.651 0.356 0.537 0.435 0.395
10300 0.507 0.273 0.483 0.900 0.606 0.654 0.944 0.610 0.576 0.442 0.559 0.303 0.655 0.536 0.574 0.333 0.253 0.740 0.329 0.617 0.529 0.448
10400 0.683 0.214 0.447 0.783 0.405 0.624 0.963 0.567 0.648 0.494 0.575 0.357 0.615 0.600 0.574 0.318 0.271 0.597 0.363 0.500 0.318 0.452
10500 0.486 0.000 0.525 0.863 0.512 0.642 0.851 0.490 0.758 0.421 0.706 0.750 0.613 0.597 0.667 0.297 0.360 0.705 0.339 0.551 0.562 0.833
10600 0.593 0.333 0.448 0.966 0.556 0.634 0.988 0.525 0.485 0.536 0.700 1.000 0.596 0.875 0.679 0.450 0.231 0.612 0.318 0.344 0.429 0.700
10700 0.556 0.429 0.485 0.878 0.667 0.634 0.874 0.571 0.609 0.463 0.571 1.000 0.562 0.778 0.591 0.361 0.302 0.604 0.403 0.516 0.458 0.632
10800 0.690 0.583 0.661 0.831 0.591 0.609 0.920 0.653 0.657 0.412 0.448 0.565 0.679 0.706 0.649 0.302 0.273 0.631 0.411 0.437 0.341 0.438
