100 0.000 0.000 0.000 0.000 0.000 0.120 0.000 0.000 0.000 0.077 0.000 0.000 0.000 0.000 0.000 0.000 0.000 0.000 0.000 0.065 0.000 0.000
200 0.058 0.000 0.000 0.000 0.000 0.312 0.080 0.000 0.000 0.000 0.000 0.000 0.000 0.050 0.039 0.000 0.000 0.000 0.000 0.152 0.000 0.000
300 0.000 0.000 0.145 0.000 0.000 0.000 0.000 0.012 0.000 0.000 0.000 0.000 0.000 0.000 0.111 0.000 0.000 0.000 0.063 0.040 0.013 0.000
400 0.000 0.027 0.536 0.000 0.357 0.008 0.319 0.024 0.000 0.055 0.000 0.000 0.000 0.000 0.533 0.000 0.000 0.107 0.645 0.067 0.082 0.000
500 0.034 0.032 0.216 0.000 0.000 0.230 0.436 0.094 0.071 0.074 0.068 0.000 0.000 0.000 0.290 0.000 0.043 0.000 0.639 0.256 0.000 0.000
600 0.000 0.000 0.136 0.000 0.346 0.000 0.000 0.155 0.000 0.000 0.066 0.000 0.000 0.000 0.113 0.000 0.000 0.000 0.554 0.151 0.054 0.000
700 0.132 0.000 0.640 0.000 0.093 0.231 0.128 0.291 0.071 0.154 0.224 0.000 0.122 0.057 0.588 0.154 0.029 0.185 0.658 0.361 0.120 0.000
800 0.107 0.074 0.484 0.222 0.000 0.529 0.677 0.304 0.019 0.280 0.136 0.000 0.068 0.110 0.349 0.065 0.000 0.368 0.662 0.370 0.000 0.000
900 0.118 0.076 0.401 0.077 0.000 0.271 0.337 0.255 0.055 0.445 0.175 0.000 0.000 0.000 0.614 0.062 0.000 0.364 0.579 0.000 0.246 0.000
1000 0.034 0.000 0.447 0.101 0.481 0.157 0.000 0.165 0.000 0.000 0.022 0.000 0.000 0.000 0.587 0.062 0.000 0.334 0.645 0.277 0.041 0.018
1100 0.182 0.000 0.691 0.053 0.384 0.531 0.629 0.204 0.058 0.450 0.029 0.000 0.000 0.057 0.595 0.162 0.000 0.243 0.691 0.427 0.182 0.000
1200 0.114 0.057 0.601 0.127 0.000 0.482 0.318 0.105 0.183 0.298 0.198 0.000 0.091 0.029 0.609 0.000 0.000 0.404 0.727 0.350 0.099 0.000
1300 0.034 0.000 0.171 0.000 0.146 0.208 0.728 0.200 0.038 0.000 0.179 0.000 0.000 0.000 0.035 0.000 0.000 0.033 0.223 0.140 0.048 0.000
1400 0.034 0.000 0.461 0.052 0.364 0.030 0.027 0.232 0.136 0.038 0.182 0.000 0.119 0.000 0.456 0.000 0.000 0.316 0.390 0.082 0.018 0.000
1500 0.125 0.000 0.617 0.396 0.227 0.483 0.640 0.167 0.057 0.381 0.231 0.000 0.241 0.000 0.447 0.167 0.000 0.488 0.764 0.113 0.135 0.043
1600 0.182 0.000 0.739 0.538 0.396 0.594 0.838 0.250 0.236 0.476 0.146 0.000 0.184 0.029 0.628 0.000 0.025 0.482 0.803 0.374 0.212 0.080
1700 0.068 0.059 0.551 0.127 0.508 0.603 0.396 0.286 0.058 0.108 0.152 0.000 0.000 0.057 0.678 0.000 0.000 0.520 0.792 0.275 0.057 0.067
1800 0.299 0.000 0.654 0.377 0.367 0.640 0.471 0.447 0.154 0.447 0.229 0.000 0.255 0.265 0.655 0.000 0.000 0.447 0.704 0.400 0.057 0.091
1900 0.118 0.000 0.437 0.337 0.000 0.406 0.633 0.094 0.038 0.071 0.111 0.000 0.031 0.152 0.335 0.117 0.000 0.465 0.644 0.134 0.033 0.051
2000 0.339 0.123 0.699 0.446 0.515 0.561 0.564 0.333 0.094 0.694 0.159 0.000 0.222 0.000 0.303 0.000 0.000 0.450 0.773 0.308 0.405 0.136
2100 0.200 0.122 0.686 0.387 0.528 0.674 0.835 0.273 0.276 0.602 0.131 0.000 0.243 0.150 0.500 0.176 0.000 0.480 0.737 0.265 0.000 0.063
2200 0.034 0.000 0.488 0.078 0.000 0.131 0.000 0.156 0.000 0.000 0.232 0.000 0.192 0.029 0.610 0.278 0.000 0.354 0.764 0.058 0.039 0.000
2300 0.209 0.059 0.732 0.577 0.340 0.644 0.833 0.343 0.371 0.689 0.218 0.000 0.216 0.286 0.772 0.162 0.059 0.543 0.792 0.262 0.338 0.122
2400 0.318 0.000 0.647 0.395 0.525 0.622 0.868 0.391 0.125 0.615 0.265 0.048 0.391 0.444 0.719 0.105 0.040 0.558 0.812 0.469 0.057 0.000
2500 0.225 0.049 0.590 0.491 0.291 0.449 0.725 0.333 0.109 0.367 0.200 0.000 0.219 0.140 0.160 0.063 0.000 0.511 0.666 0.318 0.057 0.000
2600 0.279 0.143 0.669 0.529 0.217 0.727 0.676 0.404 0.309 0.658 0.241 0.229 0.260 0.200 0.291 0.022 0.000 0.454 0.743 0.532 0.053 0.000
2700 0.100 0.000 0.623 0.346 0.093 0.240 0.859 0.288 0.057 0.324 0.215 0.208 0.411 0.216 0.367 0.154 0.050 0.548 0.722 0.192 0.099 0.022
2800 0.312 0.143 0.699 0.279 0.416 0.562 0.768 0.489 0.095 0.462 0.116 0.000 0.286 0.057 0.708 0.098 0.089 0.408 0.771 0.503 0.286 0.070
2900 0.127 0.000 0.729 0.569 0.392 0.657 0.598 0.369 0.093 0.410 0.282 0.185 0.312 0.208 0.710 0.261 0.000 0.177 0.756 0.319 0.053 0.154
3000 0.388 0.000 0.732 0.683 0.400 0.670 0.765 0.489 0.256 0.646 0.113 0.286 0.404 0.525 0.673 0.000 0.082 0.492 0.804 0.278 0.108 0.197
3100 0.358 0.070 0.713 0.637 0.320 0.682 0.803 0.411 0.409 0.658 0.040 0.087 0.270 0.306 0.308 0.080 0.023 0.445 0.692 0.524 0.279 0.212
3200 0.460 0.000 0.695 0.754 0.545 0.677 0.611 0.532 0.276 0.719 0.239 0.000 0.391 0.515 0.678 0.170 0.000 0.518 0.816 0.604 0.057 0.326
3300 0.163 0.050 0.699 0.586 0.530 0.463 0.737 0.352 0.234 0.243 0.086 0.000 0.149 0.149 0.345 0.089 0.080 0.524 0.613 0.392 0.027 0.045
3400 0.212 0.053 0.644 0.480 0.000 0.255 0.778 0.274 0.367 0.248 0.119 0.000 0.415 0.137 0.223 0.044 0.025 0.507 0.771 0.279 0.109 0.038
3500 0.100 0.000 0.727 0.447 0.531 0.241 0.515 0.351 0.336 0.684 0.164 0.000 0.121 0.056 0.597 0.114 0.000 0.329 0.774 0.385 0.108 0.000
3600 0.161 0.000 0.343 0.667 0.222 0.451 0.859 0.180 0.057 0.128 0.222 0.000 0.250 0.111 0.677 0.061 0.000 0.347 0.800 0.115 0.011 0.025
3700 0.304 0.000 0.751 0.712 0.442 0.580 0.866 0.453 0.158 0.505 0.225 0.242 0.508 0.396 0.591 0.192 0.209 0.468 0.819 0.390 0.030 0.090
3800 0.458 0.000 0.748 0.833 0.492 0.714 0.874 0.428 0.076 0.630 0.269 0.000 0.510 0.344 0.534 0.057 0.107 0.471 0.834 0.339 0.321 0.146
3900 0.232 0.000 0.755 0.740 0.340 0.610 0.797 0.409 0.378 0.673 0.172 0.225 0.351 0.168 0.270 0.255 0.000 0.572 0.751 0.377 0.058 0.125
4000 0.129 0.120 0.733 0.502 0.190 0.720 0.337 0.361 0.381 0.577 0.353 0.246 0.355 0.475 0.624 0.167 0.000 0.504 0.813 0.227 0.418 0.207
4100 0.098 0.000 0.672 0.748 0.105 0.619 0.847 0.191 0.229 0.183 0.214 0.000 0.062 0.187 0.460 0.059 0.101 0.529 0.814 0.176 0.068 0.108
4200 0.161 0.043 0.754 0.825 0.273 0.577 0.821 0.454 0.311 0.516 0.129 0.000 0.391 0.315 0.686 0.190 0.112 0.555 0.789 0.392 0.343 0.000
4300 0.438 0.036 0.702 0.623 0.427 0.595 0.571 0.383 0.164 0.205 0.105 0.000 0.151 0.053 0.159 0.060 0.000 0.429 0.643 0.468 0.250 0.204
4400 0.384 0.100 0.742 0.764 0.422 0.662 0.841 0.471 0.469 0.676 0.123 0.000 0.489 0.424 0.646 0.178 0.000 0.623 0.812 0.521 0.256 0.000
4500 0.442 0.000 0.712 0.458 0.505 0.673 0.827 0.424 0.390 0.615 0.091 0.000 0.174 0.315 0.300 0.059 0.000 0.532 0.784 0.389 0.333 0.084
4600 0.206 0.167 0.672 0.762 0.433 0.656 0.770 0.239 0.326 0.446 0.105 0.000 0.061 0.230 0.447 0.118 0.000 0.466 0.767 0.481 0.205 0.148
4700 0.366 0.100 0.765 0.831 0.146 0.748 0.872 0.479 0.346 0.728 0.286 0.270 0.604 0.324 0.558 0.205 0.157 0.608 0.824 0.206 0.324 0.268
4800 0.361 0.000 0.729 0.738 0.448 0.648 0.840 0.498 0.320 0.518 0.262 0.048 0.301 0.396 0.679 0.238 0.065 0.638 0.837 0.522 0.377 0.149
4900 0.174 0.091 0.682 0.542 0.200 0.633 0.844 0.423 0.276 0.310 0.240 0.093 0.261 0.069 0.069 0.108 0.045 0.487 0.557 0.441 0.282 0.109
5000 0.209 0.040 0.514 0.297 0.467 0.602 0.838 0.393 0.264 0.451 0.262 0.000 0.323 0.154 0.115 0.048 0.024 0.415 0.658 0.560 0.256 0.171
5100 0.340 0.063 0.725 0.724 0.404 0.528 0.838 0.268 0.397 0.572 0.187 0.000 0.279 0.029 0.571 0.000 0.165 0.591 0.667 0.377 0.229 0.045
5200 0.215 0.000 0.731 0.700 0.286 0.696 0.885 0.387 0.367 0.558 0.278 0.000 0.449 0.208 0.610 0.195 0.000 0.459 0.823 0.413 0.261 0.080
5300 0.440 0.000 0.757 0.425 0.460 0.698 0.773 0.514 0.471 0.669 0.299 0.085 0.437 0.317 0.735 0.222 0.022 0.526 0.830 0.513 0.000 0.095
5400 0.454 0.000 0.755 0.685 0.609 0.714 0.842 0.456 0.328 0.731 0.319 0.270 0.324 0.407 0.654 0.098 0.225 0.369 0.823 0.553 0.313 0.381
5500 0.512 0.222 0.755 0.716 0.375 0.746 0.884 0.515 0.388 0.783 0.262 0.000 0.286 0.336 0.366 0.077 0.108 0.535 0.833 0.600 0.211 0.343
5600 0.357 0.132 0.765 0.731 0.467 0.580 0.849 0.404 0.195 0.371 0.115 0.000 0.340 0.270 0.618 0.226 0.043 0.577 0.829 0.361 0.396 0.132
5700 0.324 0.139 0.718 0.684 0.480 0.657 0.886 0.434 0.283 0.529 0.207 0.127 0.526 0.198 0.462 0.190 0.069 0.612 0.797 0.526 0.197 0.419
5800 0.408 0.059 0.758 0.280 0.610 0.657 0.899 0.469 0.464 0.591 0.303 0.130 0.441 0.111 0.597 0.167 0.000 0.307 0.803 0.491 0.484 0.226
5900 0.390 0.049 0.730 0.518 0.638 0.694 0.912 0.488 0.305 0.642 0.133 0.083 0.341 0.296 0.483 0.127 0.000 0.468 0.814 0.444 0.393 0.110
6000 0.472 0.149 0.645 0.673 0.528 0.676 0.904 0.500 0.331 0.705 0.187 0.098 0.513 0.293 0.705 0.233 0.024 0.492 0.773 0.413 0.419 0.286
6100 0.463 0.103 0.734 0.787 0.430 0.609 0.893 0.424 0.500 0.723 0.293 0.075 0.476 0.289 0.551 0.256 0.106 0.607 0.855 0.566 0.302 0.296
6200 0.373 0.091 0.701 0.770 0.533 0.673 0.882 0.280 0.443 0.664 0.155 0.235 0.147 0.200 0.233 0.108 0.000 0.512 0.728 0.512 0.108 0.268
6300 0.286 0.120 0.710 0.748 0.559 0.736 0.829 0.451 0.414 0.758 0.226 0.000 0.456 0.362 0.694 0.114 0.272 0.608 0.830 0.500 0.413 0.095
6400 0.420 0.094 0.766 0.718 0.326 0.692 0.821 0.498 0.507 0.757 0.236 0.207 0.434 0.289 0.700 0.182 0.167 0.606 0.861 0.540 0.429 0.333
6500 0.495 0.160 0.722 0.660 0.492 0.660 0.814 0.413 0.366 0.755 0.161 0.192 0.510 0.268 0.600 0.154 0.135 0.584 0.851 0.384 0.270 0.175
6600 0.185 0.059 0.694 0.712 0.585 0.706 0.859 0.412 0.256 0.452 0.227 0.089 0.372 0.119 0.277 0.146 0.081 0.578 0.790 0.537 0.304 0.167
6700 0.444 0.109 0.776 0.716 0.516 0.715 0.876 0.538 0.312 0.638 0.257 0.125 0.479 0.252 0.508 0.164 0.105 0.621 0.860 0.508 0.431 0.400
6800 0.245 0.123 0.756 0.722 0.578 0.673 0.848 0.449 0.261 0.709 0.167 0.000 0.429 0.344 0.635 0.250 0.000 0.568 0.835 0.353 0.551 0.200
6900 0.376 0.176 0.742 0.800 0.475 0.681 0.867 0.383 0.429 0.612 0.259 0.247 0.509 0.433 0.497 0.150 0.183 0.570 0.815 0.363 0.185 0.151
7000 0.342 0.128 0.769 0.803 0.558 0.670 0.910 0.446 0.394 0.617 0.125 0.277 0.557 0.306 0.611 0.240 0.171 0.578 0.799 0.318 0.214 0.157
7100 0.317 0.147 0.723 0.761 0.397 0.691 0.855 0.335 0.394 0.708 0.168 0.093 0.507 0.385 0.656 0.219 0.040 0.550 0.803 0.511 0.364 0.245
7200 0.265 0.092 0.546 0.685 0.484 0.512 0.748 0.318 0.375 0.465 0.227 0.039 0.397 0.145 0.280 0.131 0.000 0.455 0.719 0.456 0.133 0.042
7300 0.494 0.154 0.773 0.832 0.469 0.693 0.886 0.511 0.563 0.678 0.270 0.145 0.434 0.325 0.615 0.160 0.063 0.472 0.844 0.601 0.386 0.461
7400 0.483 0.058 0.739 0.831 0.343 0.669 0.862 0.484 0.315 0.690 0.216 0.314 0.431 0.261 0.307 0.254 0.024 0.598 0.794 0.555 0.393 0.435
7500 0.320 0.129 0.738 0.779 0.434 0.637 0.806 0.343 0.392 0.652 0.115 0.215 0.250 0.125 0.400 0.062 0.044 0.502 0.622 0.523 0.286 0.123
7600 0.329 0.000 0.750 0.551 0.500 0.607 0.898 0.347 0.446 0.731 0.339 0.133 0.395 0.241 0.594 0.226 0.162 0.284 0.841 0.425 0.233 0.485
7700 0.471 0.187 0.750 0.784 0.500 0.730 0.904 0.476 0.395 0.755 0.195 0.154 0.479 0.367 0.629 0.098 0.063 0.593 0.839 0.544 0.407 0.348
7800 0.373 0.189 0.741 0.681 0.537 0.389 0.871 0.456 0.368 0.709 0.277 0.348 0.297 0.324 0.548 0.227 0.149 0.625 0.770 0.385 0.308 0.178
7900 0.504 0.053 0.756 0.830 0.471 0.710 0.898 0.453 0.403 0.698 0.337 0.185 0.389 0.241 0.525 0.204 0.095 0.603 0.840 0.528 0.123 0.289
8000 0.282 0.000 0.752 0.795 0.286 0.611 0.873 0.423 0.430 0.772 0.312 0.157 0.469 0.298 0.637 0.279 0.183 0.469 0.826 0.524 0.157 0.231
8100 0.456 0.041 0.767 0.826 0.356 0.714 0.872 0.416 0.521 0.764 0.258 0.252 0.405 0.385 0.537 0.231 0.144 0.567 0.840 0.327 0.242 0.400
8200 0.329 0.125 0.750 0.620 0.367 0.468 0.845 0.450 0.243 0.720 0.200 0.077 0.432 0.212 0.654 0.179 0.000 0.577 0.811 0.304 0.292 0.261
8300 0.478 0.097 0.707 0.673 0.540 0.680 0.903 0.517 0.414 0.679 0.208 0.160 0.282 0.225 0.617 0.146 0.047 0.547 0.793 0.407 0.500 0.281
8400 0.239 0.196 0.745 0.836 0.333 0.677 0.786 0.518 0.485 0.721 0.256 0.179 0.449 0.333 0.598 0.154 0.020 0.600 0.829 0.551 0.449 0.345
8500 0.242 0.222 0.753 0.806 0.454 0.702 0.823 0.517 0.228 0.624 0.306 0.154 0.510 0.353 0.591 0.254 0.256 0.603 0.829 0.480 0.242 0.419
8600 0.424 0.090 0.750 0.853 0.537 0.742 0.868 0.472 0.414 0.776 0.164 0.240 0.434 0.282 0.249 0.138 0.152 0.557 0.815 0.542 0.395 0.483
8700 0.265 0.204 0.702 0.853 0.494 0.708 0.867 0.395 0.245 0.718 0.222 0.352 0.337 0.530 0.692 0.298 0.097 0.667 0.843 0.435 0.222 0.444
8800 0.468 0.000 0.770 0.563 0.554 0.455 0.903 0.512 0.493 0.688 0.301 0.237 0.419 0.372 0.692 0.254 0.164 0.617 0.850 0.543 0.278 0.264
8900 0.349 0.000 0.728 0.786 0.367 0.722 0.861 0.475 0.537 0.704 0.330 0.259 0.417 0.197 0.223 0.238 0.215 0.510 0.809 0.442 0.282 0.256
9000 0.518 0.186 0.720 0.455 0.397 0.693 0.908 0.460 0.426 0.525 0.168 0.039 0.452 0.381 0.533 0.162 0.138 0.523 0.758 0.297 0.136 0.100
9100 0.482 0.125 0.740 0.756 0.477 0.671 0.835 0.547 0.479 0.758 0.186 0.044 0.411 0.202 0.444 0.188 0.000 0.574 0.823 0.565 0.333 0.250
9200 0.469 0.043 0.734 0.806 0.554 0.714 0.610 0.464 0.470 0.795 0.194 0.000 0.523 0.432 0.569 0.210 0.024 0.558 0.810 0.548 0.457 0.095
9300 0.425 0.000 0.737 0.780 0.339 0.674 0.889 0.363 0.472 0.623 0.240 0.250 0.409 0.400 0.534 0.139 0.054 0.612 0.772 0.400 0.261 0.111
9400 0.459 0.057 0.736 0.744 0.400 0.751 0.898 0.503 0.502 0.744 0.259 0.000 0.386 0.469 0.571 0.130 0.128 0.568 0.819 0.570 0.195 0.241
9500 0.437 0.091 0.719 0.756 0.427 0.670 0.809 0.442 0.326 0.647 0.219 0.231 0.359 0.212 0.268 0.057 0.168 0.459 0.744 0.504 0.395 0.168
9600 0.509 0.125 0.755 0.803 0.493 0.703 0.877 0.414 0.435 0.716 0.308 0.269 0.340 0.388 0.436 0.179 0.188 0.537 0.789 0.445 0.396 0.357
9700 0.319 0.164 0.756 0.870 0.377 0.686 0.849 0.464 0.528 0.716 0.274 0.347 0.533 0.304 0.679 0.222 0.180 0.612 0.838 0.456 0.244 0.333
9800 0.511 0.000 0.770 0.853 0.427 0.686 0.870 0.545 0.545 0.766 0.267 0.273 0.452 0.374 0.438 0.200 0.111 0.629 0.854 0.492 0.500 0.429
9900 0.449 0.200 0.747 0.792 0.528 0.687 0.890 0.478 0.486 0.768 0.204 0.283 0.361 0.354 0.431 0.144 0.174 0.577 0.809 0.551 0.219 0.261
10000 0.351 0.043 0.772 0.746 0.516 0.734 0.893 0.513 0.489 0.786 0.179 0.077 0.455 0.416 0.645 0.218 0.263 0.618 0.864 0.586 0.286 0.182
10100 0.400 0.000 0.775 0.764 0.571 0.671 0.789 0.464 0.506 0.782 0.273 0.324 0.362 0.385 0.607 0.201 0.151 0.618 0.846 0.581 0.358 0.467
10200 0.429 0.147 0.778 0.704 0.405 0.669 0.910 0.460 0.373 0.743 0.196 0.317 0.513 0.358 0.451 0.258 0.077 0.619 0.844 0.544 0.259 0.452
10300 0.483 0.139 0.739 0.741 0.333 0.638 0.789 0.428 0.400 0.678 0.142 0.261 0.544 0.137 0.686 0.222 0.197 0.596 0.844 0.362 0.421 0.375
10400 0.523 0.182 0.761 0.727 0.481 0.718 0.887 0.549 0.449 0.712 0.293 0.253 0.484 0.295 0.476 0.171 0.135 0.565 0.835 0.459 0.159 0.182
10500 0.159 0.098 0.768 0.753 0.326 0.693 0.892 0.515 0.193 0.650 0.265 0.077 0.479 0.219 0.535 0.250 0.106 0.600 0.842 0.492 0.150 0.174
10600 0.436 0.000 0.786 0.814 0.454 0.619 0.893 0.495 0.440 0.747 0.177 0.077 0.442 0.294 0.377 0.231 0.217 0.574 0.801 0.583 0.484 0.286
10700 0.465 0.168 0.740 0.786 0.483 0.688 0.907 0.510 0.438 0.725 0.209 0.000 0.470 0.235 0.620 0.208 0.100 0.542 0.849 0.543 0.283 0.175
10800 0.527 0.044 0.782 0.800 0.525 0.661 0.898 0.511 0.440 0.763 0.271 0.217 0.529 0.527 0.711 0.162 0.151 0.553 0.861 0.586 0.439 0.263
10900 0.396 0.039 0.589 0.761 0.352 0.671 0.833 0.356 0.396 0.498 0.103 0.280 0.429 0.314 0.451 0.257 0.129 0.500 0.813 0.505 0.370 0.333
11000 0.190 0.077 0.759 0.788 0.442 0.660 0.872 0.470 0.426 0.475 0.187 0.327 0.500 0.347 0.593 0.204 0.084 0.552 0.807 0.504 0.190 0.289
11100 0.476 0.092 0.764 0.849 0.404 0.655 0.754 0.527 0.459 0.642 0.295 0.157 0.542 0.322 0.520 0.250 0.128 0.596 0.843 0.605 0.304 0.276
11200 0.419 0.111 0.763 0.764 0.441 0.717 0.873 0.414 0.459 0.692 0.179 0.306 0.511 0.400 0.637 0.293 0.131 0.547 0.845 0.521 0.190 0.167
11300 0.414 0.078 0.735 0.786 0.333 0.690 0.892 0.538 0.492 0.675 0.215 0.267 0.447 0.480 0.652 0.305 0.207 0.565 0.852 0.497 0.386 0.333
11400 0.239 0.098 0.721 0.759 0.358 0.622 0.867 0.289 0.424 0.559 0.148 0.315 0.145 0.188 0.179 0.090 0.187 0.480 0.721 0.433 0.415 0.143
11500 0.451 0.000 0.756 0.736 0.485 0.683 0.890 0.479 0.481 0.743 0.151 0.118 0.467 0.292 0.472 0.163 0.149 0.605 0.847 0.500 0.340 0.261
11600 0.522 0.103 0.758 0.774 0.488 0.711 0.885 0.460 0.437 0.627 0.187 0.120 0.491 0.387 0.623 0.174 0.157 0.575 0.821 0.556 0.461 0.333
11700 0.539 0.038 0.765 0.822 0.433 0.715 0.889 0.459 0.502 0.718 0.343 0.255 0.468 0.415 0.615 0.114 0.175 0.565 0.849 0.569 0.414 0.550
11800 0.231 0.138 0.764 0.756 0.400 0.654 0.896 0.450 0.450 0.631 0.225 0.275 0.411 0.335 0.425 0.154 0.056 0.607 0.842 0.511 0.454 0.160
11900 0.348 0.130 0.725 0.663 0.186 0.540 0.877 0.365 0.402 0.704 0.237 0.233 0.343 0.282 0.471 0.179 0.126 0.564 0.746 0.444 0.441 0.194
12000 0.564 0.107 0.743 0.750 0.520 0.712 0.834 0.402 0.481 0.756 0.207 0.179 0.477 0.364 0.526 0.264 0.126 0.507 0.855 0.481 0.373 0.346
12100 0.538 0.116 0.744 0.792 0.429 0.624 0.857 0.509 0.449 0.600 0.267 0.042 0.432 0.262 0.620 0.245 0.147 0.421 0.837 0.492 0.348 0.308
12200 0.350 0.145 0.698 0.831 0.508 0.725 0.875 0.423 0.376 0.544 0.280 0.082 0.338 0.323 0.673 0.170 0.157 0.589 0.835 0.310 0.118 0.214
12300 0.324 0.154 0.738 0.795 0.417 0.679 0.832 0.465 0.452 0.637 0.161 0.043 0.321 0.400 0.649 0.267 0.171 0.577 0.837 0.425 0.242 0.250
12400 0.282 0.103 0.717 0.815 0.430 0.718 0.873 0.453 0.472 0.730 0.294 0.274 0.289 0.286 0.656 0.212 0.083 0.608 0.842 0.539 0.226 0.312
12500 0.615 0.095 0.746 0.838 0.417 0.660 0.903 0.443 0.507 0.746 0.274 0.087 0.417 0.344 0.370 0.170 0.000 0.522 0.841 0.559 0.326 0.454
12600 0.488 0.160 0.764 0.827 0.451 0.688 0.886 0.444 0.522 0.731 0.270 0.265 0.423 0.465 0.674 0.186 0.153 0.604 0.854 0.554 0.295 0.278
12700 0.282 0.125 0.765 0.827 0.353 0.615 0.787 0.503 0.487 0.632 0.259 0.339 0.491 0.389 0.600 0.138 0.122 0.581 0.825 0.545 0.234 0.237
12800 0.415 0.174 0.748 0.841 0.448 0.705 0.848 0.471 0.454 0.627 0.200 0.269 0.361 0.376 0.574 0.204 0.177 0.482 0.829 0.438 0.357 0.474
12900 0.391 0.254 0.745 0.764 0.370 0.483 0.859 0.450 0.413 0.629 0.139 0.294 0.243 0.289 0.578 0.200 0.101 0.579 0.798 0.463 0.265 0.165
13000 0.541 0.062 0.761 0.832 0.450 0.724 0.913 0.508 0.440 0.784 0.270 0.255 0.442 0.410 0.598 0.087 0.178 0.577 0.818 0.558 0.286 0.190
13100 0.531 0.038 0.758 0.840 0.441 0.715 0.855 0.513 0.509 0.770 0.289 0.312 0.409 0.364 0.456 0.185 0.021 0.557 0.806 0.583 0.308 0.291
13200 0.511 0.000 0.770 0.806 0.535 0.631 0.876 0.510 0.508 0.768 0.187 0.270 0.407 0.261 0.435 0.179 0.058 0.568 0.840 0.575 0.425 0.345
13300 0.478 0.157 0.707 0.742 0.550 0.660 0.843 0.472 0.326 0.738 0.222 0.216 0.326 0.325 0.358 0.167 0.164 0.569 0.769 0.330 0.475 0.183
13400 0.528 0.136 0.767 0.828 0.500 0.728 0.880 0.554 0.530 0.733 0.208 0.359 0.434 0.380 0.645 0.250 0.221 0.589 0.849 0.517 0.348 0.298
13500 0.310 0.054 0.768 0.797 0.457 0.651 0.816 0.518 0.440 0.731 0.316 0.000 0.338 0.133 0.628 0.216 0.088 0.583 0.850 0.459 0.366 0.257
13600 0.465 0.147 0.751 0.829 0.403 0.678 0.845 0.466 0.522 0.745 0.268 0.085 0.527 0.276 0.567 0.262 0.000 0.602 0.845 0.573 0.244 0.522
13700 0.533 0.157 0.727 0.744 0.494 0.471 0.845 0.493 0.354 0.750 0.250 0.169 0.467 0.264 0.605 0.209 0.142 0.557 0.833 0.375 0.400 0.273
13800 0.525 0.150 0.743 0.805 0.473 0.624 0.902 0.470 0.562 0.757 0.298 0.172 0.441 0.325 0.583 0.313 0.141 0.568 0.838 0.492 0.426 0.351
13900 0.477 0.091 0.756 0.836 0.522 0.634 0.890 0.512 0.486 0.719 0.245 0.289 0.452 0.273 0.545 0.178 0.178 0.587 0.844 0.446 0.310 0.298
14000 0.448 0.033 0.744 0.748 0.281 0.571 0.892 0.431 0.235 0.504 0.086 0.271 0.375 0.208 0.632 0.178 0.060 0.578 0.819 0.579 0.340 0.261
14100 0.325 0.164 0.744 0.735 0.421 0.700 0.800 0.341 0.450 0.494 0.153 0.187 0.409 0.323 0.531 0.115 0.043 0.554 0.812 0.579 0.383 0.308
14200 0.368 0.204 0.768 0.829 0.412 0.623 0.768 0.489 0.556 0.762 0.283 0.122 0.341 0.326 0.547 0.227 0.041 0.565 0.857 0.522 0.394 0.258
14300 0.402 0.000 0.742 0.819 0.507 0.630 0.867 0.481 0.478 0.764 0.155 0.262 0.367 0.369 0.555 0.250 0.105 0.600 0.803 0.418 0.338 0.286
14400 0.479 0.073 0.742 0.841 0.482 0.651 0.889 0.487 0.361 0.615 0.221 0.089 0.447 0.262 0.626 0.163 0.155 0.551 0.841 0.524 0.348 0.326
14500 0.449 0.146 0.734 0.780 0.364 0.549 0.814 0.373 0.434 0.675 0.092 0.189 0.549 0.261 0.400 0.240 0.112 0.587 0.794 0.346 0.177 0.229
14600 0.614 0.071 0.763 0.712 0.452 0.667 0.882 0.526 0.456 0.786 0.179 0.157 0.376 0.345 0.545 0.182 0.115 0.520 0.841 0.571 0.429 0.429
14700 0.591 0.046 0.758 0.829 0.400 0.735 0.907 0.529 0.496 0.781 0.212 0.215 0.466 0.406 0.487 0.286 0.159 0.562 0.861 0.538 0.356 0.182
14800 0.621 0.079 0.744 0.738 0.469 0.737 0.873 0.500 0.436 0.798 0.264 0.182 0.430 0.420 0.558 0.174 0.148 0.584 0.839 0.632 0.415 0.261
14900 0.533 0.093 0.770 0.828 0.457 0.733 0.828 0.470 0.521 0.807 0.277 0.290 0.393 0.302 0.614 0.204 0.149 0.578 0.835 0.566 0.326 0.400
15000 0.588 0.087 0.769 0.822 0.452 0.753 0.870 0.556 0.564 0.788 0.253 0.345 0.460 0.392 0.393 0.205 0.195 0.589 0.862 0.507 0.419 0.271
15100 0.565 0.143 0.769 0.847 0.467 0.748 0.861 0.573 0.589 0.808 0.310 0.229 0.471 0.412 0.503 0.186 0.208 0.606 0.856 0.629 0.500 0.513
15200 0.635 0.095 0.783 0.819 0.418 0.738 0.871 0.532 0.598 0.789 0.286 0.282 0.444 0.392 0.647 0.250 0.218 0.627 0.859 0.632 0.491 0.585
15300 0.587 0.095 0.779 0.859 0.515 0.752 0.910 0.542 0.508 0.787 0.320 0.128 0.510 0.468 0.679 0.213 0.167 0.628 0.864 0.616 0.423 0.182
15400 0.602 0.098 0.765 0.853 0.500 0.736 0.882 0.557 0.571 0.805 0.310 0.210 0.542 0.436 0.648 0.235 0.238 0.613 0.867 0.644 0.435 0.174
15500 0.600 0.111 0.793 0.861 0.459 0.755 0.880 0.575 0.579 0.822 0.310 0.294 0.508 0.469 0.638 0.163 0.284 0.632 0.868 0.586 0.441 0.467
15600 0.569 0.089 0.767 0.883 0.485 0.753 0.886 0.545 0.543 0.809 0.289 0.281 0.559 0.464 0.608 0.210 0.240 0.630 0.862 0.621 0.441 0.452
15700 0.576 0.085 0.774 0.828 0.523 0.734 0.861 0.571 0.509 0.795 0.329 0.368 0.582 0.492 0.584 0.292 0.253 0.630 0.872 0.586 0.423 0.333
15800 0.594 0.098 0.777 0.834 0.537 0.718 0.883 0.550 0.600 0.794 0.301 0.286 0.519 0.475 0.618 0.279 0.171 0.644 0.870 0.576 0.400 0.400
15900 0.633 0.103 0.772 0.867 0.554 0.718 0.883 0.611 0.579 0.811 0.316 0.233 0.537 0.469 0.648 0.292 0.234 0.624 0.864 0.568 0.483 0.375
16000 0.619 0.085 0.773 0.859 0.459 0.724 0.880 0.590 0.580 0.800 0.346 0.310 0.520 0.477 0.627 0.286 0.210 0.605 0.855 0.600 0.500 0.439
16100 0.626 0.089 0.776 0.887 0.507 0.755 0.900 0.593 0.585 0.801 0.312 0.308 0.524 0.408 0.578 0.292 0.190 0.633 0.873 0.606 0.469 0.529
16200 0.597 0.108 0.783 0.817 0.500 0.760 0.899 0.583 0.535 0.804 0.298 0.282 0.483 0.466 0.653 0.254 0.237 0.572 0.853 0.613 0.415 0.457
16300 0.478 0.098 0.776 0.836 0.454 0.744 0.883 0.535 0.554 0.808 0.333 0.269 0.520 0.467 0.613 0.200 0.229 0.596 0.860 0.601 0.367 0.412
16400 0.595 0.089 0.788 0.855 0.483 0.747 0.911 0.561 0.581 0.792 0.329 0.203 0.556 0.483 0.609 0.261 0.170 0.644 0.869 0.617 0.367 0.409
16500 0.598 0.055 0.775 0.839 0.467 0.753 0.916 0.593 0.606 0.788 0.320 0.229 0.512 0.374 0.594 0.227 0.157 0.623 0.853 0.500 0.437 0.471
16600 0.562 0.122 0.775 0.816 0.492 0.682 0.923 0.577 0.519 0.777 0.289 0.145 0.551 0.385 0.538 0.238 0.183 0.605 0.852 0.556 0.333 0.214
16700 0.529 0.154 0.763 0.825 0.515 0.669 0.852 0.599 0.529 0.785 0.368 0.271 0.513 0.427 0.625 0.240 0.127 0.609 0.858 0.594 0.361 0.308
16800 0.511 0.105 0.769 0.828 0.531 0.720 0.907 0.522 0.471 0.713 0.390 0.310 0.530 0.352 0.635 0.286 0.126 0.639 0.846 0.364 0.211 0.296
16900 0.646 0.098 0.764 0.710 0.537 0.747 0.889 0.571 0.465 0.803 0.371 0.306 0.547 0.396 0.649 0.174 0.247 0.613 0.861 0.593 0.286 0.400
17000 0.536 0.204 0.785 0.836 0.551 0.769 0.910 0.569 0.560 0.800 0.358 0.338 0.513 0.459 0.647 0.167 0.233 0.614 0.866 0.565 0.345 0.414
17100 0.553 0.138 0.768 0.866 0.507 0.765 0.904 0.536 0.566 0.809 0.364 0.324 0.581 0.393 0.614 0.146 0.258 0.609 0.861 0.593 0.400 0.452
17200 0.559 0.145 0.786 0.865 0.554 0.668 0.871 0.540 0.521 0.782 0.371 0.349 0.547 0.433 0.648 0.200 0.258 0.642 0.863 0.620 0.353 0.474
17300 0.544 0.161 0.774 0.847 0.535 0.726 0.922 0.543 0.517 0.784 0.329 0.286 0.532 0.404 0.642 0.190 0.243 0.604 0.862 0.628 0.264 0.450
17400 0.618 0.139 0.791 0.861 0.500 0.722 0.850 0.518 0.556 0.798 0.354 0.333 0.519 0.430 0.590 0.222 0.182 0.583 0.858 0.529 0.312 0.485
17500 0.569 0.143 0.784 0.822 0.529 0.756 0.871 0.520 0.527 0.776 0.246 0.351 0.583 0.403 0.514 0.255 0.095 0.594 0.861 0.578 0.348 0.385
17600 0.582 0.146 0.783 0.839 0.571 0.726 0.883 0.574 0.557 0.764 0.272 0.276 0.529 0.443 0.622 0.233 0.121 0.626 0.861 0.581 0.385 0.444
17700 0.506 0.122 0.776 0.840 0.500 0.707 0.894 0.562 0.578 0.739 0.303 0.250 0.526 0.412 0.648 0.244 0.196 0.621 0.855 0.555 0.338 0.370
17800 0.608 0.053 0.775 0.800 0.473 0.750 0.904 0.556 0.526 0.791 0.368 0.200 0.459 0.370 0.701 0.216 0.143 0.542 0.863 0.555 0.461 0.308
17900 0.568 0.133 0.728 0.563 0.531 0.662 0.928 0.522 0.503 0.799 0.400 0.298 0.454 0.353 0.638 0.240 0.159 0.640 0.853 0.519 0.286 0.296
18000 0.505 0.178 0.764 0.849 0.500 0.685 0.907 0.503 0.488 0.771 0.381 0.358 0.446 0.339 0.615 0.214 0.094 0.603 0.862 0.550 0.314 0.357
18100 0.569 0.097 0.749 0.708 0.513 0.705 0.889 0.494 0.505 0.802 0.347 0.289 0.421 0.299 0.497 0.157 0.128 0.601 0.844 0.570 0.233 0.385
18200 0.467 0.107 0.771 0.800 0.526 0.723 0.907 0.503 0.563 0.773 0.299 0.226 0.512 0.419 0.628 0.254 0.138 0.563 0.867 0.604 0.433 0.533
18300 0.568 0.197 0.752 0.795 0.437 0.694 0.893 0.513 0.535 0.731 0.264 0.310 0.561 0.385 0.603 0.217 0.121 0.610 0.850 0.568 0.305 0.465
18400 0.577 0.133 0.785 0.764 0.465 0.725 0.909 0.504 0.481 0.783 0.271 0.348 0.504 0.417 0.613 0.274 0.125 0.591 0.859 0.565 0.407 0.370
18500 0.505 0.167 0.772 0.833 0.493 0.732 0.910 0.520 0.472 0.761 0.300 0.278 0.529 0.468 0.585 0.298 0.169 0.582 0.861 0.624 0.400 0.452
18600 0.491 0.098 0.771 0.818 0.548 0.718 0.861 0.539 0.537 0.757 0.326 0.361 0.506 0.404 0.576 0.326 0.180 0.602 0.856 0.620 0.393 0.387
18700 0.535 0.113 0.783 0.861 0.581 0.746 0.909 0.532 0.592 0.790 0.368 0.250 0.562 0.404 0.555 0.250 0.223 0.599 0.867 0.543 0.413 0.500
18800 0.577 0.128 0.779 0.774 0.548 0.739 0.897 0.569 0.515 0.792 0.317 0.160 0.545 0.452 0.533 0.357 0.213 0.572 0.860 0.532 0.433 0.485
18900 0.604 0.111 0.776 0.826 0.429 0.701 0.878 0.571 0.507 0.791 0.267 0.154 0.571 0.495 0.630 0.318 0.154 0.607 0.860 0.575 0.492 0.540
19000 0.576 0.091 0.788 0.808 0.508 0.739 0.897 0.552 0.535 0.780 0.280 0.295 0.545 0.403 0.626 0.300 0.198 0.634 0.861 0.523 0.406 0.486
19100 0.618 0.187 0.792 0.813 0.594 0.710 0.897 0.485 0.539 0.800 0.333 0.233 0.491 0.416 0.590 0.254 0.101 0.577 0.850 0.582 0.451 0.323
19200 0.571 0.154 0.757 0.849 0.554 0.762 0.850 0.590 0.593 0.812 0.319 0.286 0.461 0.461 0.642 0.143 0.196 0.620 0.858 0.597 0.419 0.296
19300 0.482 0.125 0.775 0.831 0.461 0.720 0.866 0.481 0.516 0.755 0.354 0.210 0.544 0.469 0.605 0.263 0.082 0.576 0.847 0.580 0.458 0.370
19400 0.596 0.108 0.789 0.805 0.562 0.726 0.866 0.561 0.605 0.749 0.278 0.267 0.476 0.478 0.641 0.250 0.119 0.620 0.858 0.529 0.411 0.231
19500 0.593 0.162 0.765 0.868 0.515 0.714 0.876 0.547 0.577 0.728 0.278 0.167 0.454 0.420 0.615 0.178 0.085 0.587 0.852 0.551 0.323 0.454
19600 0.609 0.090 0.774 0.813 0.525 0.744 0.879 0.531 0.535 0.775 0.274 0.310 0.500 0.457 0.644 0.147 0.195 0.600 0.854 0.450 0.366 0.333
19700 0.487 0.085 0.781 0.829 0.571 0.751 0.862 0.622 0.567 0.782 0.308 0.333 0.520 0.433 0.588 0.182 0.205 0.565 0.864 0.571 0.418 0.478
19800 0.554 0.089 0.790 0.830 0.531 0.753 0.882 0.614 0.583 0.810 0.361 0.293 0.450 0.471 0.591 0.196 0.193 0.591 0.866 0.620 0.441 0.500
19900 0.590 0.095 0.794 0.800 0.523 0.736 0.876 0.611 0.592 0.779 0.342 0.328 0.492 0.481 0.636 0.213 0.203 0.638 0.870 0.633 0.379 0.400
20000 0.574 0.093 0.797 0.848 0.559 0.744 0.876 0.625 0.538 0.791 0.361 0.267 0.520 0.487 0.637 0.189 0.176 0.628 0.871 0.621 0.393 0.385
20100 0.566 0.089 0.791 0.853 0.567 0.716 0.873 0.606 0.538 0.792 0.343 0.258 0.507 0.461 0.661 0.213 0.145 0.637 0.874 0.602 0.429 0.357
20200 0.569 0.085 0.793 0.857 0.559 0.706 0.900 0.569 0.568 0.792 0.361 0.261 0.512 0.496 0.655 0.222 0.149 0.655 0.875 0.597 0.456 0.333
20300 0.560 0.087 0.792 0.842 0.537 0.733 0.867 0.594 0.556 0.787 0.316 0.308 0.551 0.460 0.649 0.208 0.074 0.635 0.872 0.534 0.370 0.437
20400 0.564 0.087 0.795 0.840 0.522 0.733 0.882 0.590 0.533 0.785 0.306 0.262 0.537 0.414 0.622 0.204 0.105 0.633 0.868 0.608 0.426 0.387
20500 0.635 0.093 0.791 0.851 0.551 0.733 0.893 0.593 0.580 0.774 0.325 0.290 0.541 0.455 0.643 0.200 0.210 0.623 0.867 0.619 0.452 0.514
20600 0.589 0.091 0.790 0.842 0.543 0.745 0.916 0.573 0.529 0.803 0.354 0.256 0.516 0.491 0.625 0.227 0.182 0.635 0.868 0.630 0.433 0.500
20700 0.560 0.083 0.795 0.861 0.537 0.732 0.911 0.578 0.552 0.803 0.343 0.212 0.531 0.500 0.648 0.227 0.222 0.646 0.869 0.607 0.364 0.357
20800 0.561 0.085 0.797 0.890 0.500 0.712 0.906 0.579 0.526 0.790 0.348 0.269 0.541 0.452 0.660 0.233 0.164 0.638 0.868 0.623 0.373 0.452
20900 0.544 0.080 0.785 0.878 0.494 0.702 0.894 0.593 0.534 0.775 0.273 0.290 0.536 0.475 0.655 0.213 0.150 0.640 0.867 0.636 0.414 0.370
21000 0.598 0.085 0.790 0.855 0.545 0.726 0.878 0.567 0.497 0.772 0.314 0.194 0.550 0.495 0.649 0.227 0.094 0.629 0.865 0.650 0.393 0.370
21100 0.598 0.089 0.800 0.859 0.567 0.741 0.883 0.591 0.595 0.808 0.348 0.254 0.525 0.487 0.626 0.200 0.154 0.613 0.866 0.640 0.421 0.370
21200 0.606 0.091 0.799 0.840 0.585 0.728 0.878 0.546 0.515 0.796 0.343 0.269 0.512 0.448 0.632 0.189 0.114 0.624 0.864 0.618 0.381 0.370
21300 0.635 0.095 0.794 0.855 0.516 0.751 0.882 0.597 0.575 0.807 0.328 0.290 0.487 0.481 0.636 0.222 0.188 0.616 0.858 0.632 0.448 0.429
21400 0.641 0.093 0.797 0.872 0.571 0.747 0.887 0.619 0.573 0.809 0.319 0.197 0.513 0.482 0.641 0.208 0.167 0.638 0.870 0.626 0.367 0.308
21500 0.571 0.095 0.797 0.863 0.567 0.751 0.906 0.574 0.559 0.805 0.324 0.265 0.534 0.500 0.649 0.218 0.186 0.642 0.869 0.622 0.393 0.308
21600 0.596 0.095 0.796 0.853 0.585 0.750 0.900 0.582 0.573 0.802 0.329 0.200 0.554 0.509 0.655 0.245 0.178 0.633 0.870 0.637 0.400 0.308
21700 0.609 0.074 0.785 0.815 0.591 0.744 0.862 0.596 0.590 0.799 0.317 0.242 0.512 0.452 0.622 0.196 0.159 0.637 0.865 0.633 0.414 0.429
21800 0.574 0.080 0.796 0.840 0.576 0.749 0.899 0.606 0.588 0.808 0.282 0.197 0.504 0.454 0.637 0.226 0.190 0.627 0.867 0.642 0.423 0.400
21900 0.587 0.071 0.802 0.813 0.594 0.744 0.900 0.578 0.565 0.786 0.400 0.275 0.562 0.470 0.661 0.246 0.151 0.617 0.865 0.650 0.452 0.516
22000 0.610 0.082 0.788 0.849 0.585 0.732 0.857 0.586 0.538 0.799 0.347 0.219 0.556 0.495 0.649 0.217 0.190 0.622 0.865 0.646 0.400 0.529
22100 0.621 0.085 0.784 0.832 0.554 0.750 0.917 0.585 0.556 0.794 0.338 0.222 0.564 0.427 0.655 0.217 0.175 0.625 0.863 0.623 0.400 0.457
22200 0.581 0.103 0.787 0.869 0.585 0.753 0.906 0.570 0.544 0.811 0.359 0.167 0.539 0.483 0.679 0.213 0.250 0.644 0.868 0.619 0.452 0.485
22300 0.602 0.095 0.785 0.881 0.588 0.737 0.900 0.553 0.549 0.802 0.316 0.260 0.522 0.437 0.667 0.217 0.139 0.641 0.868 0.627 0.400 0.414
22400 0.603 0.103 0.798 0.865 0.576 0.738 0.929 0.571 0.565 0.796 0.356 0.164 0.554 0.468 0.661 0.195 0.202 0.624 0.869 0.632 0.418 0.387
22500 0.598 0.091 0.794 0.790 0.540 0.734 0.867 0.586 0.539 0.796 0.342 0.212 0.528 0.442 0.679 0.200 0.205 0.632 0.863 0.604 0.371 0.400
22600 0.592 0.098 0.789 0.848 0.568 0.737 0.900 0.581 0.575 0.807 0.320 0.169 0.504 0.481 0.679 0.210 0.145 0.607 0.866 0.570 0.454 0.545
22700 0.660 0.080 0.791 0.826 0.597 0.749 0.906 0.592 0.613 0.811 0.400 0.297 0.564 0.477 0.613 0.217 0.250 0.625 0.869 0.614 0.424 0.452
22800 0.642 0.093 0.794 0.805 0.548 0.706 0.894 0.585 0.582 0.795 0.366 0.225 0.578 0.485 0.621 0.233 0.273 0.639 0.868 0.650 0.448 0.485
22900 0.641 0.136 0.793 0.810 0.543 0.738 0.911 0.582 0.613 0.802 0.338 0.278 0.497 0.419 0.609 0.227 0.197 0.628 0.867 0.643 0.413 0.516
23000 0.615 0.098 0.786 0.795 0.515 0.731 0.906 0.587 0.621 0.790 0.340 0.333 0.518 0.442 0.598 0.222 0.211 0.636 0.860 0.645 0.373 0.437
23100 0.614 0.105 0.797 0.823 0.571 0.738 0.900 0.593 0.598 0.806 0.321 0.239 0.544 0.496 0.626 0.196 0.213 0.630 0.865 0.637 0.345 0.414
23200 0.637 0.093 0.788 0.826 0.603 0.758 0.917 0.591 0.621 0.811 0.373 0.286 0.531 0.487 0.621 0.175 0.267 0.613 0.862 0.633 0.407 0.467
23300 0.625 0.093 0.789 0.857 0.563 0.750 0.911 0.587 0.620 0.818 0.368 0.250 0.556 0.481 0.643 0.213 0.271 0.626 0.866 0.634 0.413 0.483
23400 0.544 0.100 0.790 0.834 0.529 0.716 0.917 0.535 0.606 0.813 0.378 0.169 0.538 0.469 0.654 0.233 0.208 0.651 0.865 0.594 0.339 0.500
23500 0.613 0.100 0.780 0.846 0.615 0.720 0.917 0.547 0.575 0.800 0.405 0.263 0.556 0.468 0.619 0.218 0.302 0.624 0.862 0.603 0.418 0.485
23600 0.564 0.077 0.792 0.820 0.571 0.727 0.917 0.536 0.599 0.786 0.328 0.269 0.531 0.434 0.609 0.245 0.293 0.647 0.875 0.621 0.437 0.400
23700 0.584 0.095 0.778 0.861 0.559 0.733 0.917 0.575 0.594 0.789 0.281 0.242 0.556 0.432 0.636 0.208 0.288 0.640 0.870 0.653 0.426 0.414
23800 0.596 0.103 0.781 0.829 0.559 0.743 0.923 0.604 0.597 0.790 0.361 0.289 0.557 0.425 0.661 0.208 0.185 0.638 0.865 0.597 0.426 0.437
23900 0.613 0.089 0.788 0.846 0.543 0.721 0.911 0.563 0.592 0.804 0.351 0.308 0.535 0.468 0.617 0.185 0.183 0.634 0.858 0.622 0.459 0.414
24000 0.604 0.098 0.796 0.852 0.529 0.729 0.911 0.583 0.564 0.810 0.373 0.286 0.490 0.479 0.624 0.245 0.183 0.642 0.865 0.633 0.475 0.467
24100 0.613 0.098 0.777 0.863 0.515 0.716 0.923 0.616 0.615 0.799 0.368 0.241 0.547 0.463 0.642 0.213 0.187 0.649 0.867 0.629 0.415 0.370
24200 0.544 0.103 0.776 0.859 0.507 0.736 0.911 0.571 0.611 0.798 0.277 0.237 0.530 0.448 0.625 0.217 0.242 0.604 0.862 0.599 0.393 0.357
24300 0.634 0.100 0.776 0.840 0.492 0.734 0.911 0.528 0.587 0.787 0.329 0.200 0.489 0.491 0.610 0.238 0.175 0.610 0.862 0.486 0.358 0.485
24400 0.593 0.093 0.789 0.810 0.508 0.729 0.917 0.560 0.615 0.794 0.329 0.265 0.477 0.472 0.603 0.213 0.208 0.610 0.861 0.637 0.459 0.452
24500 0.569 0.095 0.787 0.867 0.507 0.655 0.911 0.572 0.595 0.749 0.303 0.209 0.492 0.425 0.622 0.195 0.192 0.605 0.861 0.627 0.473 0.357
24600 0.579 0.077 0.799 0.843 0.576 0.733 0.917 0.573 0.563 0.785 0.350 0.243 0.464 0.478 0.629 0.213 0.256 0.624 0.861 0.649 0.454 0.444
24700 0.608 0.091 0.796 0.857 0.533 0.739 0.911 0.573 0.605 0.794 0.359 0.254 0.524 0.464 0.605 0.227 0.168 0.639 0.868 0.611 0.448 0.400
24800 0.593 0.078 0.780 0.851 0.522 0.726 0.906 0.520 0.576 0.782 0.341 0.290 0.488 0.388 0.639 0.213 0.219 0.608 0.857 0.614 0.452 0.471
24900 0.623 0.095 0.798 0.847 0.493 0.702 0.894 0.582 0.582 0.790 0.309 0.172 0.527 0.454 0.637 0.195 0.241 0.611 0.869 0.639 0.431 0.437
25000 0.606 0.087 0.782 0.881 0.493 0.728 0.878 0.589 0.538 0.796 0.289 0.229 0.532 0.429 0.626 0.208 0.235 0.634 0.871 0.647 0.433 0.345
25100 0.615 0.091 0.780 0.869 0.528 0.734 0.917 0.561 0.550 0.766 0.333 0.358 0.481 0.452 0.623 0.190 0.135 0.635 0.866 0.601 0.393 0.429
25200 0.614 0.087 0.784 0.837 0.459 0.739 0.906 0.550 0.579 0.800 0.325 0.320 0.540 0.446 0.661 0.186 0.213 0.643 0.866 0.633 0.492 0.483
25300 0.629 0.091 0.787 0.859 0.500 0.706 0.878 0.520 0.556 0.793 0.312 0.203 0.527 0.467 0.667 0.238 0.209 0.608 0.856 0.607 0.459 0.452
25400 0.615 0.136 0.791 0.842 0.535 0.714 0.900 0.562 0.530 0.797 0.289 0.187 0.529 0.478 0.661 0.227 0.169 0.640 0.864 0.642 0.476 0.452
25500 0.635 0.087 0.789 0.837 0.554 0.749 0.911 0.593 0.556 0.811 0.333 0.250 0.529 0.479 0.661 0.222 0.227 0.626 0.867 0.676 0.429 0.483
25600 0.660 0.093 0.792 0.850 0.545 0.727 0.906 0.573 0.577 0.810 0.333 0.242 0.530 0.496 0.632 0.204 0.269 0.623 0.871 0.680 0.456 0.452
25700 0.596 0.095 0.787 0.839 0.559 0.730 0.906 0.582 0.535 0.809 0.356 0.239 0.531 0.492 0.632 0.217 0.230 0.620 0.869 0.667 0.459 0.500
25800 0.654 0.087 0.790 0.850 0.537 0.746 0.911 0.600 0.562 0.797 0.333 0.197 0.518 0.470 0.626 0.213 0.246 0.628 0.868 0.662 0.394 0.500
25900 0.641 0.089 0.792 0.857 0.529 0.741 0.894 0.605 0.574 0.788 0.341 0.273 0.527 0.491 0.643 0.213 0.219 0.636 0.870 0.623 0.433 0.500
26000 0.623 0.089 0.796 0.846 0.545 0.743 0.906 0.589 0.562 0.804 0.349 0.229 0.527 0.476 0.679 0.208 0.256 0.629 0.868 0.654 0.407 0.452
26100 0.615 0.095 0.797 0.846 0.567 0.754 0.911 0.581 0.563 0.802 0.359 0.233 0.530 0.508 0.673 0.200 0.239 0.623 0.869 0.632 0.373 0.452
26200 0.602 0.093 0.797 0.844 0.529 0.739 0.900 0.572 0.555 0.793 0.350 0.262 0.531 0.496 0.673 0.174 0.248 0.627 0.870 0.632 0.433 0.452
26300 0.641 0.098 0.794 0.857 0.600 0.753 0.900 0.555 0.551 0.803 0.338 0.246 0.545 0.491 0.649 0.174 0.233 0.632 0.867 0.658 0.387 0.529
26400 0.611 0.091 0.794 0.844 0.559 0.741 0.906 0.578 0.585 0.803 0.359 0.241 0.559 0.479 0.661 0.163 0.254 0.633 0.871 0.667 0.355 0.400
26500 0.633 0.093 0.789 0.844 0.571 0.736 0.917 0.590 0.574 0.806 0.338 0.300 0.545 0.509 0.686 0.174 0.234 0.621 0.870 0.658 0.361 0.437
26600 0.641 0.083 0.792 0.855 0.533 0.742 0.917 0.585 0.607 0.801 0.289 0.237 0.579 0.500 0.661 0.167 0.198 0.612 0.870 0.641 0.361 0.437
26700 0.641 0.082 0.784 0.861 0.554 0.757 0.900 0.578 0.576 0.808 0.312 0.254 0.574 0.508 0.649 0.160 0.186 0.618 0.868 0.640 0.361 0.437
26800 0.631 0.087 0.794 0.855 0.562 0.738 0.900 0.582 0.573 0.796 0.316 0.254 0.571 0.513 0.649 0.170 0.202 0.630 0.870 0.654 0.375 0.437
26900 0.641 0.089 0.793 0.867 0.562 0.738 0.917 0.586 0.579 0.797 0.329 0.254 0.574 0.509 0.643 0.170 0.195 0.623 0.870 0.641 0.349 0.452
27000 0.609 0.085 0.797 0.844 0.545 0.734 0.917 0.580 0.553 0.797 0.308 0.281 0.562 0.509 0.667 0.178 0.226 0.620 0.871 0.634 0.407 0.471
27100 0.624 0.093 0.804 0.839 0.537 0.731 0.917 0.586 0.564 0.797 0.297 0.229 0.553 0.500 0.667 0.186 0.236 0.628 0.874 0.634 0.375 0.424
27200 0.631 0.085 0.793 0.844 0.535 0.737 0.917 0.579 0.567 0.805 0.306 0.286 0.560 0.504 0.661 0.178 0.205 0.632 0.872 0.640 0.387 0.437
27300 0.629 0.085 0.794 0.871 0.522 0.724 0.904 0.579 0.560 0.819 0.297 0.258 0.574 0.540 0.667 0.182 0.239 0.628 0.872 0.640 0.373 0.437
27400 0.648 0.080 0.794 0.861 0.537 0.736 0.906 0.580 0.567 0.806 0.301 0.286 0.583 0.509 0.655 0.178 0.202 0.619 0.872 0.658 0.400 0.437
27500 0.653 0.091 0.796 0.861 0.523 0.744 0.917 0.605 0.571 0.807 0.347 0.262 0.580 0.477 0.667 0.186 0.233 0.632 0.872 0.641 0.386 0.452
27600 0.635 0.091 0.795 0.850 0.507 0.733 0.900 0.607 0.563 0.806 0.347 0.210 0.564 0.477 0.679 0.195 0.240 0.628 0.870 0.626 0.407 0.452
27700 0.641 0.093 0.794 0.850 0.548 0.740 0.889 0.603 0.562 0.816 0.347 0.246 0.565 0.468 0.661 0.170 0.231 0.633 0.873 0.633 0.484 0.437
27800 0.613 0.128 0.791 0.861 0.528 0.733 0.904 0.587 0.568 0.811 0.329 0.229 0.541 0.477 0.661 0.217 0.259 0.618 0.865 0.632 0.491 0.437
27900 0.630 0.133 0.794 0.850 0.548 0.736 0.894 0.603 0.592 0.803 0.320 0.233 0.550 0.525 0.649 0.178 0.242 0.625 0.867 0.640 0.464 0.452
28000 0.603 0.093 0.796 0.855 0.529 0.742 0.906 0.561 0.566 0.813 0.324 0.262 0.557 0.500 0.655 0.217 0.220 0.633 0.871 0.654 0.483 0.471
28100 0.648 0.091 0.792 0.853 0.543 0.740 0.911 0.579 0.582 0.815 0.370 0.290 0.541 0.473 0.644 0.227 0.195 0.640 0.871 0.638 0.456 0.485
28200 0.631 0.095 0.787 0.867 0.529 0.738 0.906 0.569 0.593 0.813 0.375 0.258 0.542 0.500 0.661 0.261 0.215 0.647 0.871 0.621 0.467 0.485
28300 0.629 0.100 0.781 0.859 0.531 0.711 0.906 0.590 0.577 0.808 0.375 0.246 0.540 0.477 0.679 0.182 0.224 0.638 0.868 0.624 0.441 0.485
28400 0.571 0.105 0.791 0.883 0.554 0.731 0.911 0.556 0.568 0.814 0.329 0.262 0.564 0.500 0.697 0.238 0.266 0.644 0.873 0.630 0.370 0.514
28500 0.631 0.100 0.794 0.853 0.554 0.755 0.911 0.581 0.562 0.830 0.347 0.277 0.534 0.508 0.655 0.213 0.244 0.628 0.872 0.623 0.393 0.467
28600 0.623 0.103 0.793 0.871 0.559 0.756 0.900 0.589 0.570 0.830 0.329 0.277 0.542 0.483 0.655 0.208 0.256 0.625 0.871 0.636 0.436 0.414
28700 0.632 0.100 0.795 0.875 0.551 0.759 0.887 0.593 0.543 0.822 0.342 0.250 0.544 0.485 0.608 0.167 0.210 0.602 0.860 0.619 0.448 0.414
28800 0.590 0.105 0.789 0.861 0.551 0.758 0.894 0.582 0.579 0.807 0.380 0.250 0.562 0.471 0.602 0.245 0.250 0.625 0.868 0.654 0.492 0.457
28900 0.595 0.105 0.790 0.867 0.585 0.747 0.883 0.585 0.563 0.804 0.373 0.254 0.560 0.504 0.649 0.213 0.226 0.627 0.869 0.667 0.429 0.485
29000 0.611 0.103 0.792 0.865 0.571 0.737 0.894 0.583 0.576 0.812 0.368 0.271 0.557 0.522 0.638 0.186 0.197 0.622 0.868 0.658 0.448 0.471
29100 0.587 0.095 0.787 0.871 0.571 0.740 0.889 0.564 0.562 0.803 0.350 0.271 0.578 0.478 0.637 0.200 0.233 0.634 0.870 0.631 0.379 0.452
29200 0.605 0.095 0.787 0.890 0.581 0.744 0.883 0.559 0.537 0.807 0.359 0.267 0.551 0.496 0.637 0.208 0.229 0.638 0.870 0.640 0.400 0.452
29300 0.605 0.095 0.791 0.861 0.562 0.749 0.900 0.565 0.573 0.817 0.320 0.262 0.576 0.500 0.632 0.213 0.219 0.633 0.868 0.639 0.426 0.467
29400 0.596 0.085 0.803 0.875 0.548 0.744 0.883 0.569 0.551 0.813 0.308 0.290 0.556 0.534 0.610 0.240 0.173 0.630 0.869 0.616 0.400 0.400
29500 0.584 0.103 0.799 0.848 0.585 0.733 0.900 0.545 0.536 0.802 0.342 0.308 0.529 0.530 0.626 0.178 0.187 0.649 0.866 0.628 0.373 0.387
29600 0.584 0.095 0.786 0.850 0.537 0.750 0.871 0.557 0.539 0.809 0.313 0.276 0.571 0.500 0.602 0.217 0.208 0.627 0.865 0.614 0.461 0.529
29700 0.563 0.091 0.794 0.861 0.545 0.737 0.878 0.550 0.556 0.791 0.333 0.290 0.555 0.491 0.590 0.170 0.180 0.625 0.869 0.637 0.367 0.400
29800 0.563 0.089 0.792 0.850 0.567 0.751 0.911 0.547 0.564 0.815 0.347 0.323 0.569 0.530 0.632 0.174 0.197 0.618 0.867 0.667 0.429 0.500
29900 0.574 0.093 0.792 0.852 0.563 0.747 0.917 0.548 0.576 0.824 0.333 0.303 0.550 0.496 0.628 0.190 0.200 0.624 0.869 0.658 0.456 0.500
30000 0.611 0.091 0.791 0.844 0.575 0.745 0.911 0.532 0.607 0.820 0.343 0.237 0.537 0.488 0.644 0.227 0.186 0.633 0.867 0.649 0.448 0.483
30100 0.568 0.089 0.785 0.844 0.551 0.748 0.928 0.584 0.570 0.802 0.373 0.286 0.537 0.484 0.580 0.217 0.126 0.603 0.861 0.650 0.429 0.432
30200 0.652 0.091 0.791 0.844 0.554 0.746 0.917 0.508 0.519 0.810 0.356 0.210 0.571 0.475 0.697 0.238 0.167 0.633 0.865 0.625 0.500 0.500
30300 0.610 0.095 0.795 0.818 0.594 0.750 0.935 0.568 0.555 0.800 0.378 0.200 0.552 0.487 0.679 0.222 0.224 0.632 0.867 0.653 0.508 0.370
30400 0.629 0.108 0.779 0.861 0.576 0.748 0.911 0.556 0.609 0.810 0.371 0.229 0.540 0.539 0.661 0.178 0.238 0.637 0.866 0.679 0.510 0.385
30500 0.635 0.111 0.777 0.855 0.580 0.734 0.923 0.570 0.577 0.817 0.371 0.237 0.539 0.536 0.655 0.227 0.220 0.628 0.863 0.650 0.491 0.385
30600 0.631 0.105 0.784 0.844 0.545 0.750 0.929 0.557 0.588 0.815 0.348 0.214 0.549 0.537 0.661 0.227 0.224 0.621 0.864 0.646 0.467 0.444
30700 0.636 0.098 0.787 0.839 0.551 0.746 0.917 0.554 0.592 0.809 0.361 0.233 0.542 0.530 0.650 0.213 0.215 0.636 0.869 0.646 0.448 0.457
30800 0.604 0.093 0.790 0.833 0.537 0.743 0.917 0.565 0.582 0.796 0.354 0.265 0.559 0.465 0.639 0.170 0.186 0.644 0.866 0.646 0.414 0.432
30900 0.612 0.100 0.794 0.837 0.559 0.750 0.904 0.581 0.576 0.800 0.347 0.278 0.552 0.452 0.650 0.178 0.222 0.627 0.871 0.622 0.452 0.424
31000 0.615 0.100 0.790 0.850 0.540 0.747 0.922 0.589 0.547 0.804 0.354 0.278 0.547 0.478 0.654 0.182 0.252 0.617 0.869 0.662 0.508 0.387
31100 0.655 0.095 0.789 0.855 0.525 0.738 0.910 0.556 0.556 0.799 0.350 0.182 0.516 0.467 0.654 0.178 0.233 0.634 0.867 0.646 0.467 0.370
31200 0.609 0.082 0.797 0.850 0.531 0.738 0.899 0.572 0.557 0.800 0.354 0.203 0.562 0.459 0.655 0.261 0.242 0.642 0.871 0.642 0.500 0.400
31300 0.634 0.091 0.794 0.855 0.557 0.743 0.904 0.587 0.560 0.804 0.329 0.225 0.566 0.486 0.685 0.178 0.256 0.634 0.864 0.639 0.370 0.444
31400 0.598 0.080 0.789 0.861 0.508 0.746 0.893 0.576 0.551 0.807 0.317 0.323 0.549 0.461 0.661 0.178 0.205 0.644 0.872 0.654 0.456 0.452
31500 0.626 0.082 0.785 0.878 0.515 0.748 0.893 0.583 0.544 0.801 0.329 0.273 0.550 0.483 0.667 0.182 0.219 0.641 0.868 0.671 0.441 0.485
31600 0.673 0.091 0.783 0.840 0.500 0.742 0.899 0.559 0.530 0.794 0.330 0.233 0.567 0.481 0.673 0.182 0.162 0.638 0.871 0.639 0.456 0.500
31700 0.625 0.093 0.787 0.833 0.514 0.740 0.889 0.565 0.543 0.813 0.350 0.203 0.545 0.517 0.655 0.170 0.139 0.634 0.868 0.692 0.500 0.485
31800 0.635 0.091 0.788 0.833 0.554 0.728 0.889 0.565 0.547 0.798 0.366 0.197 0.552 0.456 0.673 0.174 0.151 0.623 0.868 0.675 0.475 0.452
31900 0.620 0.077 0.795 0.839 0.554 0.743 0.889 0.565 0.561 0.798 0.326 0.219 0.530 0.496 0.661 0.231 0.180 0.634 0.869 0.623 0.484 0.485
32000 0.604 0.100 0.789 0.818 0.559 0.747 0.893 0.560 0.552 0.811 0.380 0.169 0.561 0.504 0.649 0.174 0.179 0.641 0.868 0.642 0.483 0.452
32100 0.641 0.093 0.789 0.823 0.567 0.740 0.893 0.558 0.567 0.808 0.375 0.200 0.569 0.508 0.654 0.204 0.248 0.625 0.867 0.645 0.500 0.500
32200 0.609 0.098 0.792 0.829 0.562 0.730 0.894 0.565 0.585 0.793 0.385 0.215 0.517 0.496 0.667 0.174 0.186 0.634 0.870 0.654 0.473 0.452
32300 0.593 0.098 0.787 0.840 0.554 0.735 0.894 0.582 0.581 0.799 0.385 0.232 0.525 0.464 0.691 0.217 0.200 0.638 0.868 0.634 0.456 0.485
32400 0.638 0.100 0.789 0.826 0.571 0.730 0.887 0.587 0.570 0.797 0.375 0.233 0.554 0.496 0.697 0.217 0.179 0.657 0.870 0.642 0.464 0.400
32500 0.647 0.091 0.790 0.829 0.557 0.754 0.887 0.572 0.552 0.811 0.380 0.233 0.538 0.513 0.673 0.213 0.187 0.639 0.867 0.654 0.475 0.400
32600 0.647 0.089 0.790 0.846 0.562 0.739 0.887 0.568 0.548 0.814 0.350 0.222 0.564 0.470 0.654 0.208 0.177 0.641 0.866 0.653 0.475 0.452
32700 0.673 0.085 0.797 0.853 0.516 0.735 0.887 0.574 0.543 0.816 0.350 0.239 0.564 0.483 0.667 0.213 0.175 0.643 0.869 0.639 0.475 0.414
32800 0.633 0.085 0.791 0.859 0.516 0.740 0.887 0.580 0.540 0.819 0.350 0.212 0.561 0.470 0.661 0.213 0.198 0.645 0.869 0.644 0.492 0.414
32900 0.647 0.087 0.792 0.865 0.548 0.738 0.887 0.585 0.555 0.811 0.346 0.242 0.552 0.465 0.661 0.208 0.210 0.648 0.870 0.662 0.459 0.516
33000 0.621 0.089 0.793 0.838 0.562 0.748 0.887 0.553 0.538 0.814 0.354 0.212 0.561 0.452 0.661 0.208 0.212 0.643 0.868 0.634 0.459 0.516
33100 0.596 0.085 0.794 0.849 0.576 0.746 0.887 0.563 0.573 0.806 0.364 0.190 0.552 0.440 0.679 0.204 0.229 0.646 0.869 0.653 0.467 0.500
33200 0.579 0.085 0.793 0.853 0.576 0.749 0.893 0.568 0.555 0.809 0.350 0.212 0.547 0.464 0.685 0.178 0.220 0.651 0.871 0.671 0.492 0.452
33300 0.574 0.087 0.793 0.848 0.576 0.748 0.893 0.566 0.550 0.809 0.364 0.219 0.552 0.468 0.661 0.182 0.254 0.649 0.872 0.658 0.467 0.452
33400 0.585 0.087 0.792 0.848 0.576 0.739 0.887 0.567 0.561 0.805 0.368 0.179 0.547 0.450 0.648 0.174 0.219 0.648 0.870 0.658 0.459 0.400
33500 0.564 0.093 0.796 0.859 0.576 0.737 0.887 0.567 0.544 0.801 0.354 0.203 0.542 0.467 0.661 0.178 0.205 0.647 0.868 0.662 0.500 0.400
33600 0.579 0.093 0.798 0.867 0.562 0.743 0.893 0.569 0.564 0.809 0.354 0.203 0.545 0.474 0.673 0.178 0.219 0.649 0.868 0.667 0.500 0.400
33700 0.589 0.098 0.799 0.848 0.531 0.743 0.893 0.569 0.564 0.810 0.354 0.203 0.542 0.456 0.673 0.178 0.229 0.641 0.866 0.658 0.483 0.452
33800 0.605 0.091 0.792 0.848 0.554 0.732 0.893 0.566 0.570 0.808 0.354 0.229 0.541 0.446 0.673 0.178 0.217 0.638 0.865 0.658 0.483 0.500
33900 0.561 0.093 0.797 0.851 0.554 0.727 0.893 0.558 0.551 0.806 0.354 0.203 0.529 0.461 0.673 0.182 0.211 0.634 0.868 0.654 0.508 0.500
34000 0.598 0.095 0.795 0.851 0.576 0.734 0.893 0.554 0.551 0.811 0.370 0.206 0.552 0.468 0.679 0.186 0.208 0.632 0.867 0.641 0.475 0.500
34100 0.571 0.093 0.787 0.846 0.545 0.737 0.893 0.563 0.545 0.803 0.375 0.247 0.564 0.474 0.673 0.182 0.231 0.635 0.868 0.649 0.491 0.457
34200 0.584 0.093 0.790 0.848 0.540 0.732 0.893 0.556 0.544 0.804 0.375 0.182 0.569 0.500 0.685 0.182 0.182 0.644 0.868 0.623 0.491 0.500
34300 0.589 0.091 0.792 0.850 0.554 0.728 0.893 0.559 0.549 0.802 0.366 0.212 0.559 0.496 0.673 0.178 0.165 0.649 0.868 0.619 0.508 0.452
34400 0.611 0.095 0.791 0.850 0.545 0.728 0.893 0.554 0.564 0.812 0.375 0.219 0.564 0.504 0.679 0.178 0.210 0.641 0.868 0.632 0.508 0.452
34500 0.605 0.100 0.790 0.837 0.516 0.732 0.893 0.561 0.552 0.801 0.361 0.215 0.569 0.483 0.661 0.186 0.203 0.642 0.869 0.633 0.492 0.500
34600 0.605 0.105 0.791 0.839 0.548 0.735 0.893 0.569 0.568 0.803 0.366 0.265 0.569 0.496 0.661 0.186 0.197 0.645 0.869 0.645 0.516 0.500
34700 0.648 0.100 0.796 0.828 0.557 0.741 0.887 0.584 0.574 0.803 0.370 0.209 0.561 0.500 0.661 0.186 0.214 0.637 0.869 0.654 0.492 0.516
34800 0.641 0.100 0.790 0.844 0.540 0.738 0.887 0.575 0.570 0.805 0.370 0.219 0.574 0.496 0.661 0.178 0.194 0.638 0.870 0.654 0.516 0.516
34900 0.641 0.103 0.792 0.839 0.525 0.745 0.887 0.575 0.567 0.810 0.366 0.194 0.574 0.491 0.673 0.178 0.194 0.637 0.870 0.645 0.492 0.533
35000 0.629 0.095 0.795 0.850 0.533 0.752 0.887 0.557 0.563 0.806 0.359 0.200 0.564 0.500 0.649 0.182 0.261 0.641 0.870 0.613 0.456 0.483
35100 0.647 0.100 0.790 0.831 0.540 0.740 0.887 0.566 0.577 0.796 0.385 0.190 0.556 0.483 0.648 0.186 0.222 0.621 0.868 0.614 0.459 0.452
35200 0.641 0.100 0.788 0.823 0.548 0.738 0.887 0.568 0.582 0.791 0.368 0.190 0.556 0.500 0.667 0.186 0.215 0.631 0.869 0.641 0.500 0.400
35300 0.660 0.095 0.791 0.818 0.571 0.737 0.887 0.569 0.591 0.796 0.400 0.190 0.552 0.483 0.667 0.186 0.217 0.630 0.869 0.641 0.517 0.414
35400 0.641 0.103 0.789 0.826 0.562 0.743 0.887 0.568 0.573 0.801 0.368 0.197 0.571 0.491 0.667 0.186 0.190 0.623 0.868 0.633 0.464 0.429
35500 0.641 0.103 0.786 0.850 0.576 0.742 0.887 0.566 0.573 0.808 0.364 0.197 0.569 0.491 0.667 0.182 0.194 0.626 0.867 0.646 0.483 0.400
35600 0.660 0.093 0.791 0.848 0.618 0.738 0.887 0.565 0.570 0.811 0.364 0.200 0.588 0.496 0.667 0.178 0.182 0.635 0.870 0.637 0.483 0.414
35700 0.648 0.098 0.787 0.853 0.606 0.741 0.887 0.568 0.573 0.808 0.364 0.194 0.593 0.500 0.667 0.178 0.198 0.629 0.870 0.650 0.475 0.414
35800 0.613 0.095 0.790 0.829 0.597 0.737 0.887 0.562 0.584 0.806 0.390 0.219 0.584 0.496 0.673 0.178 0.208 0.625 0.867 0.632 0.475 0.400
35900 0.613 0.093 0.790 0.837 0.597 0.741 0.876 0.565 0.585 0.808 0.342 0.215 0.567 0.474 0.655 0.178 0.179 0.630 0.870 0.625 0.481 0.452
36000 0.637 0.089 0.792 0.848 0.562 0.750 0.876 0.564 0.567 0.813 0.364 0.246 0.544 0.483 0.649 0.178 0.195 0.626 0.868 0.637 0.456 0.516
36100 0.660 0.089 0.794 0.844 0.585 0.752 0.883 0.558 0.580 0.814 0.364 0.235 0.571 0.491 0.649 0.182 0.183 0.637 0.871 0.646 0.464 0.400
36200 0.635 0.089 0.796 0.844 0.516 0.752 0.883 0.584 0.593 0.811 0.350 0.229 0.576 0.496 0.649 0.182 0.183 0.644 0.872 0.633 0.464 0.400
36300 0.630 0.091 0.795 0.844 0.516 0.754 0.878 0.533 0.590 0.827 0.354 0.246 0.538 0.504 0.627 0.174 0.188 0.629 0.871 0.671 0.464 0.414
36400 0.630 0.091 0.791 0.853 0.516 0.741 0.878 0.534 0.584 0.813 0.354 0.250 0.559 0.483 0.655 0.178 0.195 0.634 0.870 0.638 0.473 0.429
36500 0.609 0.089 0.788 0.833 0.516 0.728 0.889 0.553 0.568 0.804 0.370 0.246 0.591 0.475 0.661 0.261 0.210 0.631 0.870 0.641 0.483 0.345
36600 0.617 0.100 0.783 0.842 0.516 0.730 0.878 0.546 0.579 0.810 0.354 0.219 0.569 0.479 0.661 0.208 0.190 0.644 0.867 0.624 0.429 0.400
