100 0.000 0.000 0.000 0.000 0.000 0.000 0.000 0.000 0.000 0.000 0.000 0.000 0.000 0.000 0.000 0.000 0.000 0.000 1.000 0.000 0.000 0.000
200 0.000 0.000 0.000 0.000 0.000 0.000 0.000 0.000 0.000 0.000 0.000 0.000 0.000 0.000 0.000 0.000 0.000 0.000 1.000 0.000 0.000 0.000
300 0.000 0.000 0.000 0.000 0.000 0.000 0.000 0.000 0.000 0.000 0.000 0.000 0.000 0.000 0.000 0.000 0.000 0.000 1.000 0.000 0.000 0.000
400 0.000 0.000 0.000 0.000 0.000 0.000 0.000 0.000 0.000 0.000 0.000 0.000 0.000 0.000 0.000 0.000 0.000 0.000 1.000 0.000 0.000 0.000
500 0.000 0.000 0.089 0.000 0.000 0.000 0.000 0.000 0.000 0.000 0.000 0.000 0.000 0.000 0.000 0.000 0.000 0.000 0.999 0.000 0.000 0.000
600 0.000 0.000 0.069 0.000 0.000 0.000 0.000 0.000 0.000 0.000 0.000 0.000 0.000 0.000 0.000 0.000 0.000 0.000 1.000 0.000 0.000 0.000
700 0.000 0.000 0.108 0.000 0.000 0.000 0.000 0.000 0.000 0.002 0.000 0.000 0.000 0.000 0.031 0.000 0.000 0.000 0.999 0.000 0.000 0.000
800 0.000 0.000 0.052 0.000 0.000 0.000 0.000 0.000 0.000 0.000 0.000 0.000 0.000 0.000 0.094 0.000 0.000 0.000 0.951 0.000 0.000 0.000
900 0.000 0.000 0.125 0.000 0.000 0.000 0.000 0.000 0.000 0.000 0.000 0.000 0.000 0.000 0.125 0.000 0.000 0.000 0.954 0.000 0.000 0.000
1000 0.000 0.000 0.098 0.000 0.000 0.000 0.000 0.000 0.000 0.000 0.000 0.000 0.000 0.000 0.250 0.000 0.000 0.000 0.968 0.000 0.000 0.000
1100 0.000 0.000 0.005 0.000 0.000 0.000 0.000 0.000 0.000 0.000 0.000 0.000 0.000 0.000 0.156 0.000 0.000 0.000 0.977 0.000 0.000 0.000
1200 0.000 0.000 0.148 0.000 0.000 0.000 0.000 0.000 0.000 0.000 0.000 0.000 0.000 0.000 0.125 0.000 0.000 0.000 0.950 0.000 0.000 0.000
1300 0.000 0.000 0.012 0.000 0.000 0.000 0.000 0.000 0.000 0.000 0.000 0.000 0.000 0.000 0.094 0.000 0.000 0.000 0.993 0.000 0.000 0.000
1400 0.000 0.000 0.098 0.000 0.000 0.000 0.000 0.000 0.000 0.000 0.000 0.000 0.000 0.000 0.125 0.000 0.000 0.000 0.992 0.000 0.000 0.000
1500 0.000 0.000 0.120 0.000 0.000 0.000 0.000 0.000 0.000 0.000 0.000 0.000 0.000 0.000 0.188 0.000 0.000 0.000 0.987 0.000 0.000 0.000
1600 0.000 0.000 0.101 0.000 0.000 0.000 0.000 0.000 0.000 0.000 0.000 0.000 0.000 0.000 0.156 0.000 0.000 0.000 0.996 0.000 0.000 0.000
1700 0.000 0.000 0.125 0.000 0.000 0.000 0.000 0.000 0.000 0.000 0.000 0.000 0.000 0.000 0.250 0.000 0.000 0.000 0.971 0.000 0.000 0.000
1800 0.000 0.000 0.106 0.017 0.000 0.000 0.000 0.000 0.000 0.000 0.000 0.000 0.000 0.000 0.219 0.000 0.000 0.000 0.992 0.000 0.000 0.000
1900 0.000 0.000 0.125 0.052 0.000 0.000 0.000 0.000 0.000 0.000 0.000 0.000 0.000 0.000 0.312 0.000 0.000 0.000 0.989 0.000 0.000 0.000
2000 0.000 0.000 0.135 0.052 0.000 0.000 0.000 0.000 0.000 0.000 0.000 0.000 0.000 0.000 0.156 0.000 0.000 0.000 0.989 0.000 0.000 0.000
2100 0.000 0.000 0.130 0.000 0.000 0.000 0.000 0.000 0.000 0.000 0.000 0.000 0.000 0.000 0.156 0.000 0.000 0.000 0.989 0.000 0.000 0.000
2200 0.000 0.000 0.108 0.069 0.000 0.000 0.000 0.000 0.000 0.000 0.000 0.000 0.000 0.000 0.344 0.000 0.000 0.000 0.979 0.000 0.000 0.000
2300 0.000 0.000 0.135 0.138 0.000 0.000 0.000 0.000 0.000 0.000 0.000 0.000 0.000 0.000 0.250 0.000 0.000 0.000 0.988 0.000 0.000 0.000
2400 0.000 0.000 0.133 0.069 0.000 0.000 0.000 0.000 0.000 0.005 0.000 0.000 0.000 0.000 0.188 0.000 0.000 0.000 0.988 0.000 0.000 0.000
2500 0.000 0.000 0.109 0.000 0.000 0.000 0.000 0.000 0.000 0.000 0.000 0.000 0.000 0.000 0.062 0.000 0.000 0.000 1.000 0.000 0.000 0.000
2600 0.000 0.000 0.121 0.103 0.000 0.000 0.000 0.000 0.000 0.000 0.000 0.000 0.000 0.000 0.281 0.000 0.000 0.000 0.991 0.000 0.000 0.000
2700 0.000 0.000 0.130 0.086 0.000 0.000 0.000 0.000 0.000 0.000 0.000 0.000 0.000 0.000 0.312 0.000 0.000 0.000 0.983 0.000 0.000 0.000
2800 0.000 0.000 0.064 0.121 0.000 0.000 0.000 0.000 0.000 0.000 0.000 0.000 0.000 0.000 0.406 0.000 0.000 0.000 0.993 0.000 0.000 0.000
2900 0.000 0.000 0.111 0.069 0.000 0.000 0.000 0.000 0.000 0.000 0.000 0.000 0.000 0.000 0.344 0.000 0.000 0.000 0.983 0.000 0.098 0.000
3000 0.000 0.000 0.126 0.103 0.000 0.000 0.000 0.000 0.000 0.000 0.000 0.000 0.000 0.000 0.250 0.000 0.000 0.000 0.993 0.000 0.024 0.000
3100 0.000 0.000 0.138 0.034 0.000 0.000 0.000 0.000 0.000 0.000 0.000 0.000 0.000 0.000 0.344 0.000 0.000 0.000 0.977 0.047 0.000 0.000
3200 0.000 0.000 0.128 0.000 0.000 0.000 0.000 0.000 0.000 0.000 0.000 0.000 0.000 0.000 0.312 0.000 0.000 0.000 0.982 0.000 0.024 0.000
3300 0.000 0.000 0.135 0.155 0.000 0.000 0.000 0.000 0.000 0.007 0.000 0.000 0.000 0.000 0.281 0.000 0.000 0.000 0.992 0.062 0.000 0.000
3400 0.000 0.000 0.131 0.103 0.000 0.000 0.000 0.000 0.000 0.012 0.000 0.000 0.000 0.000 0.281 0.000 0.000 0.000 0.989 0.031 0.049 0.000
3500 0.000 0.000 0.106 0.034 0.000 0.000 0.000 0.000 0.000 0.074 0.000 0.000 0.000 0.000 0.250 0.000 0.000 0.000 0.988 0.000 0.024 0.000
3600 0.000 0.000 0.106 0.121 0.000 0.000 0.000 0.000 0.000 0.119 0.000 0.000 0.000 0.000 0.375 0.000 0.000 0.000 0.975 0.000 0.000 0.000
3700 0.000 0.000 0.126 0.121 0.000 0.000 0.000 0.000 0.000 0.098 0.000 0.000 0.000 0.000 0.438 0.000 0.000 0.000 0.963 0.031 0.000 0.000
3800 0.000 0.000 0.120 0.121 0.000 0.000 0.000 0.000 0.000 0.000 0.000 0.000 0.000 0.000 0.469 0.000 0.000 0.000 0.983 0.109 0.000 0.000
3900 0.000 0.000 0.133 0.172 0.000 0.000 0.000 0.000 0.000 0.056 0.000 0.000 0.000 0.000 0.344 0.000 0.000 0.000 0.977 0.047 0.000 0.000
4000 0.000 0.000 0.121 0.138 0.000 0.000 0.000 0.000 0.000 0.000 0.000 0.000 0.000 0.000 0.031 0.000 0.000 0.000 0.996 0.094 0.000 0.000
4100 0.000 0.000 0.138 0.052 0.000 0.000 0.000 0.000 0.000 0.105 0.000 0.000 0.000 0.000 0.406 0.000 0.000 0.000 0.968 0.078 0.049 0.000
4200 0.000 0.000 0.128 0.138 0.000 0.000 0.000 0.000 0.000 0.026 0.000 0.000 0.000 0.000 0.344 0.000 0.000 0.000 0.991 0.047 0.000 0.000
4300 0.000 0.000 0.123 0.259 0.000 0.000 0.000 0.000 0.000 0.007 0.000 0.000 0.000 0.000 0.594 0.000 0.000 0.000 0.977 0.141 0.000 0.000
4400 0.000 0.000 0.126 0.259 0.000 0.000 0.000 0.000 0.000 0.105 0.000 0.000 0.000 0.000 0.656 0.000 0.000 0.000 0.957 0.078 0.073 0.000
4500 0.000 0.000 0.101 0.172 0.000 0.000 0.000 0.000 0.000 0.009 0.000 0.000 0.000 0.000 0.594 0.000 0.000 0.000 0.978 0.094 0.024 0.000
4600 0.000 0.000 0.123 0.086 0.000 0.000 0.000 0.000 0.000 0.000 0.000 0.000 0.000 0.000 0.656 0.000 0.000 0.000 0.988 0.094 0.000 0.000
4700 0.000 0.000 0.136 0.241 0.000 0.000 0.000 0.000 0.000 0.049 0.000 0.000 0.000 0.000 0.656 0.000 0.000 0.000 0.973 0.125 0.000 0.000
4800 0.000 0.000 0.150 0.190 0.000 0.000 0.000 0.000 0.000 0.026 0.000 0.000 0.000 0.000 0.406 0.000 0.000 0.000 0.965 0.078 0.000 0.000
4900 0.000 0.000 0.133 0.276 0.000 0.000 0.000 0.000 0.000 0.056 0.000 0.000 0.000 0.000 0.469 0.000 0.000 0.000 0.985 0.062 0.049 0.000
5000 0.000 0.000 0.120 0.241 0.000 0.000 0.000 0.000 0.000 0.051 0.000 0.000 0.000 0.000 0.688 0.000 0.000 0.000 0.989 0.094 0.049 0.000
5100 0.000 0.000 0.143 0.310 0.000 0.000 0.000 0.000 0.000 0.000 0.000 0.000 0.000 0.000 0.844 0.000 0.000 0.000 0.981 0.109 0.000 0.000
5200 0.000 0.000 0.116 0.259 0.000 0.000 0.000 0.000 0.000 0.019 0.000 0.000 0.000 0.000 0.625 0.000 0.000 0.013 0.995 0.047 0.024 0.000
5300 0.000 0.000 0.121 0.293 0.000 0.000 0.000 0.000 0.000 0.121 0.000 0.000 0.016 0.000 0.812 0.000 0.000 0.026 0.983 0.094 0.000 0.000
5400 0.000 0.000 0.120 0.276 0.000 0.000 0.000 0.000 0.000 0.065 0.000 0.000 0.000 0.000 0.438 0.000 0.000 0.030 0.982 0.094 0.000 0.000
5500 0.000 0.000 0.125 0.172 0.000 0.000 0.000 0.000 0.000 0.137 0.000 0.000 0.000 0.000 0.562 0.000 0.000 0.007 0.976 0.016 0.049 0.000
5600 0.000 0.000 0.135 0.190 0.000 0.000 0.000 0.000 0.000 0.188 0.000 0.000 0.000 0.000 0.719 0.000 0.000 0.033 0.952 0.031 0.000 0.000
5700 0.000 0.000 0.128 0.207 0.000 0.000 0.000 0.000 0.000 0.163 0.000 0.000 0.000 0.000 0.844 0.000 0.000 0.224 0.947 0.109 0.049 0.000
5800 0.000 0.000 0.114 0.103 0.000 0.000 0.000 0.000 0.000 0.026 0.000 0.000 0.000 0.000 0.500 0.000 0.000 0.036 0.989 0.094 0.000 0.000
5900 0.000 0.000 0.118 0.276 0.000 0.000 0.000 0.000 0.000 0.128 0.000 0.000 0.016 0.000 0.812 0.000 0.000 0.122 0.969 0.125 0.000 0.000
6000 0.000 0.000 0.152 0.241 0.000 0.000 0.000 0.000 0.000 0.137 0.000 0.000 0.016 0.000 0.844 0.000 0.000 0.201 0.947 0.109 0.000 0.000
6100 0.000 0.000 0.130 0.379 0.000 0.000 0.025 0.000 0.000 0.167 0.000 0.000 0.016 0.000 0.875 0.000 0.000 0.095 0.963 0.109 0.000 0.000
6200 0.000 0.000 0.130 0.259 0.000 0.000 0.000 0.000 0.000 0.060 0.000 0.000 0.000 0.000 0.781 0.000 0.000 0.135 0.973 0.094 0.000 0.000
6300 0.000 0.000 0.074 0.155 0.000 0.000 0.000 0.000 0.000 0.140 0.000 0.000 0.016 0.000 0.906 0.000 0.000 0.115 0.963 0.078 0.000 0.000
6400 0.000 0.000 0.140 0.224 0.000 0.000 0.000 0.000 0.000 0.000 0.000 0.000 0.000 0.000 0.844 0.000 0.000 0.023 0.995 0.031 0.122 0.000
6500 0.000 0.000 0.131 0.069 0.000 0.000 0.013 0.000 0.000 0.002 0.000 0.000 0.000 0.000 0.344 0.000 0.000 0.039 0.988 0.109 0.000 0.000
6600 0.000 0.000 0.145 0.379 0.000 0.000 0.000 0.000 0.000 0.049 0.000 0.000 0.016 0.000 0.531 0.000 0.000 0.161 0.977 0.078 0.000 0.000
6700 0.000 0.000 0.158 0.466 0.000 0.000 0.000 0.000 0.000 0.137 0.000 0.000 0.016 0.000 0.719 0.000 0.000 0.099 0.968 0.094 0.000 0.000
6800 0.000 0.000 0.157 0.310 0.000 0.000 0.000 0.000 0.000 0.149 0.000 0.000 0.000 0.000 0.812 0.000 0.000 0.181 0.961 0.125 0.000 0.000
6900 0.000 0.000 0.167 0.000 0.000 0.000 0.013 0.000 0.000 0.000 0.000 0.000 0.000 0.000 0.906 0.000 0.000 0.112 0.988 0.000 0.098 0.000
7000 0.000 0.000 0.146 0.207 0.000 0.000 0.000 0.000 0.000 0.093 0.000 0.000 0.000 0.000 0.781 0.000 0.000 0.036 0.967 0.109 0.000 0.000
7100 0.000 0.000 0.173 0.207 0.000 0.000 0.000 0.000 0.000 0.077 0.000 0.000 0.000 0.000 0.906 0.000 0.000 0.201 0.981 0.016 0.000 0.000
7200 0.000 0.000 0.157 0.293 0.000 0.000 0.000 0.000 0.000 0.177 0.000 0.000 0.000 0.000 0.906 0.024 0.000 0.132 0.974 0.047 0.000 0.000
7300 0.000 0.000 0.236 0.483 0.000 0.000 0.000 0.000 0.000 0.000 0.000 0.000 0.016 0.000 0.906 0.000 0.000 0.214 0.971 0.094 0.000 0.000
7400 0.017 0.000 0.241 0.310 0.000 0.000 0.063 0.000 0.000 0.147 0.000 0.000 0.000 0.000 0.938 0.000 0.000 0.227 0.947 0.094 0.000 0.000
7500 0.000 0.000 0.226 0.310 0.000 0.000 0.013 0.000 0.000 0.065 0.000 0.000 0.016 0.000 0.625 0.000 0.000 0.095 0.975 0.094 0.073 0.000
7600 0.000 0.000 0.229 0.293 0.000 0.000 0.000 0.000 0.000 0.165 0.000 0.000 0.000 0.000 0.938 0.000 0.000 0.257 0.941 0.094 0.000 0.000
7700 0.000 0.000 0.276 0.017 0.000 0.000 0.000 0.000 0.000 0.174 0.000 0.000 0.000 0.000 0.844 0.000 0.000 0.174 0.965 0.109 0.049 0.000
7800 0.000 0.000 0.301 0.500 0.000 0.000 0.000 0.000 0.000 0.051 0.000 0.000 0.016 0.000 0.781 0.000 0.000 0.086 0.965 0.078 0.000 0.000
7900 0.000 0.000 0.372 0.328 0.000 0.000 0.000 0.000 0.000 0.086 0.000 0.000 0.016 0.000 0.938 0.000 0.000 0.181 0.967 0.062 0.049 0.000
8000 0.000 0.000 0.234 0.190 0.000 0.000 0.000 0.000 0.000 0.188 0.000 0.000 0.000 0.000 0.594 0.000 0.000 0.010 0.967 0.078 0.049 0.000
8100 0.000 0.000 0.259 0.259 0.000 0.000 0.000 0.000 0.000 0.056 0.000 0.000 0.000 0.000 0.656 0.000 0.000 0.089 0.979 0.094 0.024 0.000
8200 0.000 0.000 0.247 0.345 0.000 0.000 0.051 0.000 0.000 0.186 0.000 0.000 0.000 0.000 0.938 0.000 0.000 0.247 0.957 0.125 0.000 0.000
8300 0.000 0.000 0.374 0.155 0.000 0.000 0.025 0.000 0.000 0.070 0.000 0.000 0.000 0.000 0.875 0.000 0.000 0.122 0.971 0.125 0.000 0.000
8400 0.034 0.000 0.298 0.034 0.000 0.000 0.038 0.000 0.000 0.107 0.000 0.000 0.000 0.000 0.938 0.000 0.000 0.211 0.951 0.000 0.122 0.000
8500 0.017 0.000 0.231 0.379 0.000 0.000 0.000 0.000 0.000 0.165 0.000 0.000 0.000 0.000 0.656 0.024 0.000 0.056 0.977 0.109 0.000 0.000
8600 0.000 0.000 0.389 0.431 0.000 0.000 0.000 0.000 0.000 0.035 0.000 0.000 0.016 0.000 0.844 0.000 0.000 0.260 0.964 0.078 0.024 0.000
8700 0.017 0.000 0.301 0.052 0.000 0.000 0.000 0.000 0.000 0.160 0.000 0.000 0.000 0.000 0.906 0.000 0.000 0.095 0.967 0.109 0.000 0.000
8800 0.000 0.000 0.431 0.259 0.000 0.000 0.000 0.000 0.000 0.112 0.000 0.000 0.000 0.000 0.875 0.000 0.000 0.053 0.971 0.031 0.000 0.000
8900 0.000 0.000 0.323 0.293 0.000 0.000 0.000 0.000 0.000 0.184 0.000 0.000 0.016 0.000 0.875 0.000 0.000 0.092 0.960 0.078 0.000 0.000
9000 0.017 0.000 0.337 0.276 0.000 0.000 0.000 0.000 0.000 0.005 0.000 0.000 0.016 0.000 0.875 0.000 0.000 0.125 0.974 0.016 0.000 0.000
9100 0.017 0.000 0.316 0.328 0.000 0.000 0.000 0.000 0.000 0.193 0.000 0.000 0.016 0.000 0.938 0.000 0.000 0.211 0.939 0.062 0.000 0.000
9200 0.034 0.000 0.475 0.207 0.000 0.000 0.000 0.000 0.000 0.177 0.000 0.000 0.000 0.000 0.938 0.000 0.000 0.227 0.941 0.078 0.000 0.000
9300 0.034 0.000 0.419 0.414 0.000 0.000 0.063 0.000 0.000 0.147 0.000 0.000 0.000 0.000 0.875 0.000 0.000 0.053 0.956 0.000 0.000 0.000
9400 0.017 0.000 0.446 0.310 0.000 0.000 0.025 0.000 0.000 0.167 0.000 0.000 0.000 0.000 0.906 0.000 0.000 0.355 0.919 0.109 0.000 0.000
9500 0.000 0.000 0.429 0.414 0.000 0.000 0.000 0.000 0.000 0.091 0.000 0.000 0.047 0.000 0.938 0.000 0.000 0.059 0.960 0.109 0.024 0.000
9600 0.034 0.000 0.343 0.379 0.000 0.000 0.000 0.000 0.000 0.079 0.000 0.000 0.016 0.000 0.906 0.000 0.000 0.224 0.956 0.062 0.000 0.000
9700 0.051 0.000 0.391 0.000 0.000 0.000 0.038 0.000 0.000 0.137 0.000 0.000 0.000 0.000 0.938 0.000 0.000 0.089 0.958 0.000 0.049 0.000
9800 0.051 0.000 0.475 0.155 0.000 0.000 0.038 0.000 0.000 0.137 0.000 0.000 0.000 0.000 0.875 0.000 0.000 0.158 0.954 0.094 0.000 0.000
9900 0.017 0.000 0.343 0.000 0.000 0.000 0.025 0.000 0.000 0.174 0.000 0.000 0.000 0.000 0.938 0.000 0.000 0.158 0.962 0.031 0.073 0.000
10000 0.034 0.000 0.434 0.000 0.000 0.000 0.038 0.000 0.000 0.212 0.000 0.000 0.000 0.000 0.969 0.000 0.000 0.276 0.948 0.078 0.024 0.000
10100 0.017 0.000 0.311 0.207 0.000 0.000 0.013 0.000 0.000 0.207 0.000 0.000 0.000 0.000 0.938 0.000 0.000 0.128 0.945 0.062 0.024 0.000
10200 0.017 0.000 0.345 0.000 0.000 0.000 0.000 0.000 0.000 0.144 0.000 0.000 0.000 0.000 0.875 0.000 0.000 0.145 0.971 0.094 0.049 0.000
10300 0.000 0.000 0.549 0.207 0.000 0.000 0.038 0.006 0.000 0.263 0.000 0.000 0.000 0.000 0.938 0.000 0.000 0.207 0.919 0.016 0.024 0.000
10400 0.034 0.000 0.542 0.328 0.000 0.000 0.063 0.006 0.000 0.212 0.000 0.000 0.000 0.000 0.906 0.000 0.000 0.280 0.928 0.016 0.049 0.000
10500 0.000 0.000 0.416 0.379 0.000 0.000 0.000 0.000 0.000 0.058 0.000 0.000 0.031 0.000 0.844 0.000 0.000 0.375 0.949 0.000 0.024 0.000
10600 0.051 0.000 0.569 0.362 0.000 0.000 0.051 0.000 0.000 0.321 0.000 0.000 0.016 0.000 0.938 0.000 0.000 0.378 0.916 0.000 0.146 0.000
10700 0.017 0.000 0.493 0.069 0.000 0.000 0.013 0.000 0.000 0.437 0.000 0.000 0.000 0.000 0.750 0.000 0.000 0.076 0.897 0.000 0.000 0.000
10800 0.034 0.000 0.648 0.224 0.000 0.000 0.013 0.006 0.000 0.314 0.000 0.000 0.000 0.000 0.906 0.000 0.000 0.303 0.868 0.047 0.000 0.000
10900 0.017 0.000 0.397 0.034 0.000 0.000 0.089 0.006 0.000 0.249 0.000 0.000 0.000 0.000 0.750 0.000 0.000 0.188 0.946 0.094 0.000 0.000
11000 0.017 0.000 0.544 0.121 0.000 0.000 0.063 0.000 0.000 0.870 0.000 0.000 0.000 0.000 0.875 0.000 0.000 0.171 0.765 0.000 0.000 0.000
11100 0.034 0.000 0.562 0.224 0.000 0.000 0.038 0.000 0.000 0.214 0.000 0.000 0.000 0.000 0.938 0.000 0.000 0.201 0.912 0.062 0.024 0.000
11200 0.034 0.000 0.611 0.259 0.000 0.026 0.076 0.000 0.000 0.267 0.000 0.000 0.000 0.000 0.938 0.000 0.000 0.355 0.893 0.000 0.049 0.000
11300 0.051 0.000 0.522 0.379 0.000 0.000 0.342 0.000 0.000 0.672 0.000 0.000 0.016 0.000 0.875 0.000 0.000 0.062 0.796 0.109 0.000 0.000
11400 0.017 0.000 0.540 0.052 0.000 0.000 0.354 0.000 0.000 0.195 0.000 0.000 0.000 0.000 0.938 0.000 0.000 0.171 0.940 0.000 0.073 0.000
11500 0.034 0.000 0.569 0.207 0.000 0.000 0.025 0.000 0.000 0.400 0.000 0.000 0.016 0.000 0.875 0.024 0.000 0.224 0.888 0.000 0.000 0.000
11600 0.051 0.000 0.576 0.224 0.000 0.000 0.076 0.000 0.000 0.423 0.000 0.000 0.000 0.000 0.938 0.000 0.000 0.230 0.912 0.000 0.000 0.000
11700 0.034 0.000 0.429 0.241 0.000 0.000 0.228 0.006 0.000 0.526 0.000 0.000 0.000 0.000 0.938 0.000 0.000 0.237 0.913 0.000 0.098 0.000
11800 0.051 0.000 0.492 0.207 0.000 0.004 0.089 0.000 0.000 0.249 0.000 0.036 0.000 0.000 0.938 0.000 0.000 0.161 0.922 0.000 0.000 0.000
11900 0.017 0.000 0.411 0.241 0.000 0.008 0.000 0.000 0.000 0.700 0.000 0.000 0.000 0.000 0.938 0.000 0.000 0.158 0.839 0.000 0.000 0.000
12000 0.017 0.000 0.478 0.138 0.000 0.004 0.278 0.000 0.000 0.563 0.000 0.000 0.000 0.000 0.938 0.024 0.000 0.197 0.862 0.000 0.000 0.000
12100 0.017 0.000 0.298 0.172 0.000 0.000 0.000 0.000 0.000 0.305 0.000 0.000 0.000 0.000 0.094 0.000 0.000 0.000 0.823 0.094 0.000 0.000
12200 0.034 0.000 0.596 0.224 0.000 0.000 0.165 0.000 0.000 0.621 0.000 0.000 0.000 0.000 0.688 0.000 0.000 0.148 0.886 0.016 0.000 0.000
12300 0.034 0.000 0.562 0.207 0.000 0.000 0.152 0.000 0.000 0.533 0.000 0.000 0.000 0.000 0.906 0.000 0.000 0.161 0.908 0.047 0.000 0.000
12400 0.017 0.000 0.611 0.293 0.000 0.000 0.089 0.000 0.000 0.526 0.000 0.000 0.000 0.000 0.938 0.000 0.000 0.250 0.899 0.000 0.000 0.000
12500 0.034 0.000 0.510 0.103 0.000 0.000 0.165 0.000 0.000 0.293 0.000 0.000 0.000 0.000 0.906 0.000 0.000 0.158 0.930 0.109 0.000 0.000
12600 0.017 0.000 0.364 0.052 0.000 0.000 0.025 0.000 0.000 0.751 0.000 0.000 0.000 0.000 0.469 0.000 0.000 0.020 0.672 0.000 0.000 0.000
12700 0.017 0.000 0.594 0.207 0.000 0.008 0.190 0.000 0.000 0.521 0.000 0.000 0.000 0.000 0.875 0.000 0.000 0.319 0.893 0.000 0.000 0.000
12800 0.034 0.000 0.468 0.052 0.000 0.000 0.241 0.025 0.000 0.640 0.000 0.000 0.000 0.000 0.906 0.000 0.000 0.217 0.901 0.000 0.000 0.000
12900 0.017 0.000 0.527 0.138 0.000 0.023 0.089 0.012 0.000 0.728 0.000 0.000 0.000 0.000 0.906 0.000 0.000 0.283 0.842 0.000 0.000 0.000
13000 0.017 0.000 0.663 0.224 0.000 0.000 0.266 0.019 0.000 0.621 0.000 0.000 0.000 0.000 0.969 0.000 0.000 0.230 0.880 0.000 0.000 0.000
13100 0.034 0.000 0.658 0.172 0.000 0.030 0.089 0.031 0.000 0.456 0.000 0.000 0.000 0.000 0.875 0.000 0.000 0.299 0.884 0.047 0.024 0.000
13200 0.034 0.000 0.519 0.138 0.000 0.000 0.342 0.000 0.000 0.730 0.000 0.000 0.000 0.015 0.938 0.071 0.000 0.220 0.846 0.000 0.000 0.000
13300 0.051 0.000 0.601 0.276 0.000 0.000 0.278 0.019 0.000 0.707 0.000 0.000 0.000 0.015 0.938 0.000 0.000 0.385 0.836 0.031 0.146 0.000
13400 0.017 0.000 0.621 0.259 0.000 0.000 0.392 0.000 0.000 0.823 0.000 0.000 0.000 0.000 0.875 0.000 0.000 0.224 0.825 0.016 0.000 0.000
13500 0.034 0.000 0.487 0.155 0.000 0.000 0.152 0.006 0.000 0.347 0.000 0.000 0.000 0.031 0.906 0.000 0.000 0.128 0.931 0.000 0.000 0.000
13600 0.034 0.000 0.625 0.000 0.000 0.004 0.177 0.006 0.000 0.753 0.000 0.000 0.000 0.000 0.781 0.024 0.000 0.178 0.804 0.016 0.024 0.000
13700 0.034 0.000 0.510 0.155 0.000 0.000 0.101 0.000 0.000 0.505 0.000 0.000 0.016 0.031 0.938 0.000 0.000 0.188 0.920 0.047 0.024 0.000
13800 0.017 0.000 0.672 0.241 0.000 0.008 0.203 0.000 0.000 0.774 0.000 0.000 0.000 0.000 0.938 0.000 0.000 0.227 0.871 0.000 0.000 0.000
13900 0.034 0.000 0.625 0.224 0.000 0.000 0.418 0.031 0.000 0.847 0.000 0.000 0.016 0.000 0.938 0.024 0.000 0.260 0.836 0.031 0.000 0.000
14000 0.017 0.000 0.581 0.052 0.000 0.000 0.139 0.006 0.000 0.693 0.000 0.000 0.000 0.000 0.906 0.000 0.000 0.174 0.888 0.000 0.024 0.000
14100 0.068 0.000 0.626 0.362 0.000 0.000 0.253 0.056 0.000 0.891 0.000 0.000 0.016 0.000 0.875 0.000 0.000 0.164 0.840 0.000 0.000 0.000
14200 0.034 0.000 0.586 0.138 0.000 0.000 0.165 0.000 0.000 0.665 0.000 0.000 0.016 0.015 0.875 0.024 0.000 0.148 0.880 0.000 0.098 0.000
14300 0.017 0.000 0.601 0.293 0.000 0.000 0.063 0.000 0.000 0.853 0.000 0.000 0.000 0.000 0.906 0.000 0.000 0.188 0.819 0.016 0.024 0.000
14400 0.034 0.000 0.609 0.138 0.000 0.004 0.494 0.037 0.000 0.753 0.000 0.000 0.000 0.000 0.875 0.000 0.000 0.253 0.866 0.031 0.122 0.000
14500 0.051 0.000 0.598 0.138 0.000 0.011 0.165 0.019 0.000 0.707 0.000 0.000 0.000 0.000 0.969 0.000 0.000 0.168 0.884 0.031 0.000 0.000
14600 0.034 0.000 0.670 0.379 0.000 0.000 0.076 0.012 0.000 0.844 0.000 0.000 0.016 0.000 0.812 0.048 0.000 0.118 0.828 0.000 0.000 0.000
14700 0.034 0.000 0.668 0.172 0.000 0.000 0.051 0.000 0.000 0.521 0.000 0.000 0.000 0.000 0.938 0.048 0.000 0.211 0.868 0.000 0.000 0.000
14800 0.051 0.000 0.643 0.397 0.000 0.000 0.329 0.031 0.000 0.791 0.000 0.107 0.000 0.000 0.969 0.024 0.000 0.181 0.845 0.000 0.024 0.000
14900 0.034 0.000 0.668 0.190 0.000 0.000 0.241 0.006 0.000 0.823 0.000 0.000 0.000 0.015 0.906 0.000 0.000 0.273 0.809 0.000 0.024 0.000
15000 0.051 0.000 0.670 0.172 0.000 0.000 0.089 0.025 0.000 0.844 0.000 0.000 0.000 0.000 0.875 0.000 0.000 0.247 0.850 0.016 0.024 0.000
15100 0.034 0.000 0.653 0.241 0.000 0.000 0.304 0.093 0.000 0.598 0.000 0.000 0.000 0.000 0.938 0.000 0.000 0.289 0.868 0.031 0.049 0.000
15200 0.034 0.000 0.714 0.310 0.000 0.004 0.291 0.012 0.000 0.826 0.000 0.000 0.000 0.015 0.906 0.024 0.000 0.276 0.854 0.000 0.024 0.000
15300 0.034 0.000 0.532 0.103 0.000 0.000 0.165 0.000 0.000 0.774 0.000 0.036 0.000 0.000 0.938 0.024 0.000 0.312 0.885 0.000 0.024 0.000
15400 0.051 0.000 0.665 0.448 0.000 0.034 0.494 0.025 0.000 0.767 0.000 0.000 0.000 0.015 0.938 0.000 0.000 0.266 0.864 0.031 0.024 0.000
15500 0.051 0.000 0.705 0.500 0.000 0.000 0.380 0.056 0.000 0.760 0.000 0.000 0.000 0.015 0.969 0.000 0.000 0.382 0.855 0.000 0.024 0.000
15600 0.051 0.000 0.680 0.293 0.000 0.011 0.430 0.106 0.000 0.602 0.019 0.000 0.000 0.046 1.000 0.000 0.000 0.444 0.860 0.094 0.024 0.000
15700 0.068 0.000 0.695 0.448 0.000 0.038 0.468 0.062 0.000 0.793 0.000 0.000 0.000 0.015 0.938 0.000 0.000 0.286 0.864 0.000 0.024 0.000
15800 0.034 0.000 0.692 0.207 0.000 0.000 0.278 0.031 0.000 0.660 0.000 0.000 0.000 0.015 0.938 0.000 0.000 0.234 0.838 0.000 0.000 0.000
15900 0.034 0.000 0.690 0.293 0.000 0.000 0.354 0.037 0.000 0.860 0.019 0.000 0.000 0.000 0.938 0.000 0.000 0.362 0.838 0.000 0.024 0.000
16000 0.051 0.000 0.737 0.362 0.000 0.019 0.646 0.031 0.000 0.753 0.000 0.000 0.016 0.000 0.938 0.024 0.000 0.375 0.858 0.016 0.049 0.000
16100 0.017 0.000 0.687 0.431 0.000 0.189 0.342 0.043 0.000 0.651 0.000 0.000 0.000 0.000 0.938 0.024 0.000 0.332 0.850 0.031 0.024 0.000
16200 0.034 0.000 0.677 0.414 0.000 0.000 0.443 0.062 0.000 0.830 0.000 0.000 0.000 0.031 0.969 0.000 0.000 0.309 0.846 0.000 0.000 0.000
16300 0.000 0.000 0.704 0.379 0.000 0.011 0.456 0.031 0.000 0.907 0.000 0.000 0.000 0.000 0.938 0.000 0.000 0.204 0.821 0.000 0.000 0.000
16400 0.034 0.000 0.675 0.276 0.000 0.034 0.468 0.031 0.000 0.840 0.000 0.000 0.000 0.015 0.938 0.000 0.000 0.332 0.844 0.000 0.049 0.000
16500 0.017 0.000 0.672 0.121 0.000 0.000 0.177 0.006 0.000 0.905 0.000 0.000 0.000 0.000 0.938 0.000 0.000 0.105 0.827 0.000 0.024 0.000
16600 0.051 0.000 0.717 0.345 0.000 0.000 0.595 0.050 0.000 0.819 0.000 0.000 0.016 0.000 0.938 0.024 0.000 0.365 0.848 0.016 0.000 0.000
16700 0.017 0.000 0.609 0.259 0.000 0.000 0.165 0.056 0.000 0.833 0.000 0.000 0.000 0.000 0.906 0.000 0.000 0.161 0.880 0.016 0.024 0.000
16800 0.034 0.000 0.680 0.345 0.000 0.000 0.430 0.025 0.000 0.916 0.000 0.000 0.000 0.000 0.938 0.000 0.000 0.355 0.830 0.031 0.024 0.000
16900 0.034 0.000 0.645 0.397 0.000 0.000 0.570 0.031 0.000 0.898 0.000 0.000 0.016 0.000 0.938 0.000 0.000 0.395 0.848 0.016 0.049 0.000
17000 0.034 0.000 0.773 0.448 0.000 0.038 0.519 0.031 0.000 0.821 0.000 0.000 0.000 0.015 0.906 0.024 0.000 0.520 0.800 0.000 0.049 0.000
17100 0.034 0.000 0.660 0.448 0.000 0.015 0.430 0.081 0.000 0.795 0.000 0.000 0.000 0.000 0.938 0.000 0.000 0.247 0.886 0.016 0.049 0.000
17200 0.034 0.000 0.722 0.345 0.000 0.000 0.367 0.043 0.000 0.877 0.000 0.000 0.000 0.000 0.969 0.000 0.000 0.164 0.825 0.000 0.000 0.000
17300 0.051 0.000 0.680 0.293 0.000 0.053 0.633 0.137 0.000 0.663 0.000 0.000 0.000 0.000 0.844 0.000 0.000 0.319 0.874 0.062 0.024 0.000
17400 0.034 0.000 0.709 0.431 0.000 0.000 0.468 0.062 0.000 0.851 0.000 0.000 0.000 0.015 0.969 0.000 0.000 0.451 0.851 0.047 0.024 0.000
17500 0.034 0.000 0.739 0.379 0.000 0.015 0.646 0.087 0.000 0.837 0.000 0.000 0.062 0.015 0.969 0.000 0.000 0.365 0.840 0.047 0.024 0.000
17600 0.034 0.000 0.694 0.517 0.000 0.000 0.595 0.087 0.000 0.874 0.000 0.000 0.000 0.046 0.906 0.048 0.000 0.388 0.828 0.047 0.024 0.000
17700 0.034 0.000 0.739 0.414 0.000 0.019 0.570 0.081 0.000 0.840 0.000 0.000 0.031 0.015 0.938 0.071 0.000 0.227 0.868 0.031 0.024 0.000
17800 0.034 0.000 0.655 0.328 0.000 0.000 0.620 0.093 0.000 0.891 0.000 0.000 0.000 0.000 0.906 0.024 0.000 0.211 0.861 0.031 0.024 0.000
17900 0.034 0.000 0.766 0.431 0.000 0.008 0.557 0.068 0.000 0.858 0.000 0.000 0.000 0.046 0.938 0.048 0.000 0.461 0.821 0.031 0.024 0.000
18000 0.034 0.000 0.731 0.362 0.000 0.000 0.304 0.068 0.000 0.909 0.000 0.000 0.016 0.015 0.906 0.048 0.000 0.615 0.797 0.000 0.000 0.000
18100 0.034 0.000 0.712 0.483 0.000 0.004 0.380 0.062 0.000 0.893 0.000 0.000 0.016 0.015 0.938 0.048 0.000 0.444 0.828 0.031 0.000 0.000
18200 0.034 0.000 0.695 0.310 0.000 0.004 0.405 0.043 0.000 0.912 0.000 0.000 0.031 0.031 0.875 0.048 0.000 0.359 0.830 0.016 0.024 0.000
18300 0.034 0.000 0.710 0.552 0.000 0.166 0.608 0.186 0.000 0.709 0.019 0.000 0.016 0.015 0.938 0.048 0.000 0.398 0.839 0.031 0.000 0.000
18400 0.034 0.000 0.658 0.431 0.000 0.004 0.342 0.068 0.000 0.923 0.000 0.000 0.000 0.000 0.938 0.048 0.000 0.240 0.855 0.047 0.000 0.000
18500 0.034 0.000 0.675 0.414 0.000 0.015 0.595 0.031 0.000 0.842 0.000 0.000 0.047 0.000 0.969 0.048 0.000 0.428 0.830 0.047 0.024 0.000
18600 0.034 0.000 0.737 0.397 0.000 0.004 0.671 0.075 0.000 0.891 0.000 0.000 0.062 0.031 0.906 0.095 0.000 0.260 0.844 0.031 0.024 0.000
18700 0.017 0.000 0.695 0.241 0.000 0.000 0.380 0.093 0.000 0.909 0.000 0.000 0.000 0.046 0.938 0.000 0.000 0.362 0.823 0.016 0.000 0.000
18800 0.051 0.000 0.673 0.534 0.000 0.030 0.658 0.081 0.000 0.798 0.000 0.000 0.000 0.000 0.906 0.000 0.000 0.385 0.880 0.078 0.024 0.000
18900 0.034 0.000 0.719 0.569 0.000 0.004 0.544 0.062 0.000 0.891 0.000 0.000 0.062 0.031 0.969 0.095 0.000 0.562 0.815 0.031 0.024 0.000
19000 0.034 0.000 0.694 0.138 0.000 0.000 0.456 0.031 0.000 0.930 0.000 0.000 0.016 0.015 0.969 0.000 0.000 0.316 0.824 0.016 0.000 0.000
19100 0.017 0.000 0.631 0.414 0.000 0.181 0.570 0.037 0.000 0.728 0.000 0.000 0.031 0.015 0.781 0.167 0.000 0.336 0.862 0.031 0.024 0.000
19200 0.017 0.000 0.729 0.379 0.000 0.000 0.392 0.075 0.000 0.916 0.000 0.000 0.062 0.031 0.906 0.071 0.000 0.477 0.814 0.031 0.024 0.000
19300 0.034 0.000 0.712 0.448 0.000 0.049 0.747 0.161 0.000 0.767 0.019 0.000 0.062 0.015 0.969 0.071 0.000 0.378 0.851 0.047 0.024 0.000
19400 0.034 0.000 0.700 0.483 0.000 0.011 0.557 0.037 0.000 0.853 0.019 0.000 0.016 0.015 0.875 0.024 0.000 0.461 0.821 0.031 0.024 0.000
19500 0.017 0.000 0.736 0.345 0.000 0.000 0.595 0.043 0.000 0.905 0.000 0.000 0.016 0.046 0.938 0.048 0.000 0.243 0.839 0.031 0.024 0.000
19600 0.034 0.000 0.700 0.586 0.000 0.015 0.722 0.155 0.010 0.840 0.019 0.000 0.125 0.077 0.938 0.024 0.000 0.487 0.853 0.047 0.024 0.000
19700 0.034 0.000 0.737 0.345 0.000 0.008 0.304 0.025 0.000 0.933 0.000 0.000 0.047 0.062 0.938 0.048 0.000 0.355 0.802 0.016 0.000 0.000
19800 0.034 0.000 0.715 0.586 0.000 0.072 0.759 0.087 0.000 0.886 0.019 0.000 0.125 0.031 0.938 0.000 0.000 0.270 0.854 0.031 0.000 0.000
19900 0.034 0.034 0.650 0.517 0.000 0.000 0.595 0.037 0.010 0.872 0.000 0.000 0.016 0.031 0.969 0.024 0.000 0.306 0.887 0.000 0.024 0.000
20000 0.051 0.000 0.709 0.603 0.000 0.000 0.506 0.149 0.000 0.851 0.000 0.000 0.000 0.000 0.969 0.071 0.000 0.375 0.864 0.078 0.024 0.000
20100 0.017 0.000 0.685 0.397 0.000 0.268 0.570 0.124 0.000 0.623 0.000 0.000 0.078 0.062 0.938 0.048 0.000 0.339 0.846 0.000 0.000 0.000
20200 0.034 0.000 0.694 0.500 0.000 0.045 0.582 0.062 0.000 0.772 0.019 0.000 0.047 0.000 0.969 0.000 0.000 0.352 0.882 0.047 0.024 0.000
20300 0.034 0.000 0.710 0.431 0.000 0.019 0.835 0.037 0.000 0.884 0.019 0.000 0.109 0.062 0.938 0.048 0.000 0.510 0.826 0.047 0.024 0.000
20400 0.034 0.000 0.699 0.483 0.000 0.000 0.734 0.025 0.010 0.863 0.019 0.000 0.078 0.000 0.906 0.048 0.000 0.461 0.837 0.031 0.024 0.000
20500 0.051 0.000 0.751 0.483 0.000 0.019 0.696 0.056 0.000 0.893 0.000 0.000 0.031 0.046 0.906 0.024 0.000 0.411 0.856 0.031 0.000 0.000
20600 0.068 0.000 0.731 0.500 0.000 0.026 0.722 0.292 0.010 0.786 0.074 0.000 0.078 0.046 1.000 0.095 0.000 0.461 0.820 0.047 0.049 0.000
20700 0.034 0.000 0.697 0.448 0.000 0.000 0.633 0.087 0.000 0.900 0.056 0.000 0.109 0.000 0.938 0.071 0.000 0.530 0.834 0.078 0.024 0.000
20800 0.034 0.000 0.604 0.500 0.000 0.045 0.557 0.093 0.010 0.816 0.037 0.000 0.094 0.062 0.969 0.095 0.000 0.503 0.870 0.062 0.049 0.000
20900 0.017 0.000 0.732 0.517 0.000 0.023 0.684 0.137 0.000 0.844 0.019 0.000 0.109 0.000 0.906 0.048 0.000 0.546 0.833 0.141 0.024 0.000
21000 0.034 0.000 0.776 0.466 0.000 0.000 0.532 0.037 0.000 0.921 0.000 0.000 0.062 0.046 0.906 0.024 0.000 0.411 0.826 0.031 0.000 0.000
21100 0.034 0.000 0.732 0.517 0.000 0.034 0.709 0.043 0.000 0.863 0.019 0.000 0.031 0.062 0.906 0.024 0.000 0.408 0.851 0.047 0.024 0.000
21200 0.051 0.000 0.722 0.517 0.000 0.385 0.785 0.087 0.010 0.458 0.000 0.000 0.094 0.015 0.938 0.000 0.000 0.217 0.875 0.156 0.049 0.000
21300 0.034 0.000 0.816 0.466 0.000 0.004 0.759 0.087 0.000 0.828 0.019 0.000 0.047 0.015 0.906 0.024 0.000 0.428 0.826 0.078 0.049 0.000
21400 0.051 0.000 0.746 0.448 0.000 0.004 0.759 0.106 0.000 0.851 0.019 0.000 0.031 0.015 1.000 0.071 0.000 0.385 0.839 0.109 0.024 0.000
21500 0.051 0.000 0.685 0.448 0.000 0.026 0.658 0.118 0.000 0.842 0.019 0.000 0.141 0.062 0.938 0.024 0.000 0.579 0.822 0.188 0.049 0.000
21600 0.017 0.000 0.694 0.483 0.000 0.000 0.608 0.081 0.000 0.942 0.093 0.000 0.016 0.046 0.969 0.024 0.000 0.365 0.868 0.078 0.000 0.000
21700 0.017 0.000 0.726 0.517 0.000 0.000 0.785 0.087 0.000 0.930 0.056 0.000 0.062 0.031 0.938 0.024 0.000 0.329 0.856 0.078 0.000 0.000
21800 0.051 0.000 0.682 0.466 0.000 0.015 0.570 0.112 0.000 0.814 0.074 0.000 0.094 0.031 0.906 0.048 0.000 0.516 0.834 0.078 0.000 0.000
21900 0.034 0.000 0.747 0.448 0.032 0.008 0.759 0.050 0.000 0.874 0.074 0.000 0.109 0.031 0.938 0.048 0.000 0.385 0.868 0.047 0.049 0.000
22000 0.034 0.000 0.732 0.431 0.000 0.000 0.329 0.062 0.000 0.953 0.000 0.000 0.078 0.046 0.938 0.024 0.000 0.378 0.831 0.031 0.024 0.000
22100 0.034 0.000 0.736 0.500 0.000 0.000 0.696 0.043 0.000 0.937 0.037 0.000 0.031 0.077 0.969 0.071 0.000 0.408 0.837 0.062 0.024 0.000
22200 0.034 0.000 0.783 0.500 0.000 0.004 0.684 0.068 0.000 0.881 0.037 0.000 0.078 0.046 0.969 0.167 0.000 0.533 0.840 0.109 0.049 0.000
22300 0.034 0.000 0.744 0.397 0.000 0.000 0.658 0.075 0.000 0.909 0.093 0.000 0.031 0.092 0.906 0.119 0.000 0.345 0.872 0.094 0.000 0.000
22400 0.034 0.000 0.785 0.534 0.000 0.004 0.696 0.081 0.000 0.937 0.037 0.000 0.109 0.015 0.969 0.095 0.000 0.408 0.838 0.078 0.024 0.000
22500 0.017 0.000 0.741 0.397 0.000 0.000 0.177 0.068 0.000 0.926 0.037 0.000 0.109 0.062 0.969 0.048 0.000 0.365 0.836 0.016 0.000 0.000
22600 0.034 0.034 0.690 0.517 0.000 0.128 0.810 0.075 0.000 0.737 0.037 0.000 0.109 0.077 0.969 0.119 0.000 0.378 0.869 0.047 0.049 0.000
22700 0.051 0.000 0.758 0.431 0.000 0.000 0.633 0.043 0.000 0.867 0.074 0.000 0.094 0.077 0.906 0.000 0.000 0.395 0.862 0.047 0.024 0.000
22800 0.085 0.034 0.758 0.448 0.000 0.030 0.633 0.118 0.000 0.744 0.074 0.000 0.156 0.046 0.969 0.119 0.000 0.391 0.877 0.078 0.000 0.000
22900 0.034 0.000 0.761 0.414 0.000 0.000 0.329 0.056 0.000 0.893 0.019 0.000 0.094 0.046 0.938 0.000 0.000 0.428 0.838 0.031 0.000 0.000
23000 0.034 0.000 0.731 0.500 0.000 0.000 0.709 0.224 0.000 0.844 0.019 0.000 0.062 0.077 0.938 0.048 0.000 0.461 0.850 0.172 0.024 0.000
23100 0.051 0.000 0.705 0.534 0.000 0.011 0.671 0.093 0.000 0.816 0.037 0.000 0.047 0.169 0.938 0.095 0.000 0.385 0.869 0.094 0.000 0.000
23200 0.034 0.000 0.783 0.483 0.000 0.000 0.734 0.075 0.000 0.898 0.037 0.000 0.047 0.077 0.969 0.024 0.000 0.411 0.840 0.031 0.024 0.000
23300 0.034 0.000 0.721 0.431 0.000 0.000 0.646 0.068 0.021 0.909 0.056 0.000 0.156 0.062 0.969 0.024 0.000 0.490 0.837 0.062 0.024 0.000
23400 0.034 0.000 0.717 0.448 0.000 0.008 0.747 0.075 0.000 0.947 0.056 0.000 0.062 0.077 0.906 0.071 0.000 0.408 0.872 0.062 0.049 0.000
23500 0.034 0.000 0.678 0.431 0.000 0.000 0.544 0.056 0.000 0.937 0.000 0.000 0.078 0.031 0.969 0.095 0.000 0.490 0.844 0.062 0.024 0.000
23600 0.034 0.000 0.704 0.534 0.000 0.004 0.430 0.075 0.000 0.916 0.037 0.000 0.062 0.046 1.000 0.024 0.000 0.388 0.854 0.016 0.000 0.000
23700 0.034 0.000 0.724 0.552 0.000 0.000 0.620 0.075 0.000 0.909 0.000 0.000 0.094 0.015 1.000 0.024 0.000 0.523 0.836 0.047 0.024 0.000
23800 0.034 0.000 0.761 0.569 0.032 0.008 0.544 0.143 0.010 0.877 0.037 0.000 0.188 0.092 0.938 0.048 0.000 0.431 0.852 0.125 0.024 0.000
23900 0.034 0.000 0.678 0.586 0.000 0.057 0.759 0.143 0.000 0.798 0.093 0.000 0.141 0.062 0.938 0.048 0.000 0.352 0.875 0.094 0.049 0.000
24000 0.051 0.000 0.731 0.534 0.000 0.000 0.785 0.130 0.010 0.884 0.093 0.000 0.297 0.108 0.938 0.024 0.000 0.345 0.872 0.078 0.024 0.000
24100 0.051 0.000 0.724 0.483 0.000 0.000 0.494 0.149 0.000 0.881 0.037 0.000 0.016 0.231 0.875 0.119 0.000 0.378 0.839 0.031 0.000 0.000
24200 0.051 0.000 0.759 0.328 0.000 0.011 0.620 0.050 0.000 0.863 0.037 0.000 0.062 0.031 0.906 0.119 0.000 0.263 0.838 0.016 0.024 0.000
24300 0.051 0.000 0.769 0.466 0.000 0.000 0.684 0.106 0.000 0.884 0.037 0.000 0.078 0.123 0.844 0.000 0.000 0.250 0.847 0.047 0.000 0.000
24400 0.034 0.000 0.739 0.483 0.000 0.034 0.646 0.112 0.000 0.886 0.037 0.000 0.031 0.077 1.000 0.000 0.000 0.382 0.854 0.047 0.024 0.000
24500 0.034 0.000 0.705 0.483 0.000 0.000 0.772 0.124 0.000 0.847 0.037 0.000 0.156 0.062 1.000 0.024 0.000 0.464 0.877 0.047 0.049 0.000
24600 0.034 0.000 0.737 0.500 0.000 0.023 0.759 0.081 0.000 0.886 0.056 0.000 0.141 0.077 0.969 0.071 0.000 0.414 0.844 0.109 0.049 0.000
24700 0.051 0.000 0.786 0.586 0.032 0.004 0.810 0.099 0.000 0.877 0.074 0.000 0.172 0.046 0.906 0.000 0.000 0.447 0.850 0.141 0.049 0.000
24800 0.034 0.000 0.761 0.552 0.000 0.000 0.532 0.112 0.000 0.874 0.056 0.000 0.031 0.077 1.000 0.000 0.000 0.457 0.832 0.016 0.049 0.000
24900 0.034 0.000 0.742 0.552 0.000 0.098 0.658 0.149 0.000 0.756 0.074 0.000 0.219 0.154 0.969 0.095 0.000 0.332 0.880 0.109 0.049 0.000
25000 0.034 0.000 0.620 0.138 0.000 0.000 0.506 0.124 0.000 0.737 0.074 0.000 0.141 0.000 0.969 0.024 0.000 0.326 0.860 0.172 0.098 0.000
25100 0.034 0.000 0.690 0.672 0.000 0.004 0.646 0.106 0.000 0.886 0.093 0.000 0.062 0.062 0.844 0.048 0.000 0.457 0.854 0.125 0.049 0.000
25200 0.034 0.000 0.746 0.586 0.000 0.008 0.747 0.112 0.000 0.823 0.074 0.000 0.250 0.062 0.938 0.071 0.000 0.467 0.842 0.094 0.049 0.000
25300 0.051 0.000 0.724 0.431 0.000 0.030 0.785 0.099 0.000 0.879 0.093 0.000 0.109 0.077 0.906 0.095 0.000 0.339 0.867 0.062 0.049 0.000
25400 0.034 0.000 0.742 0.517 0.000 0.121 0.747 0.143 0.000 0.793 0.056 0.000 0.188 0.123 0.969 0.071 0.000 0.470 0.871 0.078 0.049 0.000
25500 0.034 0.000 0.746 0.448 0.000 0.000 0.747 0.161 0.000 0.828 0.111 0.000 0.125 0.077 0.844 0.071 0.000 0.447 0.866 0.125 0.049 0.000
25600 0.034 0.000 0.742 0.569 0.000 0.019 0.696 0.075 0.000 0.867 0.019 0.000 0.141 0.138 0.875 0.119 0.000 0.332 0.875 0.141 0.024 0.000
25700 0.051 0.000 0.744 0.552 0.000 0.362 0.848 0.050 0.010 0.600 0.093 0.000 0.219 0.062 0.969 0.071 0.000 0.549 0.831 0.156 0.024 0.000
25800 0.051 0.000 0.707 0.448 0.000 0.004 0.734 0.068 0.000 0.919 0.074 0.000 0.172 0.123 0.906 0.048 0.000 0.398 0.872 0.078 0.049 0.000
25900 0.051 0.000 0.754 0.483 0.000 0.004 0.810 0.137 0.031 0.881 0.130 0.000 0.234 0.092 0.875 0.048 0.000 0.303 0.859 0.062 0.024 0.000
26000 0.034 0.000 0.786 0.466 0.000 0.011 0.861 0.118 0.010 0.863 0.111 0.000 0.078 0.046 0.906 0.024 0.000 0.566 0.796 0.141 0.024 0.000
26100 0.034 0.000 0.726 0.517 0.000 0.000 0.747 0.093 0.000 0.912 0.111 0.000 0.172 0.123 0.938 0.119 0.000 0.559 0.856 0.031 0.024 0.000
26200 0.051 0.000 0.749 0.552 0.000 0.049 0.810 0.143 0.000 0.819 0.074 0.000 0.266 0.123 0.875 0.071 0.000 0.510 0.851 0.188 0.024 0.000
26300 0.034 0.000 0.771 0.586 0.000 0.019 0.848 0.093 0.010 0.891 0.056 0.000 0.047 0.077 0.938 0.095 0.000 0.602 0.799 0.109 0.024 0.000
26400 0.034 0.000 0.742 0.569 0.000 0.068 0.633 0.149 0.000 0.821 0.111 0.000 0.156 0.092 0.969 0.048 0.000 0.539 0.837 0.188 0.024 0.000
26500 0.034 0.000 0.749 0.448 0.000 0.011 0.595 0.019 0.010 0.912 0.037 0.000 0.281 0.046 0.906 0.048 0.000 0.599 0.808 0.047 0.024 0.000
26600 0.034 0.000 0.697 0.569 0.000 0.004 0.658 0.081 0.000 0.928 0.093 0.000 0.172 0.015 0.969 0.119 0.000 0.385 0.880 0.094 0.024 0.000
26700 0.034 0.000 0.697 0.586 0.000 0.026 0.785 0.137 0.010 0.853 0.093 0.000 0.094 0.123 0.969 0.119 0.000 0.434 0.870 0.109 0.024 0.000
26800 0.034 0.000 0.736 0.483 0.000 0.042 0.785 0.068 0.000 0.819 0.056 0.000 0.078 0.123 0.938 0.095 0.000 0.401 0.847 0.047 0.024 0.000
26900 0.017 0.000 0.773 0.552 0.000 0.064 0.772 0.043 0.031 0.879 0.056 0.000 0.109 0.015 0.906 0.024 0.000 0.365 0.850 0.109 0.024 0.000
27000 0.051 0.069 0.712 0.638 0.000 0.045 0.835 0.149 0.010 0.844 0.056 0.000 0.141 0.108 0.938 0.167 0.000 0.497 0.846 0.156 0.024 0.000
27100 0.034 0.000 0.756 0.466 0.032 0.000 0.658 0.087 0.010 0.926 0.093 0.000 0.125 0.046 0.969 0.048 0.000 0.562 0.810 0.109 0.024 0.000
27200 0.017 0.000 0.741 0.569 0.000 0.023 0.658 0.050 0.000 0.937 0.037 0.000 0.156 0.077 0.969 0.024 0.000 0.556 0.824 0.031 0.024 0.000
27300 0.034 0.000 0.631 0.500 0.000 0.004 0.380 0.075 0.000 0.835 0.056 0.000 0.203 0.031 0.938 0.024 0.000 0.474 0.860 0.078 0.024 0.000
27400 0.034 0.034 0.712 0.638 0.000 0.004 0.823 0.112 0.000 0.853 0.111 0.000 0.250 0.046 0.969 0.095 0.000 0.605 0.832 0.156 0.024 0.000
27500 0.034 0.000 0.758 0.569 0.000 0.000 0.747 0.043 0.021 0.930 0.056 0.000 0.156 0.046 0.969 0.119 0.000 0.444 0.838 0.031 0.024 0.000
27600 0.034 0.000 0.670 0.552 0.000 0.083 0.671 0.043 0.010 0.816 0.056 0.000 0.141 0.031 0.906 0.024 0.000 0.543 0.851 0.047 0.024 0.000
27700 0.051 0.000 0.719 0.517 0.000 0.049 0.696 0.075 0.000 0.902 0.056 0.000 0.094 0.015 0.938 0.024 0.000 0.401 0.862 0.094 0.024 0.000
27800 0.034 0.000 0.727 0.517 0.000 0.023 0.797 0.093 0.000 0.863 0.130 0.000 0.156 0.031 0.906 0.024 0.000 0.487 0.848 0.172 0.024 0.000
27900 0.034 0.000 0.731 0.431 0.000 0.008 0.734 0.075 0.000 0.928 0.074 0.000 0.156 0.046 0.969 0.024 0.000 0.398 0.854 0.094 0.024 0.000
28000 0.034 0.000 0.776 0.517 0.000 0.000 0.734 0.124 0.000 0.858 0.111 0.000 0.188 0.138 0.938 0.024 0.000 0.454 0.858 0.094 0.024 0.000
28100 0.034 0.000 0.766 0.517 0.000 0.053 0.785 0.093 0.000 0.847 0.093 0.000 0.141 0.092 0.938 0.048 0.000 0.421 0.868 0.047 0.024 0.000
28200 0.034 0.069 0.722 0.586 0.000 0.008 0.759 0.106 0.000 0.895 0.074 0.000 0.109 0.123 0.875 0.167 0.000 0.556 0.850 0.109 0.024 0.000
28300 0.034 0.000 0.763 0.672 0.000 0.004 0.582 0.056 0.000 0.912 0.130 0.000 0.125 0.062 0.969 0.095 0.000 0.507 0.830 0.078 0.024 0.000
28400 0.034 0.034 0.761 0.638 0.000 0.219 0.848 0.155 0.000 0.595 0.148 0.000 0.234 0.092 0.938 0.000 0.000 0.579 0.833 0.203 0.049 0.000
28500 0.017 0.000 0.709 0.431 0.032 0.000 0.873 0.031 0.000 0.930 0.037 0.000 0.125 0.015 0.969 0.071 0.000 0.477 0.822 0.062 0.024 0.000
28600 0.034 0.000 0.758 0.552 0.000 0.091 0.785 0.081 0.000 0.886 0.056 0.000 0.141 0.062 0.969 0.071 0.000 0.467 0.820 0.062 0.024 0.000
28700 0.034 0.000 0.717 0.603 0.000 0.045 0.747 0.093 0.000 0.888 0.111 0.000 0.219 0.123 0.906 0.119 0.000 0.372 0.860 0.094 0.049 0.000
28800 0.034 0.000 0.793 0.517 0.000 0.000 0.684 0.106 0.000 0.909 0.130 0.000 0.172 0.062 0.906 0.095 0.000 0.405 0.843 0.125 0.024 0.000
28900 0.034 0.000 0.773 0.397 0.000 0.004 0.835 0.081 0.010 0.853 0.074 0.000 0.234 0.108 0.938 0.048 0.000 0.539 0.837 0.109 0.024 0.000
29000 0.017 0.000 0.771 0.552 0.000 0.019 0.785 0.075 0.000 0.840 0.056 0.000 0.125 0.123 0.875 0.024 0.000 0.365 0.863 0.062 0.000 0.000
29100 0.034 0.000 0.781 0.534 0.032 0.026 0.671 0.068 0.000 0.905 0.074 0.000 0.156 0.031 0.938 0.119 0.000 0.470 0.816 0.078 0.024 0.000
29200 0.034 0.000 0.737 0.534 0.032 0.004 0.810 0.056 0.000 0.902 0.148 0.000 0.141 0.077 0.969 0.000 0.000 0.510 0.855 0.156 0.024 0.000
29300 0.034 0.034 0.700 0.500 0.000 0.026 0.709 0.087 0.010 0.905 0.167 0.000 0.250 0.138 0.906 0.095 0.000 0.474 0.870 0.141 0.024 0.000
29400 0.034 0.000 0.769 0.517 0.000 0.034 0.519 0.062 0.000 0.893 0.056 0.000 0.219 0.108 0.938 0.024 0.000 0.243 0.836 0.047 0.024 0.000
29500 0.034 0.034 0.756 0.534 0.000 0.019 0.671 0.037 0.000 0.937 0.056 0.000 0.062 0.046 0.844 0.071 0.000 0.438 0.836 0.062 0.024 0.000
29600 0.034 0.034 0.699 0.586 0.065 0.196 0.658 0.099 0.010 0.749 0.074 0.000 0.172 0.031 0.906 0.095 0.000 0.605 0.837 0.172 0.000 0.000
29700 0.034 0.034 0.773 0.500 0.000 0.000 0.835 0.155 0.010 0.881 0.111 0.000 0.219 0.077 0.875 0.095 0.000 0.214 0.874 0.156 0.024 0.000
29800 0.034 0.000 0.771 0.483 0.000 0.000 0.494 0.056 0.000 0.944 0.000 0.000 0.125 0.062 0.938 0.024 0.000 0.477 0.836 0.016 0.000 0.000
29900 0.034 0.000 0.788 0.552 0.032 0.011 0.835 0.093 0.000 0.930 0.037 0.000 0.188 0.200 0.938 0.119 0.000 0.497 0.816 0.062 0.024 0.000
30000 0.034 0.000 0.771 0.586 0.000 0.011 0.785 0.037 0.021 0.893 0.130 0.000 0.188 0.062 0.875 0.095 0.000 0.451 0.841 0.125 0.024 0.000
30100 0.034 0.000 0.756 0.569 0.032 0.000 0.696 0.037 0.000 0.953 0.074 0.000 0.234 0.077 0.969 0.024 0.000 0.234 0.865 0.031 0.024 0.000
30200 0.034 0.000 0.771 0.638 0.000 0.008 0.468 0.043 0.000 0.881 0.056 0.000 0.094 0.077 0.969 0.071 0.000 0.553 0.835 0.031 0.000 0.000
30300 0.051 0.000 0.803 0.500 0.000 0.015 0.797 0.112 0.000 0.858 0.111 0.000 0.234 0.031 0.938 0.071 0.000 0.507 0.852 0.172 0.024 0.000
30400 0.051 0.034 0.798 0.569 0.000 0.011 0.810 0.118 0.000 0.860 0.111 0.000 0.281 0.062 1.000 0.071 0.000 0.562 0.860 0.125 0.024 0.000
30500 0.034 0.034 0.747 0.569 0.000 0.004 0.797 0.087 0.000 0.933 0.056 0.000 0.266 0.123 0.969 0.048 0.000 0.503 0.858 0.125 0.024 0.000
30600 0.051 0.034 0.811 0.690 0.032 0.019 0.684 0.068 0.000 0.888 0.093 0.000 0.250 0.138 0.906 0.071 0.000 0.622 0.803 0.156 0.024 0.000
30700 0.034 0.000 0.758 0.586 0.032 0.068 0.785 0.099 0.010 0.905 0.111 0.000 0.281 0.077 0.938 0.071 0.000 0.516 0.828 0.109 0.024 0.000
30800 0.034 0.069 0.786 0.517 0.032 0.004 0.646 0.037 0.000 0.923 0.093 0.000 0.172 0.015 0.938 0.048 0.000 0.372 0.848 0.031 0.024 0.000
30900 0.034 0.069 0.779 0.534 0.000 0.008 0.709 0.106 0.000 0.886 0.056 0.000 0.094 0.031 0.844 0.095 0.000 0.562 0.832 0.062 0.024 0.000
31000 0.017 0.034 0.746 0.483 0.000 0.004 0.797 0.130 0.010 0.898 0.111 0.000 0.203 0.031 0.906 0.048 0.000 0.418 0.863 0.078 0.024 0.000
31100 0.017 0.034 0.781 0.448 0.000 0.000 0.797 0.124 0.000 0.930 0.056 0.000 0.297 0.077 0.938 0.095 0.000 0.566 0.834 0.094 0.024 0.000
31200 0.051 0.034 0.766 0.603 0.000 0.019 0.797 0.199 0.010 0.895 0.093 0.000 0.219 0.000 0.844 0.119 0.000 0.500 0.856 0.094 0.000 0.000
31300 0.034 0.000 0.726 0.603 0.000 0.000 0.772 0.236 0.000 0.888 0.130 0.000 0.266 0.123 0.875 0.143 0.000 0.520 0.850 0.062 0.000 0.000
31400 0.034 0.034 0.729 0.569 0.000 0.004 0.696 0.068 0.010 0.926 0.074 0.000 0.219 0.062 0.938 0.119 0.000 0.586 0.830 0.109 0.024 0.000
31500 0.034 0.000 0.692 0.483 0.000 0.358 0.797 0.112 0.000 0.665 0.130 0.000 0.234 0.108 0.906 0.048 0.000 0.276 0.875 0.094 0.024 0.000
31600 0.034 0.000 0.724 0.534 0.032 0.189 0.582 0.174 0.000 0.747 0.093 0.000 0.234 0.092 0.938 0.143 0.000 0.451 0.860 0.031 0.000 0.000
31700 0.034 0.000 0.759 0.483 0.000 0.068 0.797 0.093 0.000 0.900 0.056 0.000 0.172 0.077 0.938 0.119 0.000 0.539 0.834 0.094 0.024 0.000
31800 0.068 0.000 0.722 0.552 0.000 0.008 0.861 0.118 0.010 0.909 0.093 0.000 0.203 0.138 0.906 0.000 0.000 0.438 0.862 0.172 0.000 0.000
31900 0.051 0.069 0.758 0.603 0.000 0.004 0.810 0.168 0.000 0.902 0.130 0.000 0.281 0.062 0.938 0.119 0.000 0.299 0.866 0.109 0.024 0.000
32000 0.051 0.000 0.798 0.569 0.032 0.079 0.519 0.099 0.000 0.835 0.019 0.000 0.250 0.077 0.906 0.071 0.000 0.553 0.844 0.078 0.024 0.000
32100 0.034 0.000 0.704 0.569 0.000 0.034 0.722 0.112 0.010 0.863 0.093 0.000 0.156 0.108 0.938 0.095 0.000 0.493 0.883 0.062 0.024 0.000
32200 0.034 0.000 0.768 0.431 0.000 0.011 0.785 0.056 0.010 0.907 0.056 0.000 0.141 0.185 0.750 0.071 0.000 0.438 0.826 0.031 0.000 0.000
32300 0.034 0.000 0.758 0.517 0.000 0.042 0.835 0.106 0.000 0.905 0.130 0.000 0.234 0.231 0.938 0.095 0.000 0.339 0.859 0.172 0.000 0.000
32400 0.034 0.069 0.739 0.586 0.000 0.102 0.785 0.081 0.000 0.802 0.074 0.000 0.203 0.123 0.875 0.119 0.000 0.599 0.860 0.078 0.024 0.000
32500 0.034 0.034 0.744 0.569 0.000 0.026 0.835 0.112 0.021 0.840 0.093 0.000 0.172 0.138 1.000 0.095 0.000 0.530 0.834 0.188 0.024 0.000
32600 0.034 0.034 0.796 0.534 0.000 0.011 0.810 0.118 0.000 0.912 0.074 0.000 0.203 0.062 0.875 0.119 0.000 0.349 0.843 0.078 0.024 0.000
32700 0.034 0.000 0.776 0.500 0.000 0.079 0.684 0.093 0.000 0.849 0.056 0.000 0.078 0.154 0.938 0.143 0.000 0.526 0.828 0.016 0.024 0.000
32800 0.034 0.000 0.741 0.672 0.032 0.000 0.785 0.149 0.000 0.912 0.074 0.000 0.172 0.138 0.938 0.167 0.000 0.592 0.823 0.047 0.024 0.000
32900 0.034 0.000 0.658 0.655 0.000 0.053 0.759 0.124 0.000 0.877 0.093 0.000 0.188 0.077 0.906 0.190 0.000 0.484 0.884 0.141 0.024 0.000
33000 0.034 0.000 0.798 0.586 0.000 0.053 0.797 0.124 0.010 0.828 0.130 0.000 0.172 0.138 0.844 0.119 0.000 0.510 0.844 0.125 0.024 0.000
33100 0.034 0.000 0.764 0.552 0.000 0.091 0.810 0.143 0.000 0.747 0.148 0.000 0.188 0.200 0.844 0.095 0.000 0.539 0.856 0.156 0.024 0.000
33200 0.034 0.034 0.734 0.569 0.000 0.026 0.747 0.037 0.000 0.926 0.037 0.000 0.203 0.046 0.938 0.095 0.000 0.470 0.834 0.109 0.024 0.000
33300 0.034 0.034 0.705 0.621 0.000 0.125 0.709 0.149 0.000 0.763 0.056 0.000 0.156 0.046 0.906 0.095 0.000 0.408 0.879 0.172 0.024 0.000
33400 0.034 0.000 0.747 0.586 0.000 0.000 0.785 0.161 0.000 0.872 0.130 0.000 0.297 0.062 0.969 0.048 0.000 0.562 0.850 0.125 0.024 0.000
33500 0.034 0.000 0.758 0.569 0.000 0.026 0.759 0.099 0.000 0.928 0.056 0.000 0.141 0.062 0.969 0.095 0.000 0.559 0.856 0.078 0.000 0.000
33600 0.051 0.000 0.734 0.638 0.097 0.030 0.734 0.137 0.010 0.895 0.056 0.000 0.281 0.015 0.969 0.095 0.000 0.355 0.886 0.141 0.024 0.000
33700 0.034 0.000 0.806 0.552 0.000 0.015 0.759 0.068 0.000 0.930 0.130 0.000 0.250 0.077 1.000 0.095 0.000 0.546 0.837 0.125 0.024 0.000
33800 0.034 0.000 0.758 0.534 0.000 0.000 0.899 0.193 0.000 0.888 0.093 0.000 0.203 0.077 0.969 0.119 0.000 0.414 0.838 0.125 0.024 0.000
33900 0.034 0.069 0.764 0.603 0.000 0.004 0.823 0.075 0.021 0.909 0.167 0.000 0.188 0.031 0.938 0.119 0.000 0.493 0.854 0.109 0.024 0.000
34000 0.034 0.000 0.776 0.655 0.032 0.128 0.797 0.124 0.000 0.814 0.056 0.000 0.172 0.031 0.875 0.143 0.000 0.414 0.847 0.109 0.024 0.000
34100 0.034 0.034 0.818 0.569 0.000 0.000 0.823 0.130 0.000 0.870 0.111 0.000 0.297 0.046 0.969 0.119 0.000 0.530 0.816 0.141 0.024 0.000
34200 0.034 0.103 0.779 0.603 0.000 0.023 0.861 0.099 0.010 0.872 0.056 0.000 0.250 0.062 0.969 0.119 0.000 0.625 0.817 0.109 0.000 0.000
34300 0.017 0.000 0.753 0.414 0.032 0.034 0.481 0.043 0.000 0.853 0.037 0.000 0.203 0.246 0.906 0.167 0.000 0.286 0.848 0.016 0.000 0.000
34400 0.017 0.034 0.769 0.569 0.000 0.026 0.734 0.025 0.010 0.912 0.093 0.000 0.109 0.046 0.906 0.143 0.000 0.576 0.802 0.062 0.024 0.000
34500 0.034 0.000 0.764 0.534 0.000 0.034 0.722 0.112 0.000 0.872 0.093 0.000 0.328 0.092 0.969 0.095 0.000 0.470 0.843 0.141 0.000 0.000
34600 0.034 0.000 0.753 0.552 0.000 0.128 0.608 0.081 0.010 0.802 0.056 0.000 0.188 0.046 0.938 0.095 0.000 0.322 0.845 0.078 0.024 0.000
34700 0.034 0.000 0.800 0.534 0.000 0.000 0.722 0.118 0.000 0.900 0.056 0.036 0.250 0.046 0.844 0.071 0.000 0.345 0.854 0.078 0.000 0.000
34800 0.034 0.000 0.795 0.534 0.000 0.030 0.772 0.043 0.010 0.937 0.037 0.000 0.109 0.092 0.938 0.071 0.000 0.497 0.840 0.094 0.000 0.000
34900 0.051 0.034 0.756 0.569 0.000 0.004 0.658 0.106 0.010 0.874 0.056 0.000 0.234 0.062 0.938 0.071 0.000 0.602 0.858 0.078 0.024 0.000
35000 0.034 0.034 0.719 0.586 0.000 0.011 0.367 0.106 0.010 0.926 0.093 0.000 0.219 0.092 0.969 0.095 0.000 0.398 0.874 0.078 0.000 0.000
35100 0.034 0.069 0.741 0.569 0.065 0.004 0.810 0.118 0.021 0.860 0.111 0.000 0.281 0.046 0.969 0.095 0.000 0.618 0.858 0.109 0.049 0.000
35200 0.034 0.034 0.739 0.621 0.032 0.381 0.722 0.081 0.021 0.572 0.111 0.000 0.234 0.154 0.938 0.119 0.000 0.592 0.856 0.094 0.000 0.000
35300 0.034 0.034 0.712 0.638 0.032 0.008 0.658 0.062 0.010 0.888 0.111 0.000 0.234 0.077 0.906 0.143 0.000 0.493 0.874 0.078 0.000 0.000
35400 0.051 0.069 0.764 0.534 0.000 0.008 0.684 0.106 0.000 0.830 0.056 0.000 0.234 0.062 0.844 0.119 0.000 0.503 0.852 0.156 0.024 0.000
35500 0.034 0.034 0.744 0.345 0.000 0.004 0.392 0.037 0.021 0.828 0.037 0.000 0.141 0.015 0.906 0.095 0.000 0.398 0.744 0.141 0.000 0.000
35600 0.034 0.034 0.790 0.569 0.032 0.023 0.747 0.068 0.010 0.863 0.093 0.000 0.219 0.108 0.938 0.095 0.000 0.454 0.840 0.016 0.024 0.000
35700 0.051 0.034 0.816 0.517 0.000 0.004 0.747 0.099 0.021 0.800 0.074 0.000 0.312 0.062 0.781 0.214 0.000 0.424 0.859 0.156 0.049 0.000
35800 0.034 0.069 0.724 0.500 0.000 0.106 0.810 0.186 0.010 0.830 0.111 0.000 0.188 0.123 0.812 0.143 0.000 0.678 0.828 0.188 0.024 0.000
35900 0.034 0.034 0.753 0.638 0.032 0.068 0.810 0.075 0.000 0.835 0.093 0.000 0.219 0.092 0.969 0.143 0.000 0.520 0.864 0.094 0.000 0.000
36000 0.034 0.000 0.791 0.569 0.032 0.000 0.722 0.106 0.010 0.951 0.074 0.000 0.234 0.123 1.000 0.071 0.000 0.470 0.819 0.062 0.000 0.000
36100 0.034 0.000 0.704 0.621 0.032 0.000 0.797 0.093 0.000 0.916 0.074 0.000 0.312 0.108 0.969 0.119 0.000 0.569 0.858 0.094 0.024 0.000
36200 0.034 0.034 0.766 0.621 0.000 0.079 0.734 0.143 0.000 0.858 0.130 0.000 0.266 0.123 0.906 0.095 0.000 0.470 0.854 0.156 0.000 0.000
36300 0.034 0.034 0.778 0.517 0.000 0.000 0.785 0.093 0.000 0.935 0.093 0.000 0.250 0.108 0.906 0.143 0.000 0.500 0.849 0.109 0.000 0.000
36400 0.034 0.034 0.791 0.621 0.032 0.019 0.747 0.124 0.010 0.928 0.130 0.000 0.250 0.062 0.906 0.071 0.000 0.546 0.835 0.156 0.000 0.000
36500 0.034 0.069 0.776 0.638 0.032 0.011 0.696 0.093 0.000 0.923 0.093 0.000 0.234 0.092 0.906 0.143 0.000 0.579 0.842 0.203 0.024 0.000
36600 0.034 0.034 0.729 0.655 0.000 0.008 0.785 0.081 0.010 0.937 0.074 0.000 0.266 0.077 0.938 0.119 0.000 0.408 0.852 0.125 0.000 0.000
36700 0.034 0.034 0.801 0.534 0.000 0.000 0.633 0.043 0.000 0.923 0.037 0.000 0.141 0.062 0.969 0.119 0.000 0.477 0.818 0.047 0.000 0.000
36800 0.034 0.069 0.665 0.621 0.000 0.008 0.835 0.075 0.010 0.902 0.093 0.000 0.234 0.046 0.781 0.095 0.000 0.461 0.864 0.109 0.024 0.000
36900 0.034 0.069 0.808 0.586 0.000 0.011 0.823 0.174 0.010 0.837 0.093 0.000 0.234 0.031 0.812 0.119 0.013 0.474 0.821 0.250 0.024 0.000
37000 0.034 0.000 0.766 0.431 0.000 0.038 0.582 0.093 0.000 0.909 0.056 0.000 0.219 0.108 0.875 0.143 0.000 0.477 0.813 0.016 0.000 0.000
37100 0.017 0.000 0.623 0.172 0.000 0.000 0.165 0.006 0.000 0.844 0.000 0.000 0.047 0.046 0.875 0.071 0.000 0.224 0.735 0.000 0.000 0.000
37200 0.034 0.034 0.732 0.655 0.000 0.015 0.835 0.137 0.000 0.874 0.093 0.000 0.203 0.108 0.938 0.119 0.000 0.401 0.865 0.109 0.024 0.000
37300 0.034 0.034 0.652 0.690 0.065 0.053 0.810 0.050 0.000 0.867 0.093 0.000 0.156 0.046 0.969 0.095 0.000 0.480 0.855 0.016 0.049 0.000
37400 0.051 0.034 0.763 0.569 0.032 0.053 0.823 0.186 0.010 0.821 0.093 0.000 0.297 0.046 0.906 0.071 0.000 0.362 0.858 0.156 0.073 0.000
37500 0.034 0.034 0.652 0.603 0.000 0.019 0.734 0.093 0.010 0.858 0.093 0.000 0.266 0.046 0.938 0.095 0.000 0.569 0.859 0.109 0.024 0.000
37600 0.034 0.034 0.759 0.534 0.000 0.004 0.570 0.137 0.010 0.940 0.074 0.000 0.250 0.092 0.969 0.095 0.000 0.451 0.856 0.094 0.000 0.000
37700 0.034 0.034 0.790 0.638 0.000 0.170 0.759 0.081 0.010 0.800 0.130 0.000 0.219 0.138 0.906 0.095 0.000 0.411 0.858 0.141 0.024 0.000
37800 0.034 0.000 0.766 0.655 0.000 0.162 0.696 0.205 0.010 0.695 0.111 0.000 0.203 0.077 0.938 0.024 0.000 0.451 0.834 0.250 0.024 0.000
37900 0.034 0.034 0.766 0.603 0.000 0.000 0.709 0.193 0.010 0.914 0.111 0.000 0.250 0.092 0.938 0.119 0.000 0.408 0.873 0.156 0.024 0.000
38000 0.034 0.034 0.739 0.638 0.032 0.000 0.544 0.130 0.000 0.919 0.074 0.000 0.172 0.185 0.969 0.095 0.000 0.447 0.856 0.172 0.000 0.000
38100 0.017 0.034 0.763 0.448 0.000 0.279 0.620 0.056 0.010 0.667 0.111 0.000 0.156 0.015 0.906 0.095 0.000 0.507 0.843 0.156 0.049 0.000
38200 0.034 0.034 0.695 0.621 0.097 0.060 0.722 0.143 0.010 0.830 0.111 0.000 0.188 0.077 1.000 0.167 0.000 0.645 0.830 0.203 0.024 0.000
38300 0.034 0.000 0.773 0.603 0.000 0.192 0.646 0.062 0.010 0.781 0.111 0.000 0.203 0.108 0.781 0.095 0.000 0.457 0.853 0.125 0.000 0.000
38400 0.034 0.034 0.756 0.638 0.065 0.079 0.797 0.118 0.010 0.851 0.111 0.000 0.188 0.108 0.906 0.167 0.000 0.464 0.860 0.188 0.049 0.000
38500 0.034 0.034 0.800 0.690 0.065 0.000 0.772 0.143 0.010 0.912 0.130 0.000 0.219 0.108 0.938 0.143 0.000 0.497 0.827 0.156 0.024 0.000
38600 0.017 0.000 0.758 0.552 0.032 0.023 0.696 0.050 0.010 0.909 0.074 0.000 0.203 0.108 0.906 0.143 0.000 0.513 0.846 0.078 0.024 0.000
38700 0.017 0.034 0.715 0.638 0.161 0.011 0.722 0.099 0.000 0.898 0.074 0.000 0.203 0.015 0.969 0.095 0.000 0.457 0.878 0.109 0.024 0.000
38800 0.034 0.000 0.734 0.655 0.032 0.008 0.861 0.106 0.010 0.914 0.074 0.000 0.219 0.031 0.969 0.095 0.000 0.533 0.852 0.203 0.024 0.000
38900 0.017 0.000 0.741 0.603 0.000 0.008 0.759 0.143 0.010 0.893 0.074 0.000 0.188 0.169 0.969 0.119 0.000 0.609 0.824 0.125 0.024 0.000
39000 0.017 0.034 0.741 0.414 0.000 0.000 0.519 0.037 0.000 0.916 0.037 0.000 0.234 0.108 0.906 0.119 0.000 0.395 0.806 0.047 0.024 0.000
39100 0.017 0.034 0.744 0.431 0.000 0.049 0.633 0.043 0.000 0.909 0.093 0.000 0.094 0.092 0.906 0.143 0.000 0.533 0.831 0.031 0.000 0.000
39200 0.034 0.000 0.749 0.569 0.032 0.000 0.823 0.081 0.010 0.930 0.130 0.000 0.219 0.077 0.938 0.095 0.000 0.464 0.848 0.188 0.024 0.000
39300 0.034 0.069 0.736 0.569 0.000 0.106 0.848 0.168 0.010 0.798 0.074 0.000 0.203 0.062 0.969 0.167 0.000 0.546 0.858 0.297 0.024 0.000
39400 0.017 0.034 0.751 0.655 0.000 0.102 0.797 0.056 0.010 0.865 0.111 0.000 0.156 0.108 0.875 0.143 0.000 0.546 0.838 0.078 0.024 0.000
39500 0.017 0.069 0.785 0.638 0.000 0.026 0.835 0.093 0.010 0.912 0.130 0.000 0.234 0.092 0.938 0.167 0.000 0.510 0.818 0.109 0.024 0.000
39600 0.034 0.034 0.766 0.638 0.000 0.000 0.734 0.124 0.010 0.895 0.130 0.000 0.281 0.138 0.906 0.143 0.000 0.365 0.870 0.141 0.024 0.000
39700 0.034 0.069 0.699 0.655 0.000 0.023 0.848 0.106 0.010 0.877 0.074 0.000 0.266 0.108 0.938 0.095 0.000 0.421 0.880 0.188 0.049 0.000
39800 0.017 0.069 0.774 0.569 0.000 0.091 0.747 0.112 0.000 0.863 0.148 0.000 0.281 0.077 0.906 0.095 0.000 0.474 0.841 0.234 0.049 0.000
39900 0.034 0.034 0.685 0.707 0.000 0.023 0.709 0.236 0.021 0.853 0.093 0.000 0.328 0.108 0.938 0.095 0.000 0.470 0.857 0.219 0.000 0.000
40000 0.034 0.000 0.771 0.621 0.000 0.004 0.633 0.093 0.000 0.919 0.056 0.000 0.125 0.200 0.938 0.119 0.000 0.401 0.836 0.047 0.000 0.000
40100 0.000 0.034 0.779 0.603 0.000 0.140 0.709 0.087 0.000 0.835 0.056 0.000 0.188 0.215 0.906 0.119 0.000 0.632 0.819 0.094 0.024 0.000
40200 0.068 0.034 0.786 0.569 0.000 0.192 0.759 0.087 0.000 0.793 0.130 0.000 0.281 0.108 0.906 0.214 0.000 0.431 0.843 0.281 0.024 0.000
40300 0.034 0.000 0.759 0.603 0.000 0.042 0.861 0.106 0.000 0.912 0.111 0.000 0.203 0.031 0.969 0.071 0.000 0.408 0.851 0.125 0.000 0.000
40400 0.017 0.000 0.640 0.448 0.000 0.004 0.494 0.050 0.000 0.898 0.037 0.000 0.172 0.169 0.938 0.214 0.000 0.414 0.842 0.031 0.000 0.000
40500 0.034 0.000 0.729 0.483 0.000 0.098 0.570 0.068 0.000 0.886 0.130 0.036 0.172 0.077 0.906 0.071 0.000 0.260 0.828 0.031 0.024 0.000
40600 0.051 0.000 0.734 0.362 0.000 0.008 0.532 0.031 0.000 0.926 0.056 0.000 0.047 0.062 0.969 0.048 0.000 0.461 0.780 0.016 0.000 0.000
40700 0.034 0.069 0.788 0.672 0.000 0.015 0.608 0.143 0.000 0.902 0.148 0.000 0.172 0.154 0.938 0.095 0.000 0.599 0.839 0.094 0.049 0.000
40800 0.034 0.000 0.810 0.603 0.032 0.000 0.886 0.143 0.010 0.872 0.148 0.000 0.188 0.200 0.844 0.167 0.000 0.487 0.805 0.125 0.024 0.000
40900 0.034 0.034 0.761 0.586 0.000 0.019 0.722 0.087 0.000 0.884 0.093 0.000 0.344 0.154 0.969 0.095 0.000 0.336 0.888 0.172 0.024 0.000
41000 0.034 0.034 0.719 0.483 0.000 0.026 0.671 0.050 0.000 0.893 0.074 0.000 0.141 0.138 0.875 0.190 0.000 0.477 0.857 0.016 0.024 0.000
41100 0.034 0.000 0.675 0.672 0.000 0.011 0.785 0.062 0.000 0.937 0.056 0.000 0.203 0.092 0.969 0.214 0.000 0.523 0.870 0.109 0.024 0.000
41200 0.034 0.000 0.786 0.500 0.000 0.004 0.671 0.081 0.000 0.898 0.111 0.000 0.219 0.185 0.969 0.071 0.000 0.487 0.826 0.078 0.024 0.000
41300 0.034 0.034 0.773 0.621 0.000 0.030 0.747 0.118 0.000 0.905 0.148 0.000 0.188 0.123 0.969 0.167 0.000 0.612 0.823 0.062 0.024 0.000
41400 0.034 0.103 0.763 0.672 0.000 0.004 0.823 0.155 0.000 0.905 0.130 0.000 0.203 0.077 1.000 0.071 0.000 0.398 0.870 0.188 0.024 0.000
41500 0.034 0.034 0.746 0.517 0.000 0.008 0.785 0.124 0.000 0.909 0.056 0.000 0.234 0.138 0.969 0.119 0.000 0.516 0.836 0.016 0.024 0.000
41600 0.034 0.034 0.771 0.655 0.000 0.057 0.823 0.081 0.010 0.884 0.148 0.000 0.297 0.031 0.969 0.143 0.000 0.539 0.828 0.141 0.024 0.000
41700 0.034 0.034 0.737 0.603 0.000 0.026 0.797 0.093 0.000 0.900 0.093 0.000 0.281 0.092 0.875 0.143 0.000 0.632 0.837 0.109 0.024 0.000
41800 0.000 0.034 0.663 0.603 0.000 0.075 0.519 0.106 0.010 0.853 0.074 0.000 0.297 0.077 0.938 0.024 0.000 0.477 0.827 0.047 0.000 0.000
41900 0.034 0.000 0.803 0.483 0.000 0.000 0.722 0.099 0.010 0.907 0.056 0.000 0.297 0.108 0.969 0.048 0.000 0.553 0.812 0.094 0.024 0.000
42000 0.017 0.034 0.764 0.517 0.000 0.000 0.772 0.106 0.010 0.937 0.130 0.000 0.266 0.108 0.906 0.095 0.000 0.414 0.847 0.125 0.024 0.000
42100 0.000 0.034 0.665 0.414 0.032 0.000 0.316 0.031 0.000 0.956 0.074 0.000 0.094 0.031 0.938 0.190 0.000 0.431 0.794 0.062 0.024 0.000
42200 0.017 0.034 0.689 0.552 0.032 0.011 0.722 0.056 0.000 0.914 0.111 0.000 0.172 0.077 0.812 0.095 0.000 0.434 0.862 0.078 0.024 0.000
42300 0.034 0.034 0.710 0.569 0.000 0.019 0.797 0.050 0.000 0.858 0.074 0.000 0.188 0.154 0.969 0.000 0.000 0.263 0.854 0.094 0.000 0.000
42400 0.034 0.000 0.751 0.414 0.032 0.038 0.241 0.062 0.000 0.833 0.056 0.000 0.094 0.092 0.906 0.048 0.000 0.168 0.818 0.016 0.024 0.000
42500 0.034 0.000 0.758 0.707 0.000 0.026 0.734 0.161 0.000 0.874 0.130 0.000 0.234 0.046 0.969 0.095 0.000 0.510 0.832 0.125 0.024 0.000
42600 0.034 0.034 0.753 0.603 0.000 0.019 0.772 0.180 0.010 0.821 0.148 0.000 0.172 0.046 0.906 0.071 0.000 0.579 0.822 0.344 0.024 0.000
42700 0.034 0.034 0.739 0.638 0.032 0.008 0.747 0.075 0.000 0.898 0.167 0.000 0.281 0.092 0.906 0.167 0.000 0.668 0.838 0.094 0.024 0.000
