100 0.000 0.000 0.000 0.000 0.000 0.000 0.000 0.000 0.000 0.000 0.000 0.000 0.000 0.000 0.000 0.000 0.000 0.000 0.371 0.000 0.000 0.000
200 0.000 0.000 0.000 0.000 0.000 0.000 0.000 0.000 0.000 0.000 0.000 0.000 0.000 0.000 0.000 0.000 0.000 0.000 0.371 0.000 0.000 0.000
300 0.000 0.000 0.000 0.000 0.000 0.000 0.000 0.000 0.000 0.000 0.000 0.000 0.000 0.000 0.052 0.000 0.000 0.000 0.371 0.000 0.000 0.000
400 0.000 0.000 0.048 0.000 0.000 0.000 0.000 0.000 0.000 0.667 0.000 0.000 0.000 0.000 0.133 0.000 0.000 0.000 0.374 0.000 0.000 0.000
500 0.000 0.000 0.000 0.000 0.000 0.000 0.000 0.000 0.000 0.000 0.000 0.000 0.000 0.000 0.076 0.000 0.000 0.000 0.373 0.000 0.000 0.000
600 0.000 0.000 0.000 0.000 0.000 0.000 0.000 0.000 0.000 0.000 0.000 0.000 0.000 0.000 0.060 0.000 0.000 0.000 0.374 0.000 0.000 0.000
700 0.000 0.000 0.000 0.000 0.000 0.000 0.000 0.000 0.000 0.000 0.000 0.000 0.000 0.000 0.075 0.000 0.000 0.000 0.374 0.000 0.000 0.000
800 0.000 0.000 0.333 0.000 0.000 0.000 0.000 0.000 0.000 0.000 0.000 0.000 0.000 0.000 0.167 0.000 0.000 0.000 0.373 0.000 0.000 0.000
900 0.000 0.000 0.000 0.000 0.000 0.000 0.000 0.000 0.000 0.000 0.000 0.000 0.000 0.000 0.000 0.000 0.000 0.000 0.372 0.000 0.000 0.000
1000 0.000 0.000 0.000 0.000 0.000 0.000 0.000 0.000 0.000 0.000 0.000 0.000 0.000 0.000 0.095 0.000 0.000 0.000 0.373 0.000 0.000 0.000
1100 0.000 0.000 0.300 0.000 0.000 0.000 0.000 0.000 0.000 0.000 0.000 0.000 0.000 0.000 0.160 0.000 0.000 0.000 0.373 0.000 0.000 0.000
1200 0.000 0.000 0.400 0.000 0.000 0.000 0.000 0.000 0.000 0.000 0.000 0.000 0.000 0.000 0.182 0.000 0.000 0.000 0.373 0.000 0.000 0.000
1300 0.000 0.000 0.429 0.000 0.000 0.000 0.000 0.000 0.000 0.000 0.000 0.000 0.000 0.000 0.167 0.000 0.000 0.000 0.373 0.000 0.000 0.000
1400 0.000 0.000 0.295 0.000 0.000 0.000 0.000 0.000 0.000 0.000 0.000 0.000 0.000 0.000 0.360 0.000 0.000 0.000 0.382 0.000 0.000 0.000
1500 0.000 0.000 0.000 0.000 0.000 0.000 0.000 0.000 0.000 0.237 0.000 0.000 0.000 0.000 0.294 0.000 0.000 0.000 0.383 0.000 0.000 0.000
1600 0.000 0.000 0.000 0.000 0.000 0.000 0.000 0.000 0.000 0.000 0.000 0.000 0.000 0.000 0.208 0.000 0.000 0.000 0.374 0.000 0.000 0.000
1700 0.000 0.000 0.240 0.000 0.000 0.000 0.000 0.000 0.000 0.000 0.000 0.000 0.000 0.000 0.128 0.000 0.000 0.000 0.383 0.000 0.500 0.000
1800 0.750 0.000 0.360 0.000 0.000 0.000 0.000 0.000 0.000 0.209 0.000 0.000 0.000 0.000 0.545 0.000 0.000 0.000 0.403 0.429 0.000 0.000
1900 1.000 0.000 0.329 0.000 0.000 0.000 0.000 0.333 0.000 0.226 0.000 0.000 0.000 0.000 0.162 0.000 0.000 0.000 0.400 0.000 0.167 0.000
2000 0.000 0.000 0.194 0.000 0.000 0.000 0.000 1.000 0.000 0.189 0.000 0.000 0.000 0.000 0.320 0.000 0.000 0.000 0.400 0.500 0.250 0.000
2100 1.000 0.000 0.385 0.000 0.000 0.000 0.000 1.000 0.000 0.237 0.000 0.000 0.000 0.000 0.476 0.000 0.000 0.000 0.400 0.588 0.000 0.000
2200 1.000 0.000 0.286 0.000 0.000 0.000 0.000 1.000 0.000 0.343 0.000 0.000 0.000 0.000 0.316 0.000 0.000 0.000 0.380 0.543 0.000 0.000
2300 0.000 0.000 0.201 0.000 0.000 0.000 0.000 0.842 0.000 0.000 0.000 0.000 0.000 0.000 0.429 0.000 0.000 0.000 0.390 0.579 0.250 0.000
2400 1.000 0.000 0.309 0.000 0.000 0.000 0.000 1.000 0.000 1.000 0.000 0.000 0.000 0.000 0.126 0.000 0.000 0.000 0.397 0.304 0.269 0.000
2500 0.455 0.000 0.225 0.000 0.000 0.568 0.000 0.800 0.000 0.000 0.000 0.000 0.000 0.000 0.409 0.000 0.000 0.000 0.409 0.429 0.500 0.000
2600 1.000 0.000 0.179 0.000 0.000 0.000 0.000 0.425 0.000 0.333 0.000 0.000 0.000 0.000 0.296 0.000 0.000 0.000 0.384 0.440 0.000 0.000
2700 0.385 0.000 0.223 0.375 0.000 0.466 0.000 0.477 0.000 0.000 0.167 0.000 0.000 0.000 0.195 0.000 0.000 0.000 0.439 0.242 0.250 0.000
2800 1.000 0.000 0.227 0.143 0.000 1.000 0.000 0.875 0.000 0.000 0.000 0.000 0.000 0.000 0.300 0.000 0.000 0.000 0.413 0.455 0.500 0.000
2900 0.750 0.000 0.389 0.240 0.077 0.596 0.000 0.362 0.000 0.000 0.000 0.000 0.000 0.000 0.480 0.000 0.000 0.000 0.400 0.545 0.000 0.000
3000 0.625 0.000 0.248 0.240 0.159 0.622 0.000 0.630 0.000 1.000 0.000 0.000 0.000 0.000 0.688 0.000 0.000 0.000 0.420 0.560 0.333 0.000
3100 0.571 0.000 0.228 0.184 0.167 0.634 0.000 0.688 0.000 0.500 0.000 0.000 0.000 0.000 0.308 0.000 0.000 0.000 0.442 0.519 0.500 0.000
3200 0.800 0.000 0.389 0.500 0.167 0.667 0.000 0.690 0.000 0.250 0.148 0.000 0.000 0.000 0.500 0.000 0.000 0.000 0.404 0.389 0.000 0.000
3300 0.800 0.000 0.230 0.625 0.200 0.644 0.308 0.667 0.000 0.600 0.000 0.000 0.000 0.000 0.600 0.000 0.000 0.000 0.447 0.315 0.000 0.000
3400 0.667 0.000 0.300 0.333 0.000 0.575 0.421 0.636 0.000 1.000 0.800 0.000 0.000 0.000 0.360 0.000 0.000 0.000 0.403 0.386 0.000 0.000
3500 0.545 0.000 0.266 1.000 0.000 0.551 0.615 0.741 0.000 0.727 1.000 0.000 0.000 0.000 0.636 0.000 0.000 0.000 0.436 0.423 0.000 0.000
3600 0.600 0.000 0.278 0.500 0.333 0.617 0.444 0.733 0.000 0.333 1.000 0.000 0.000 0.000 0.538 0.000 0.000 0.000 0.426 0.500 0.000 0.000
3700 0.333 0.000 0.268 0.467 0.000 0.548 0.562 0.727 0.000 0.474 0.625 0.000 0.000 0.000 0.688 0.000 0.000 0.000 0.440 0.528 0.000 0.000
3800 0.545 0.000 0.434 0.500 0.000 0.556 0.636 0.621 0.000 0.611 0.556 0.000 0.000 0.000 0.500 0.000 0.000 0.000 0.417 0.556 0.000 0.000
3900 0.500 0.000 0.302 0.800 0.167 0.544 0.490 0.585 0.000 0.470 0.526 0.000 0.000 0.000 0.295 0.000 0.000 0.000 0.448 0.403 0.000 0.000
4000 0.714 0.000 0.307 0.500 0.455 0.613 0.640 0.944 0.000 0.462 0.600 0.000 0.000 0.000 0.560 0.000 0.000 0.000 0.427 0.368 0.182 0.000
4100 0.750 0.000 0.423 0.300 0.308 0.637 0.467 0.909 0.000 0.646 0.000 0.000 0.000 0.000 0.500 0.000 0.000 0.000 0.423 0.545 0.000 0.000
4200 0.833 0.000 0.406 0.414 0.162 0.677 0.000 0.682 0.000 0.566 0.000 0.000 0.000 0.000 0.349 0.000 0.000 0.000 0.422 0.342 0.364 0.000
4300 0.500 0.000 0.422 0.522 0.500 0.526 0.444 0.774 0.000 0.527 0.625 0.000 0.000 0.000 0.250 0.000 0.000 0.000 0.426 0.515 0.250 0.000
4400 0.500 0.000 0.290 0.889 0.143 0.486 0.550 0.523 0.000 0.477 0.600 0.000 0.000 0.000 0.381 0.000 0.000 0.000 0.454 0.514 0.000 0.000
4500 0.833 0.000 0.272 0.579 0.000 0.735 0.380 0.938 0.000 0.337 0.714 0.000 0.000 0.000 0.500 0.000 0.000 0.000 0.439 0.458 0.000 0.000
4600 0.467 0.000 0.262 0.500 0.000 0.548 0.408 0.617 1.000 0.535 0.444 0.000 0.000 0.000 0.339 0.000 0.000 0.000 0.474 0.488 0.417 0.000
4700 0.462 0.000 0.291 0.440 0.300 0.563 0.583 0.783 1.000 0.401 0.600 0.000 0.000 0.000 0.857 0.000 0.000 0.000 0.445 0.432 0.200 0.000
4800 0.545 0.000 0.457 0.889 0.000 0.583 0.800 0.786 1.000 0.495 0.474 0.000 0.000 0.000 0.378 0.000 0.000 0.000 0.440 0.511 0.500 0.000
4900 0.357 0.000 0.335 0.800 0.500 0.630 0.000 0.741 0.500 0.615 0.700 0.000 0.000 0.000 0.600 0.000 0.000 0.000 0.438 0.395 0.000 0.000
5000 0.462 0.000 0.323 0.625 0.333 0.574 0.500 0.737 0.000 0.469 0.000 0.000 0.000 0.000 0.419 0.000 0.000 0.000 0.463 0.500 0.200 0.000
5100 0.462 0.000 0.423 0.800 0.308 0.572 0.857 0.402 0.500 0.638 0.526 0.000 0.000 0.000 0.244 0.000 0.000 0.000 0.441 0.537 0.333 0.000
5200 0.429 0.000 0.380 0.550 0.375 0.592 0.467 0.710 1.000 0.474 0.833 0.000 0.000 0.000 0.429 0.000 0.000 0.000 0.437 0.621 0.300 0.000
5300 0.857 0.000 0.440 0.545 0.333 0.591 1.000 0.929 0.000 0.444 1.000 0.000 0.000 0.000 0.368 0.000 0.000 0.000 0.434 0.588 0.400 0.000
5400 0.750 0.000 0.286 0.727 0.000 0.651 0.909 0.654 0.000 0.498 0.529 0.000 0.000 0.000 0.383 0.000 0.000 0.000 0.459 0.568 0.000 0.000
5500 0.417 0.000 0.380 0.238 0.400 0.543 0.621 0.818 0.000 0.462 0.444 0.000 0.000 0.000 0.588 0.000 0.000 0.000 0.447 0.724 0.444 0.000
5600 0.500 0.000 0.465 0.900 0.444 0.635 0.682 0.762 0.286 0.802 0.750 0.000 0.000 0.000 0.432 0.000 0.000 0.000 0.439 0.500 0.500 0.000
5700 0.875 0.000 0.429 1.000 0.500 0.585 1.000 0.371 0.000 0.490 0.474 0.000 0.000 0.000 0.356 0.000 0.000 0.000 0.441 0.474 0.333 0.000
5800 0.000 0.000 0.351 0.591 0.600 0.617 0.444 0.739 1.000 0.566 0.600 0.000 0.000 0.000 0.667 0.000 0.000 0.000 0.419 0.500 0.375 0.000
5900 1.000 0.000 0.375 1.000 0.500 0.564 0.556 0.833 0.500 0.568 0.833 0.000 0.000 0.000 0.323 0.000 0.000 0.000 0.428 0.536 0.200 0.000
6000 0.667 0.000 0.387 0.615 0.000 0.529 0.432 0.682 0.333 0.636 0.643 0.000 1.000 0.000 0.478 0.000 0.000 0.000 0.456 0.513 0.000 0.000
6100 1.000 0.000 0.460 0.727 0.143 0.639 0.458 0.842 0.400 0.468 1.000 0.000 0.000 0.000 0.444 0.000 0.000 0.000 0.425 0.421 0.400 0.000
6200 0.625 0.000 0.423 0.471 0.455 0.641 0.438 0.889 1.000 0.475 1.000 0.000 0.000 0.000 0.727 0.000 0.000 0.000 0.435 0.500 0.200 0.000
6300 0.562 0.000 0.445 0.800 0.000 0.551 0.531 0.703 1.000 0.446 0.500 0.000 0.000 0.000 0.378 0.000 0.000 0.000 0.458 0.455 0.571 0.000
6400 0.556 0.000 0.302 0.396 0.355 0.550 0.439 0.375 0.000 0.574 0.000 0.000 0.000 0.000 0.452 0.000 0.000 0.000 0.473 0.404 0.250 0.000
6500 0.667 0.000 0.412 1.000 0.421 0.604 0.000 0.758 0.000 0.667 0.000 0.000 0.000 0.000 0.407 0.000 0.000 0.000 0.444 0.525 0.000 0.000
6600 0.667 0.000 0.407 1.000 0.000 0.646 0.762 0.867 0.000 0.475 0.438 0.000 0.000 0.000 0.538 0.000 0.000 0.000 0.423 0.370 0.000 0.000
6700 0.778 0.000 0.377 0.625 0.286 0.497 0.500 0.811 1.000 0.620 0.417 0.000 0.000 0.000 0.227 0.000 0.000 0.000 0.452 0.316 0.400 0.000
6800 0.419 0.000 0.427 0.750 0.556 0.490 0.453 0.447 0.154 0.642 0.500 0.000 0.000 0.000 0.474 0.000 0.000 0.000 0.452 0.439 0.000 0.000
6900 0.667 0.000 0.392 0.562 0.292 0.738 0.517 0.722 0.000 0.449 0.000 0.000 0.000 0.000 0.647 0.000 0.000 0.000 0.439 0.485 0.000 0.000
7000 0.889 0.000 0.443 1.000 0.500 0.636 0.500 0.840 1.000 0.500 0.667 0.000 0.000 0.000 0.667 0.000 0.000 0.000 0.419 0.541 0.000 0.000
7100 0.647 0.000 0.404 0.656 0.368 0.572 0.343 0.786 0.000 0.495 0.571 0.000 0.000 0.000 0.245 0.000 0.000 0.000 0.448 0.615 0.667 0.000
7200 0.625 0.000 0.500 0.733 0.107 0.590 0.455 0.532 1.000 0.472 0.458 0.000 0.000 0.000 0.421 0.000 0.000 0.000 0.434 0.583 0.000 0.000
7300 0.500 0.000 0.451 0.532 0.200 0.581 0.500 0.689 0.500 0.538 0.393 0.000 0.000 0.000 0.262 0.000 0.000 0.200 0.450 0.548 1.000 0.000
7400 0.625 0.000 0.360 0.500 0.333 0.565 0.000 0.800 0.500 0.610 0.538 0.000 0.000 0.000 0.625 0.000 0.000 0.000 0.429 0.586 0.500 0.000
7500 0.500 0.000 0.337 0.542 0.238 0.627 0.458 0.638 0.000 0.678 0.455 0.000 0.000 0.000 0.387 0.000 0.000 0.000 0.434 0.600 0.000 0.000
7600 0.571 0.000 0.433 0.571 0.333 0.601 0.513 0.489 0.000 0.500 0.360 0.000 0.000 0.000 0.218 0.000 0.000 0.000 0.443 0.545 0.000 0.000
7700 0.583 0.000 0.398 0.579 0.600 0.629 0.588 0.697 0.000 0.549 0.500 0.000 0.000 0.000 0.240 0.000 0.000 0.000 0.451 0.477 0.000 0.000
7800 1.000 0.000 0.329 0.455 1.000 0.547 0.000 0.690 0.429 0.750 0.471 0.000 0.000 0.000 0.435 0.000 0.000 0.000 0.430 0.741 0.600 0.000
7900 1.000 0.000 0.464 0.460 0.375 0.567 0.556 0.882 0.000 0.508 0.615 0.000 0.000 0.000 0.600 0.000 0.000 0.000 0.435 0.567 0.000 0.000
8000 0.750 0.000 0.750 0.625 0.200 0.567 0.714 0.763 0.000 0.593 0.471 0.000 0.000 0.000 0.448 0.000 0.000 0.000 0.434 0.500 0.000 0.000
8100 0.875 0.000 0.341 0.857 0.394 0.583 0.434 0.607 0.500 0.514 0.000 0.000 0.000 0.000 0.450 0.000 0.000 0.000 0.438 0.576 0.333 0.000
8200 0.462 0.000 0.378 0.706 0.579 0.569 0.500 0.591 0.500 0.563 0.800 0.000 0.000 0.000 0.354 0.000 0.000 0.000 0.450 0.519 0.500 0.000
8300 0.714 0.000 0.436 0.562 0.571 0.565 0.483 0.512 0.333 0.494 0.529 0.000 0.000 0.000 0.611 0.000 0.000 0.000 0.458 0.524 0.143 0.000
8400 0.857 0.000 0.448 0.696 0.296 0.595 0.417 0.667 0.000 0.598 0.500 0.000 0.000 0.000 0.538 0.000 0.000 0.000 0.461 0.538 0.000 0.000
8500 0.700 0.000 0.480 0.812 0.455 0.654 0.528 0.636 0.000 0.564 0.500 0.000 0.000 0.000 0.483 0.000 0.000 0.000 0.454 0.532 0.333 0.000
8600 1.000 0.000 0.424 0.636 0.250 0.576 0.538 0.840 0.250 0.648 0.524 0.000 0.000 0.000 0.545 0.000 0.000 0.000 0.464 0.538 0.500 0.000
8700 0.500 0.000 0.373 0.700 0.500 0.598 0.500 0.706 0.000 0.661 0.636 0.000 0.000 0.000 0.833 0.000 0.000 0.000 0.454 0.621 0.333 0.000
8800 0.500 0.000 0.420 0.658 0.333 0.582 0.468 0.659 1.000 0.526 0.562 0.000 0.000 0.000 0.354 0.000 0.000 0.000 0.478 0.479 0.000 0.000
8900 0.833 0.000 0.435 0.800 0.500 0.617 0.786 0.722 1.000 0.606 0.692 0.000 0.000 0.000 0.287 0.000 0.000 0.000 0.469 0.468 0.000 0.000
9000 0.533 0.000 0.421 0.490 0.364 0.604 0.692 0.733 1.000 0.566 0.667 0.000 0.000 0.000 0.632 0.000 0.000 0.000 0.465 0.466 0.000 0.000
9100 0.800 0.000 0.471 0.815 0.429 0.622 0.594 0.638 0.154 0.572 0.625 0.000 0.000 0.000 0.552 0.000 0.000 0.000 0.463 0.651 0.800 0.000
9200 0.800 0.000 0.437 0.649 0.667 0.567 0.581 0.774 0.400 0.609 0.667 0.000 0.000 0.000 0.533 0.000 0.000 0.000 0.473 0.473 0.000 0.000
9300 0.875 0.000 0.391 0.654 0.429 0.626 0.556 0.839 0.333 0.621 0.000 0.000 0.000 0.000 0.542 0.000 0.000 0.000 0.451 0.564 0.000 0.000
9400 0.875 0.000 0.485 0.880 0.750 0.621 0.630 0.792 0.333 0.659 0.636 0.000 0.000 0.000 0.565 0.000 0.000 0.000 0.459 0.478 0.333 0.000
9500 0.857 0.000 0.393 0.774 0.375 0.614 0.449 0.769 0.333 0.587 0.500 0.000 0.000 0.000 0.542 0.000 0.000 0.000 0.477 0.526 0.250 0.000
9600 1.000 0.000 0.459 0.765 0.333 0.656 0.610 0.660 0.429 0.624 0.500 0.000 0.000 0.000 0.232 0.000 0.000 0.000 0.480 0.500 0.000 0.000
9700 0.533 0.000 0.476 0.800 0.000 0.569 0.619 0.673 0.400 0.585 0.455 0.000 0.000 0.000 0.500 0.000 0.000 0.000 0.478 0.551 0.000 0.000
9800 0.353 0.000 0.439 0.750 0.625 0.597 0.595 0.743 1.000 0.586 0.625 0.000 0.000 0.000 0.421 0.000 0.000 0.000 0.475 0.500 0.000 0.000
9900 0.750 0.000 0.450 1.000 0.500 0.654 0.667 0.628 0.400 0.647 0.692 0.000 0.000 0.000 0.538 0.000 0.000 0.000 0.462 0.552 0.000 0.000
10000 0.667 0.000 0.390 0.941 0.000 0.641 0.568 0.703 0.000 0.642 0.556 0.000 0.000 0.000 0.923 0.000 0.000 0.000 0.468 0.520 0.000 0.000
10100 0.875 0.000 0.404 0.739 0.500 0.667 0.432 0.880 0.250 0.545 0.750 0.000 0.000 0.000 0.700 0.000 0.000 0.000 0.467 0.561 0.125 0.000
10200 0.750 0.000 0.419 0.842 1.000 0.648 0.532 0.703 0.000 0.656 0.667 0.000 0.000 0.000 0.515 0.000 0.000 0.000 0.470 0.531 0.000 0.000
10300 0.900 0.000 0.438 0.630 0.533 0.667 0.512 0.647 0.286 0.631 0.692 0.000 0.000 0.000 0.467 0.000 0.000 0.000 0.476 0.600 0.667 0.000
10400 0.667 0.000 0.379 1.000 0.500 0.604 0.500 0.661 0.000 0.619 0.529 0.000 0.000 0.000 0.577 0.000 0.000 0.000 0.480 0.474 0.444 0.000
10500 0.591 0.000 0.429 0.917 0.450 0.721 0.500 0.706 0.222 0.583 0.714 0.000 0.000 0.000 0.366 0.000 0.000 0.000 0.474 0.588 0.571 0.000
10600 0.680 0.000 0.444 0.714 0.600 0.617 0.714 0.721 1.000 0.678 0.571 0.000 0.000 0.000 0.632 0.000 0.000 0.000 0.473 0.510 0.500 0.000
10700 0.692 0.000 0.412 0.741 0.350 0.613 0.739 0.712 0.333 0.666 0.000 0.000 0.000 0.000 0.296 0.000 0.000 0.000 0.478 0.488 0.250 0.000
10800 0.667 0.000 0.434 0.585 0.462 0.610 0.542 0.635 0.308 0.564 0.636 0.000 0.000 0.000 0.432 0.000 0.000 0.000 0.478 0.520 0.000 0.000
10900 0.833 0.000 0.421 0.762 0.600 0.688 0.444 0.769 0.333 0.613 0.500 0.000 0.000 0.000 0.556 0.000 0.000 0.000 0.471 0.457 0.000 0.000
11000 0.875 0.000 0.435 0.900 0.545 0.678 0.700 0.788 0.333 0.580 0.474 0.000 0.000 0.000 0.450 0.000 0.000 0.000 0.476 0.425 0.444 0.000
11100 0.818 0.000 0.440 0.829 0.625 0.668 0.550 0.795 0.300 0.675 0.727 0.000 0.000 0.000 0.486 0.000 0.000 0.000 0.482 0.561 0.500 0.000
11200 0.727 0.000 0.382 0.533 0.333 0.650 0.446 0.757 0.000 0.669 0.444 0.000 0.000 0.000 0.833 0.000 0.000 0.000 0.473 0.510 0.000 0.000
11300 0.778 0.000 0.436 0.905 0.444 0.608 0.536 0.738 0.000 0.632 0.588 0.000 0.000 0.000 0.565 0.000 0.000 0.000 0.478 0.478 0.000 0.000
11400 0.923 0.000 0.476 0.778 0.529 0.664 0.412 0.649 0.250 0.622 0.625 0.000 0.000 0.000 0.444 0.000 0.000 0.000 0.478 0.565 1.000 0.000
11500 0.867 0.000 0.435 0.769 0.333 0.605 0.676 0.620 0.000 0.632 0.688 0.000 0.000 0.000 0.654 0.000 0.000 0.000 0.482 0.558 0.556 0.000
11600 0.929 0.000 0.483 0.800 0.417 0.667 0.583 0.760 0.800 0.682 0.583 0.000 0.000 0.000 0.621 0.000 0.000 0.000 0.478 0.527 0.000 0.000
11700 0.889 0.000 0.468 0.694 0.400 0.680 0.727 0.714 0.667 0.623 0.571 0.000 0.000 0.000 0.552 0.000 0.000 0.000 0.475 0.519 0.000 0.000
11800 0.889 0.000 0.452 0.774 0.000 0.619 0.592 0.692 0.667 0.685 0.440 0.000 0.000 0.000 0.643 0.000 0.000 0.000 0.468 0.566 0.000 0.000
11900 0.765 0.000 0.401 0.655 0.167 0.667 0.667 0.767 0.400 0.657 0.476 0.000 0.000 0.000 0.778 0.000 0.000 0.000 0.480 0.500 0.000 0.000
12000 0.857 0.000 0.399 0.739 0.320 0.602 0.585 0.731 0.000 0.603 0.467 0.000 0.000 0.000 0.441 0.000 0.000 0.000 0.483 0.482 0.000 0.000
12100 0.769 0.000 0.396 0.808 0.750 0.563 0.529 0.714 0.300 0.678 0.647 0.000 0.000 0.000 0.500 0.000 0.000 0.000 0.497 0.536 0.476 0.000
12200 0.667 0.000 0.437 0.758 0.308 0.572 0.595 0.806 0.429 0.667 0.583 0.000 0.000 0.000 0.548 0.000 0.000 0.000 0.481 0.471 0.333 0.000
12300 0.909 0.000 0.435 0.550 0.400 0.677 0.634 0.841 0.250 0.675 0.667 0.000 0.000 0.000 0.700 0.000 0.000 0.000 0.484 0.463 0.000 0.000
12400 0.818 0.000 0.458 0.952 0.500 0.641 0.553 0.691 1.000 0.603 0.556 0.000 0.000 0.000 0.417 0.000 0.000 0.000 0.482 0.482 0.000 0.000
12500 0.714 0.000 0.407 0.610 0.500 0.566 0.630 0.745 0.667 0.641 0.600 0.000 0.000 0.000 0.474 0.000 0.000 0.000 0.493 0.405 0.167 0.000
12600 0.909 0.000 0.441 0.818 0.545 0.646 0.767 0.633 0.750 0.632 0.692 0.000 0.000 0.000 0.432 0.000 0.000 0.000 0.485 0.520 0.500 0.000
12700 0.786 0.000 0.429 0.788 0.500 0.668 0.368 0.644 0.000 0.620 0.571 0.000 0.000 0.000 0.581 0.000 0.000 0.000 0.491 0.436 0.000 0.000
12800 0.692 0.000 0.407 0.657 0.667 0.587 0.556 0.688 0.000 0.621 0.625 0.000 0.000 0.000 0.722 0.000 0.000 0.000 0.481 0.540 0.000 0.000
12900 0.571 0.000 0.537 0.788 0.429 0.640 0.686 0.642 0.333 0.667 0.600 0.000 0.000 0.000 0.400 0.000 0.000 0.000 0.478 0.489 0.143 0.000
13000 0.833 0.000 0.399 0.559 0.500 0.611 0.692 0.604 0.000 0.639 0.588 0.000 0.000 0.000 0.472 0.000 0.000 0.000 0.493 0.553 0.667 0.000
13100 0.875 0.000 0.435 0.714 0.500 0.655 0.365 0.667 0.000 0.619 0.750 0.000 0.000 0.000 0.640 0.000 0.000 0.000 0.491 0.537 0.333 0.000
13200 0.818 0.000 0.421 0.605 0.429 0.667 0.568 0.574 0.250 0.538 0.643 0.000 0.000 0.000 0.439 0.000 0.000 0.000 0.485 0.412 0.000 0.000
13300 0.800 0.000 0.432 0.697 0.250 0.634 0.615 0.766 0.222 0.632 0.556 0.000 0.000 0.000 0.462 0.000 0.000 0.000 0.490 0.553 0.750 0.000
13400 0.692 0.000 0.417 0.650 0.667 0.641 0.595 0.756 0.000 0.665 0.692 0.000 0.000 0.000 0.619 0.000 0.000 0.000 0.483 0.532 0.000 0.000
13500 0.909 0.000 0.408 0.870 0.385 0.622 0.571 0.783 0.250 0.721 0.667 0.000 0.000 0.000 0.548 0.000 0.000 0.000 0.486 0.491 0.500 0.000
13600 0.692 0.000 0.477 0.667 0.500 0.603 0.544 0.580 0.000 0.626 0.667 0.000 0.000 0.000 0.340 0.000 0.000 0.000 0.491 0.610 1.000 0.000
13700 0.778 0.000 0.464 0.418 0.500 0.576 0.522 0.541 1.000 0.687 0.455 0.000 0.000 0.000 0.457 0.000 0.000 0.000 0.492 0.500 0.500 0.000
13800 0.650 0.000 0.402 0.733 0.600 0.645 0.600 0.694 0.500 0.711 0.615 0.000 0.000 0.000 0.636 0.000 0.000 0.000 0.488 0.520 0.000 0.000
13900 0.619 0.000 0.412 0.773 0.550 0.631 0.609 0.652 1.000 0.713 0.600 0.000 0.000 0.000 0.559 0.000 0.000 0.000 0.497 0.510 0.000 0.000
14000 0.706 0.000 0.403 0.842 0.409 0.633 0.592 0.625 0.750 0.702 0.636 0.000 0.000 0.000 0.444 0.000 0.000 0.000 0.499 0.580 1.000 0.000
14100 0.656 0.000 0.446 0.781 0.583 0.643 0.688 0.640 0.636 0.711 0.600 0.000 0.000 0.000 0.525 0.000 0.000 0.000 0.501 0.500 1.000 0.000
14200 0.762 0.000 0.453 0.780 0.600 0.640 0.603 0.589 1.000 0.710 0.667 0.000 0.000 0.000 0.478 0.000 0.000 0.000 0.503 0.566 1.000 0.000
14300 0.654 0.000 0.449 0.737 0.583 0.661 0.607 0.714 0.333 0.673 0.643 0.000 0.000 0.000 0.356 0.000 0.000 0.000 0.503 0.556 0.500 0.000
14400 0.800 0.000 0.391 0.853 0.562 0.676 0.621 0.619 0.800 0.663 0.583 0.000 0.000 0.000 0.513 0.000 0.000 0.000 0.505 0.509 0.500 0.000
14500 0.800 0.000 0.480 0.769 0.444 0.668 0.640 0.712 0.750 0.706 0.700 0.000 0.000 0.000 0.567 0.000 0.000 0.000 0.491 0.538 0.500 0.000
14600 0.737 0.000 0.472 0.674 0.471 0.663 0.507 0.683 1.000 0.686 0.700 0.000 0.000 0.000 0.613 0.000 0.000 0.000 0.499 0.500 0.000 0.000
14700 0.800 0.000 0.473 0.788 0.500 0.656 0.644 0.701 0.625 0.689 0.667 0.000 0.000 0.000 0.528 0.000 0.000 0.000 0.497 0.566 0.500 0.000
14800 0.722 0.000 0.397 0.833 0.480 0.643 0.588 0.625 0.750 0.667 0.500 0.000 1.000 0.000 0.468 0.000 0.000 0.000 0.506 0.547 0.000 0.000
14900 0.824 0.000 0.454 0.765 0.625 0.634 0.618 0.636 0.667 0.705 0.714 0.000 0.000 0.000 0.476 0.000 0.000 0.000 0.498 0.554 0.000 0.000
15000 0.700 0.000 0.459 0.750 0.727 0.654 0.635 0.701 0.550 0.717 0.647 0.000 0.000 0.000 0.367 0.000 0.000 0.000 0.506 0.569 0.000 0.000
15100 0.762 0.000 0.474 0.600 0.750 0.691 0.603 0.687 0.667 0.697 0.522 0.000 0.000 0.000 0.434 0.000 0.000 0.000 0.498 0.580 0.000 0.000
15200 0.708 0.000 0.437 0.789 0.462 0.642 0.604 0.712 0.550 0.702 0.615 0.000 0.000 0.000 0.541 0.000 0.000 0.000 0.503 0.566 0.000 0.000
15300 0.692 0.000 0.453 0.688 0.500 0.649 0.520 0.765 0.467 0.704 0.588 0.000 0.000 0.000 0.440 0.000 0.000 0.000 0.504 0.500 0.000 0.000
15400 0.696 0.000 0.429 0.771 0.550 0.646 0.673 0.620 0.714 0.693 0.643 0.000 0.000 0.000 0.475 0.000 0.000 0.000 0.507 0.500 0.375 0.000
15500 0.833 0.000 0.406 0.763 0.571 0.705 0.565 0.714 0.692 0.676 0.769 0.000 0.000 0.000 0.559 0.000 0.000 0.000 0.511 0.545 0.000 0.000
15600 0.750 0.000 0.444 0.897 0.462 0.662 0.603 0.608 0.522 0.745 0.700 0.000 0.000 0.000 0.368 0.000 0.000 0.000 0.513 0.500 0.000 0.000
15700 0.621 0.000 0.454 0.737 0.500 0.653 0.648 0.653 0.600 0.746 0.692 0.000 0.000 0.000 0.420 0.000 0.000 0.000 0.499 0.549 0.750 0.000
15800 0.773 0.000 0.435 0.737 0.364 0.640 0.794 0.679 0.538 0.725 0.667 0.000 0.000 0.000 0.500 0.000 0.000 0.000 0.499 0.489 0.667 0.000
15900 0.708 0.000 0.479 0.674 0.455 0.655 0.589 0.615 0.533 0.707 0.667 0.000 0.000 0.000 0.469 0.000 0.000 0.000 0.501 0.508 1.000 0.000
16000 0.789 0.000 0.385 0.875 0.500 0.609 0.607 0.700 0.600 0.733 0.625 0.000 0.500 0.000 0.513 0.000 0.000 0.000 0.509 0.491 1.000 0.000
16100 0.792 0.000 0.420 0.711 0.400 0.622 0.685 0.603 0.400 0.756 0.588 0.000 0.500 0.000 0.543 0.000 0.000 0.000 0.506 0.509 0.000 0.000
16200 0.882 0.000 0.466 0.800 0.500 0.637 0.633 0.618 0.545 0.687 0.643 0.000 0.000 0.000 0.528 0.000 0.000 0.000 0.502 0.533 0.286 0.000
16300 0.857 0.000 0.423 0.625 0.364 0.649 0.682 0.667 0.615 0.731 0.600 0.000 0.500 0.000 0.606 0.000 0.000 0.000 0.501 0.554 0.000 0.000
16400 0.842 0.000 0.444 0.816 0.833 0.658 0.618 0.618 0.800 0.723 0.688 0.000 0.000 0.000 0.800 0.000 0.000 0.000 0.501 0.525 0.000 0.000
16500 0.789 0.000 0.478 0.630 0.444 0.662 0.593 0.632 0.692 0.727 0.692 0.000 0.250 0.000 0.468 0.000 0.000 0.000 0.508 0.509 0.000 0.000
16600 0.792 0.000 0.447 0.763 0.500 0.652 0.630 0.691 0.688 0.713 0.571 0.000 0.500 0.000 0.318 0.000 0.000 0.000 0.505 0.577 1.000 0.000
16700 0.714 0.000 0.436 0.730 0.444 0.630 0.594 0.620 0.778 0.743 0.500 0.000 0.500 0.000 0.567 0.000 0.000 0.000 0.507 0.554 0.000 0.000
16800 0.667 0.000 0.377 0.812 0.700 0.677 0.556 0.656 0.583 0.714 0.643 0.000 0.000 0.000 0.435 0.000 0.000 0.000 0.514 0.545 1.000 0.000
16900 0.773 0.000 0.429 0.589 0.462 0.669 0.587 0.706 0.688 0.707 0.571 0.000 0.250 0.000 0.529 0.000 0.000 0.000 0.504 0.517 0.000 0.000
17000 0.684 0.000 0.458 0.744 0.583 0.678 0.696 0.662 0.619 0.695 0.471 0.000 0.000 0.000 0.465 0.000 0.000 0.000 0.501 0.492 0.500 0.000
17100 0.667 0.000 0.418 0.682 0.529 0.653 0.556 0.586 0.600 0.725 0.600 0.000 0.250 0.000 0.600 0.000 0.000 0.000 0.506 0.508 1.000 0.000
17200 0.773 0.000 0.465 0.705 0.600 0.679 0.821 0.630 0.500 0.701 0.533 0.000 0.000 0.000 0.667 0.000 0.000 0.000 0.504 0.604 0.750 0.000
17300 0.857 0.000 0.473 0.683 0.556 0.716 0.846 0.759 0.619 0.690 0.529 0.000 0.000 0.000 0.655 0.000 0.000 0.000 0.496 0.528 0.500 0.000
17400 0.679 0.000 0.432 0.750 0.462 0.698 0.539 0.627 0.438 0.661 0.583 0.000 0.000 0.000 0.559 0.000 0.000 0.000 0.509 0.592 0.400 0.000
17500 0.667 0.000 0.428 0.660 0.387 0.664 0.617 0.676 0.778 0.693 0.714 0.000 0.200 0.000 0.444 0.000 0.000 0.000 0.510 0.545 0.600 0.000
17600 0.750 0.000 0.436 0.674 0.500 0.697 0.612 0.689 0.625 0.693 0.533 0.000 0.125 0.000 0.677 0.000 1.000 0.000 0.509 0.536 0.000 0.000
17700 0.667 0.000 0.409 0.653 0.529 0.677 0.621 0.609 0.556 0.700 0.588 0.000 0.333 0.000 0.447 0.000 0.000 0.000 0.514 0.512 0.286 0.000
17800 0.710 0.000 0.456 0.727 0.611 0.668 0.603 0.667 0.625 0.701 0.692 0.000 1.000 0.000 0.365 0.000 0.000 0.000 0.517 0.556 0.429 0.000
17900 0.783 0.000 0.437 0.630 0.500 0.664 0.673 0.623 0.706 0.710 0.615 0.000 0.500 0.000 0.613 0.000 0.000 0.000 0.509 0.560 1.000 0.000
18000 0.731 0.000 0.417 0.660 0.538 0.682 0.686 0.700 0.579 0.705 0.562 0.000 0.500 0.000 0.571 0.000 0.000 0.000 0.512 0.525 1.000 0.000
18100 0.692 0.000 0.446 0.690 0.438 0.687 0.617 0.643 0.688 0.697 0.545 0.000 0.333 0.000 0.575 0.000 0.000 0.000 0.515 0.500 1.000 0.000
18200 0.731 0.000 0.456 0.625 0.400 0.649 0.643 0.629 0.667 0.731 0.500 0.000 0.250 0.000 0.460 0.000 0.000 0.000 0.516 0.500 0.500 0.000
18300 0.645 0.000 0.480 0.686 0.533 0.672 0.542 0.656 0.550 0.707 0.500 0.000 0.286 0.000 0.423 0.000 0.000 0.500 0.515 0.526 0.500 0.000
18400 0.622 0.000 0.487 0.680 0.700 0.669 0.603 0.632 0.524 0.693 0.565 0.000 0.400 0.000 0.261 0.000 0.000 0.000 0.523 0.564 0.500 0.000
18500 0.700 0.000 0.466 0.636 0.474 0.673 0.735 0.630 0.684 0.704 0.462 0.000 0.333 0.000 0.383 0.000 0.000 1.000 0.518 0.527 0.333 0.000
18600 0.667 0.000 0.426 0.711 0.455 0.689 0.636 0.714 0.600 0.700 0.533 0.000 0.200 0.000 0.556 0.000 0.000 0.000 0.514 0.500 0.000 0.000
18700 0.731 0.000 0.431 0.745 0.500 0.680 0.627 0.609 0.750 0.720 0.538 0.000 0.500 0.000 0.478 0.000 0.000 0.000 0.515 0.500 0.000 0.000
18800 0.704 0.000 0.383 0.714 0.533 0.661 0.625 0.676 0.600 0.727 0.545 0.000 0.400 0.000 0.724 0.000 0.000 0.000 0.516 0.491 0.000 0.000
18900 0.741 0.000 0.450 0.688 0.538 0.667 0.606 0.620 0.469 0.723 0.500 0.000 0.200 0.000 0.365 0.000 0.000 0.000 0.526 0.508 0.000 0.000
19000 0.720 0.000 0.415 0.717 0.571 0.659 0.627 0.597 0.542 0.708 0.545 0.000 0.400 0.000 0.525 0.000 0.000 0.000 0.518 0.547 1.000 0.000
19100 0.733 0.000 0.454 0.717 0.500 0.656 0.578 0.557 0.625 0.709 0.636 0.000 0.667 0.000 0.354 0.000 0.000 0.000 0.525 0.485 0.667 0.000
19200 0.690 0.000 0.453 0.733 0.600 0.663 0.673 0.590 0.600 0.718 0.600 0.000 0.333 0.000 0.373 0.000 0.000 0.000 0.520 0.517 0.333 0.000
19300 0.667 0.000 0.473 0.745 0.500 0.686 0.609 0.662 0.478 0.724 0.643 0.000 0.071 0.000 0.300 0.000 0.000 0.000 0.520 0.532 0.500 0.000
19400 0.724 0.000 0.429 0.706 0.471 0.665 0.557 0.627 0.579 0.683 0.636 0.000 0.286 0.000 0.477 0.000 0.000 0.500 0.517 0.510 0.500 0.000
19500 0.688 0.000 0.435 0.750 0.450 0.675 0.739 0.638 0.556 0.719 0.556 0.000 0.250 0.000 0.446 0.000 0.000 1.000 0.525 0.524 1.000 0.000
19600 0.655 0.000 0.446 0.621 0.571 0.669 0.761 0.667 0.583 0.718 0.667 0.000 0.500 0.000 0.538 0.000 0.000 0.000 0.517 0.516 1.000 0.000
19700 0.731 0.000 0.442 0.623 0.538 0.687 0.692 0.613 0.579 0.693 0.615 0.000 0.333 0.000 0.629 0.000 0.000 0.000 0.515 0.492 0.667 0.000
19800 0.645 0.000 0.452 0.673 0.529 0.694 0.571 0.605 0.571 0.702 0.562 0.000 0.200 0.000 0.434 0.000 0.000 0.000 0.522 0.500 1.000 0.000
19900 0.677 0.000 0.437 0.694 0.467 0.667 0.597 0.635 0.609 0.730 0.500 0.000 0.400 0.000 0.537 0.000 0.000 0.333 0.522 0.516 0.500 0.000
20000 0.667 0.000 0.448 0.727 0.750 0.688 0.649 0.667 0.577 0.733 0.522 0.000 0.250 0.000 0.423 0.000 0.000 0.333 0.522 0.516 1.000 0.000
20100 0.690 0.000 0.416 0.686 0.467 0.693 0.720 0.662 0.522 0.716 0.562 0.000 0.167 0.000 0.453 0.000 0.000 0.000 0.522 0.477 0.000 0.000
20200 0.690 0.000 0.443 0.766 0.667 0.714 0.679 0.593 0.609 0.689 0.556 0.000 0.125 0.000 0.500 0.000 0.000 0.000 0.521 0.470 0.000 0.000
20300 0.724 0.000 0.434 0.735 0.556 0.661 0.644 0.620 0.667 0.755 0.500 0.000 0.125 0.000 0.535 0.000 1.000 0.000 0.523 0.500 0.333 0.000
20400 0.690 0.000 0.457 0.712 0.533 0.660 0.554 0.581 0.722 0.760 0.500 0.000 0.375 0.000 0.500 0.000 0.000 0.000 0.520 0.491 0.500 0.000
20500 0.629 0.000 0.486 0.723 0.556 0.716 0.582 0.617 0.636 0.672 0.615 0.000 0.250 0.000 0.404 0.000 0.000 0.143 0.526 0.483 0.600 0.000
20600 0.676 0.000 0.439 0.750 0.636 0.656 0.692 0.640 0.625 0.714 0.500 0.000 0.250 0.000 0.429 0.000 0.000 0.000 0.521 0.485 1.000 0.000
20700 0.710 0.000 0.464 0.756 0.600 0.662 0.627 0.630 0.667 0.725 0.583 0.000 0.200 0.333 0.488 0.000 0.000 0.000 0.520 0.460 0.500 0.000
20800 0.667 0.000 0.473 0.680 0.529 0.648 0.679 0.608 0.600 0.711 0.562 0.000 0.200 0.000 0.329 0.000 0.000 0.000 0.525 0.476 0.667 0.000
20900 0.688 0.000 0.451 0.721 0.583 0.676 0.567 0.649 0.609 0.714 0.562 0.000 0.429 0.000 0.373 0.000 0.000 0.333 0.525 0.508 0.714 0.000
21000 0.690 0.000 0.462 0.756 0.391 0.644 0.814 0.596 0.654 0.720 0.500 0.000 0.667 0.000 0.424 0.000 0.000 0.200 0.527 0.478 1.000 0.000
21100 0.656 0.000 0.452 0.720 0.455 0.662 0.632 0.634 0.682 0.739 0.500 0.000 0.500 0.000 0.537 0.000 0.000 0.000 0.522 0.492 0.500 0.000
21200 0.688 0.000 0.468 0.649 0.412 0.682 0.642 0.613 0.700 0.723 0.562 0.000 0.250 0.000 0.404 0.000 0.000 0.000 0.519 0.492 0.000 0.000
21300 0.636 0.000 0.428 0.735 0.444 0.685 0.795 0.589 0.652 0.676 0.533 0.000 0.400 0.000 0.429 0.000 0.000 0.000 0.532 0.500 0.000 0.000
21400 0.636 0.000 0.438 0.660 0.545 0.679 0.614 0.598 0.542 0.722 0.579 0.000 0.333 0.667 0.500 0.000 0.000 0.000 0.525 0.484 0.000 0.000
21500 0.667 0.000 0.465 0.661 0.421 0.678 0.585 0.620 0.591 0.747 0.545 0.000 0.231 0.000 0.451 0.000 0.000 0.000 0.521 0.475 0.000 0.000
21600 0.714 0.000 0.470 0.738 0.462 0.686 0.673 0.560 0.643 0.737 0.600 0.000 0.200 0.000 0.448 0.000 0.000 0.000 0.526 0.526 0.400 0.000
21700 0.686 0.000 0.482 0.702 0.429 0.666 0.597 0.658 0.704 0.749 0.538 0.000 0.375 0.000 0.342 0.000 0.000 0.000 0.527 0.508 0.400 0.000
21800 0.733 0.000 0.434 0.644 0.500 0.672 0.638 0.672 0.652 0.731 0.636 0.000 0.429 0.500 0.511 0.000 0.000 0.000 0.527 0.500 0.000 0.000
21900 0.667 0.000 0.475 0.679 0.529 0.667 0.655 0.636 0.593 0.701 0.538 0.000 0.333 0.167 0.400 0.000 0.000 0.000 0.528 0.516 0.500 0.000
22000 0.667 0.000 0.448 0.740 0.455 0.671 0.627 0.653 0.630 0.744 0.636 0.000 0.375 0.375 0.407 0.000 0.000 0.000 0.529 0.485 0.500 0.000
22100 0.656 0.000 0.466 0.702 0.526 0.664 0.587 0.614 0.615 0.738 0.583 0.000 0.375 0.200 0.451 0.000 0.000 0.000 0.526 0.508 0.000 0.000
22200 0.600 0.000 0.442 0.755 0.556 0.688 0.679 0.627 0.565 0.739 0.727 0.000 0.300 0.400 0.550 0.000 0.000 0.000 0.523 0.493 0.000 0.000
22300 0.690 0.000 0.454 0.702 0.421 0.680 0.649 0.630 0.520 0.736 0.583 0.000 0.375 0.000 0.458 0.000 0.000 0.000 0.520 0.492 0.333 0.000
22400 0.613 0.000 0.442 0.661 0.538 0.707 0.556 0.676 0.581 0.679 0.455 0.000 0.500 0.000 0.400 0.000 0.000 0.000 0.525 0.492 0.500 0.000
22500 0.588 0.000 0.485 0.733 0.500 0.681 0.633 0.625 0.571 0.724 0.562 0.000 0.300 0.000 0.295 0.000 0.000 0.000 0.528 0.480 0.100 0.000
22600 0.636 0.000 0.450 0.704 0.538 0.658 0.750 0.588 0.609 0.722 0.471 0.000 0.500 0.500 0.436 0.000 0.000 0.000 0.530 0.485 0.000 0.000
22700 0.618 0.000 0.489 0.686 0.467 0.687 0.692 0.547 0.565 0.734 0.583 0.000 0.364 0.600 0.426 0.000 0.000 0.000 0.526 0.449 0.000 0.000
22800 0.667 0.000 0.426 0.712 0.429 0.697 0.745 0.628 0.600 0.705 0.562 0.000 0.364 0.500 0.462 0.000 0.000 0.000 0.529 0.484 0.667 0.000
22900 0.636 0.000 0.468 0.761 0.429 0.662 0.773 0.570 0.556 0.743 0.500 0.000 0.286 0.000 0.429 0.000 0.000 0.000 0.528 0.515 1.000 0.000
23000 0.645 0.000 0.475 0.720 0.467 0.673 0.706 0.566 0.684 0.714 0.500 0.000 0.308 1.000 0.400 0.000 0.000 0.000 0.524 0.500 0.000 0.000
23100 0.690 0.000 0.440 0.704 0.429 0.661 0.623 0.625 0.750 0.730 0.529 0.000 0.333 0.000 0.537 0.000 0.000 0.000 0.527 0.569 0.667 0.000
23200 0.625 0.000 0.439 0.733 0.500 0.670 0.686 0.630 0.536 0.730 0.571 0.000 0.444 1.000 0.525 0.000 0.000 0.000 0.528 0.468 0.400 0.000
23300 0.667 0.000 0.443 0.700 0.429 0.646 0.723 0.576 0.571 0.745 0.600 0.000 0.417 0.667 0.390 0.000 0.000 0.000 0.527 0.477 0.500 0.000
23400 0.647 0.000 0.477 0.692 0.636 0.678 0.706 0.588 0.667 0.724 0.529 0.000 0.375 0.200 0.458 0.000 0.000 0.000 0.523 0.459 0.333 0.000
23500 0.647 0.000 0.432 0.766 0.462 0.650 0.773 0.613 0.619 0.779 0.583 0.000 0.500 0.333 0.438 0.000 0.000 0.000 0.526 0.469 0.500 0.000
